Division,WeightClassKg,Place,Name,Team,BodyweightKg,Best3SquatKg,Best3BenchKg,Best3DeadliftKg,TotalKg,Equipment,Event,Sex,BirthDate
Girls,44.23,1,Phoebe Gale,Lago Vista,43.02,97.52,36.29,88.45,222.26,Unlimited,SBD,F,
Girls,44.23,2,Ashlyn Crabtree,Junction,42.18,72.57,38.56,72.57,183.7,Unlimited,SBD,F,
Girls,44.23,3,Grace Doyle,Llano,37.92,61.23,29.48,83.91,174.63,Unlimited,SBD,F,
Girls,44.23,4,Jozlynn Medley,Fredericksburg,42.46,54.43,31.75,81.65,167.83,Unlimited,SBD,F,
Girls,44.23,5,Jolie Rambo,Santa Anna,42.91,63.5,24.95,74.84,163.29,Unlimited,SBD,F,
Girls,44.23,DQ,Delilah Garcia,Brady,43.54,68.04,,,,Unlimited,SBD,F,
Girls,47.85,1,Alyssa Aguero,Ballinger,47.63,120.2,54.43,111.13,285.76,Unlimited,SBD,F,
Girls,47.85,2,Makinzey Saldivar,San Saba,44.45,97.52,63.5,95.25,256.28,Unlimited,SBD,F,
Girls,47.85,3,Jada Schoppe,Junction,46.81,97.52,47.63,106.59,251.74,Unlimited,SBD,F,
Girls,47.85,4,Raelyn Graff,Brady,46.95,102.06,52.16,90.72,244.94,Unlimited,SBD,F,
Girls,47.85,5,Jo-Anne Schoppe,Junction,45.99,77.11,49.9,92.99,219.99,Unlimited,SBD,F,
Girls,47.85,6,Natalie Cuevas,San Saba,44.91,77.11,38.56,77.11,192.78,Unlimited,SBD,F,
Girls,47.85,DQ,Caitlyn Brooks,Junction,47.72,,,,,Unlimited,SBD,F,
Girls,51.94,1,Whitney Halfmann,Miles,51.89,113.4,68.04,122.47,303.91,Unlimited,SBD,F,
Girls,51.94,2,Hannah Middleton,Early,51.26,113.4,58.97,120.2,292.57,Unlimited,SBD,F,
Girls,51.94,3,Gwyn Burnet,Llano,50.26,108.86,52.16,120.2,281.23,Unlimited,SBD,F,
Girls,51.94,4,Abby Smith,Burnet,51.71,108.86,61.23,111.13,281.23,Unlimited,SBD,F,
Girls,51.94,5,Matty Boswell,Early,51.17,106.59,63.5,108.86,278.96,Unlimited,SBD,F,
Girls,51.94,6,Lyndi Landers,Llano,50.62,92.99,61.23,115.67,269.89,Unlimited,SBD,F,
Girls,51.94,7,Elaine Zhuang,Ballinger,51.71,97.52,45.36,108.86,251.74,Unlimited,SBD,F,
Girls,51.94,8,Skyla Hostetter,Ballinger,51.89,97.52,45.36,102.06,244.94,Unlimited,SBD,F,
Girls,51.94,9,Julienne Socong,Early,50.17,97.52,38.56,104.33,240.4,Unlimited,SBD,F,
Girls,51.94,10,Graeson Fanning,Fredericksburg,51.8,77.11,43.09,95.25,215.46,Unlimited,SBD,F,
Girls,51.94,11,Mariah Case,Brady,51.62,81.65,52.16,72.57,206.38,Unlimited,SBD,F,
Girls,51.94,12,Angelica Sauceda,Junction,48.81,72.57,43.09,83.91,199.58,Unlimited,SBD,F,
Girls,51.94,13,Natalie Mondragon,Fredericksburg,48.17,74.84,31.75,86.18,192.78,Unlimited,SBD,F,
Girls,51.94,14,Kendall Smith,Ballinger,48.44,52.16,36.29,90.72,179.17,Unlimited,SBD,F,
Girls,51.94,15,Jammie Frausto,Santa Anna,51.17,49.9,34.02,83.91,167.83,Unlimited,SBD,F,
Girls,51.94,16,Araceli Hernandez,San Saba,51.62,61.23,29.48,72.57,163.29,Unlimited,SBD,F,
Girls,51.94,17,Kylie Villarreal,Ballinger,50.89,52.16,38.56,61.23,151.95,Unlimited,SBD,F,
Girls,51.94,18,Paige Guzy,Fredericksburg,51.17,52.16,36.29,63.5,151.95,Unlimited,SBD,F,
Girls,51.94,DQ,Nevaeh Guerrero,Brady,49.44,86.18,,,,Unlimited,SBD,F,
Girls,56.02,1,Alexa Hernandez,Early,55.16,147.42,70.31,142.88,360.61,Unlimited,SBD,F,
Girls,56.02,2,Leslie Aguirre,San Saba,53.52,106.59,49.9,124.74,281.23,Unlimited,SBD,F,
Girls,56.02,3,Nica Hernandez,Brady,55.79,102.06,54.43,111.13,267.62,Unlimited,SBD,F,
Girls,56.02,4,Jaydan Crenwelge,Junction,54.61,92.99,56.7,106.59,256.28,Unlimited,SBD,F,
Girls,56.02,5,Kylee Dossey,Brady,54.88,90.72,43.09,90.72,224.53,Unlimited,SBD,F,
Girls,56.02,6,Madison Morrison,Llano,55.7,81.65,40.82,99.79,222.26,Unlimited,SBD,F,
Girls,56.02,7,Kelaiah Wehmeyer,Fredericksburg,53.8,77.11,47.63,88.45,213.19,Unlimited,SBD,F,
Girls,56.02,8,Keni Drennan,Ballinger,55.97,79.38,34.02,90.72,204.12,Unlimited,SBD,F,
Girls,56.02,9,Kenley Currie,Burnet,55.97,65.77,40.82,86.18,192.78,Unlimited,SBD,F,
Girls,56.02,10,Julia Smith,San Saba,52.53,63.5,34.02,90.72,188.24,Unlimited,SBD,F,
Girls,56.02,11,Addison Welch,Brownwood,55.88,68.04,38.56,79.38,185.97,Unlimited,SBD,F,
Girls,56.02,DQ,Emma Rutledge,Ballinger,54.7,,,,,Unlimited,SBD,F,
Girls,60.1,1,Yasmine Morado,Brady,59.78,158.76,83.91,142.88,385.55,Unlimited,SBD,F,
Girls,60.1,2,Miranda Castanuela,Early,59.42,113.4,63.5,131.54,308.44,Unlimited,SBD,F,
Girls,60.1,3,Reagan Shipley,Burnet,58.97,104.33,61.23,111.13,276.69,Unlimited,SBD,F,
Girls,60.1,4,Loveli Sanders,Ballinger,57.52,102.06,43.09,113.4,258.55,Unlimited,SBD,F,
Girls,60.1,5,Ashley Colmenero,Fredericksburg,59.69,102.06,45.36,108.86,256.28,Unlimited,SBD,F,
Girls,60.1,6,Emily Taylor,Coleman,56.52,92.99,49.9,102.06,244.94,Unlimited,SBD,F,
Girls,60.1,7,Jayme Duroy,Llano,58.88,83.91,47.63,106.59,238.14,Unlimited,SBD,F,
Girls,60.1,8,Hailey LeJeune,Llano,57.52,81.65,45.36,83.91,210.92,Unlimited,SBD,F,
Girls,60.1,9,Yasmeen Ramirez,Brady,59.92,102.06,52.16,52.16,206.38,Unlimited,SBD,F,
Girls,60.1,DQ,Haleigh Delk,Brady,60.06,,,,,Unlimited,SBD,F,
Girls,67.36,1,Danielle Alcorta,Early,65.5,154.22,79.38,142.88,376.48,Unlimited,SBD,F,
Girls,67.36,2,Analysia Fuentes,Brady,66.04,140.61,88.45,138.35,367.41,Unlimited,SBD,F,
Girls,67.36,3,Sarah Easley,Fredericksburg,66.41,115.67,58.97,138.35,312.98,Unlimited,SBD,F,
Girls,67.36,4,Lauren McKeehan,Coleman,66.5,120.2,61.23,120.2,301.64,Unlimited,SBD,F,
Girls,67.36,5,Madison Pitcox,Brady,64.86,117.93,65.77,102.06,285.76,Unlimited,SBD,F,
Girls,67.36,6,Avery Hernandez,Junction,61.6,111.13,49.9,115.67,276.69,Unlimited,SBD,F,
Girls,67.36,7,Ella Crowder,Santa Anna,67.22,97.52,58.97,99.79,256.28,Unlimited,SBD,F,
Girls,67.36,8,Kira Garcia,Ballinger,60.42,108.86,43.09,102.06,254.01,Unlimited,SBD,F,
Girls,67.36,9,Abigail Herrera,Ballinger,66.59,88.45,47.63,104.33,240.4,Unlimited,SBD,F,
Girls,67.36,10,Avery Donham,Santa Anna,65.68,79.38,56.7,95.25,231.33,Unlimited,SBD,F,
Girls,67.36,11,Lisa Jasso,Brady,63.5,72.57,52.16,90.72,215.46,Unlimited,SBD,F,
Girls,67.36,DQ,Paige Polk,Christoval,62.51,,,,,Unlimited,SBD,F,
Girls,67.36,DQ,Allyson Matheny,Miles,66.86,,,,,Unlimited,SBD,F,
Girls,67.36,DQ,Emily Hindman,Miles,62.96,,,,,Unlimited,SBD,F,
Girls,67.36,DQ,Rachel Fry,Llano,61.69,,,,,Unlimited,SBD,F,
Girls,75.07,1,Ava Girard,Lago Vista,74.84,163.29,58.97,124.74,347,Unlimited,SBD,F,
Girls,75.07,2,Gracie Galindo,Brady,73.71,136.08,74.84,133.81,344.73,Unlimited,SBD,F,
Girls,75.07,3,Alejandra Villanueva,Junction,71.49,124.74,77.11,138.35,340.19,Unlimited,SBD,F,
Girls,75.07,4,Lizbeth Depaz,Llano,69.4,127.01,58.97,122.47,308.44,Unlimited,SBD,F,
Girls,75.07,5,Annabel Sauceda,Junction,71.49,124.74,61.23,111.13,297.1,Unlimited,SBD,F,
Girls,75.07,6,Audrey McKeehan,Coleman,73.94,104.33,68.04,115.67,288.03,Unlimited,SBD,F,
Girls,75.07,7,Natalie Huff,Fredericksburg,71.3,99.79,58.97,113.4,272.16,Unlimited,SBD,F,
Girls,75.07,8,Mackenzie Welch,Brownwood,68.49,106.59,54.43,108.86,269.89,Unlimited,SBD,F,
Girls,75.07,9,Julietta Arellano,Lago Vista,69.49,106.59,47.63,113.4,267.62,Unlimited,SBD,F,
Girls,75.07,10,Lainey Rye,Burnet,74.3,90.72,70.31,102.06,263.08,Unlimited,SBD,F,
Girls,75.07,11,Emmalee Williams,Burnet,73.66,88.45,47.63,104.33,240.4,Unlimited,SBD,F,
Girls,75.07,12,Yesinia Avila,Ballinger,68.22,90.72,40.82,104.33,235.87,Unlimited,SBD,F,
Girls,75.07,13,Mykia Richardson,Santa Anna,74.21,83.91,61.23,88.45,233.6,Unlimited,SBD,F,
Girls,75.07,14,Carleigh Imrie,Burnet,68.67,90.72,43.09,90.72,224.53,Unlimited,SBD,F,
Girls,75.07,DQ,Jandrea McVicker,Brownwood,74.57,120.2,74.84,,,Unlimited,SBD,F,
Girls,75.07,DQ,Jaycie Constantine,Fredericksburg,69.31,97.52,58.97,,,Unlimited,SBD,F,
Girls,75.07,DQ,Emily Sklenarik,Miles,72.3,151.95,,,,Unlimited,SBD,F,
Girls,75.07,DQ,Maliza Rios,Junction,69.13,,,,,Unlimited,SBD,F,
Girls,75.07,DQ,LaLa Hernandez,Llano,68.76,127.01,49.9,,,Unlimited,SBD,F,
Girls,82.33,1,Alyne Celedon,Early,76.66,167.83,88.45,145.15,401.43,Unlimited,SBD,F,
Girls,82.33,2,Brylee Stewart,Junction,80.38,124.74,74.84,133.81,333.39,Unlimited,SBD,F,
Girls,82.33,3,Savhanna Wilkins,Christoval,77.93,140.61,54.43,120.2,315.25,Unlimited,SBD,F,
Girls,82.33,4,Juliet Garcia,Christoval,81.28,106.59,45.36,113.4,265.35,Unlimited,SBD,F,
Girls,82.33,5,Sage Joyce #2,Christoval,77.84,86.18,47.63,117.93,251.74,Unlimited,SBD,F,
Girls,82.33,6,Brittlyn Miller,Christoval,79.38,86.18,43.09,113.4,242.67,Unlimited,SBD,F,
Girls,82.33,7,Dasia Kirven,Santa Anna,80.2,79.38,58.97,86.18,224.53,Unlimited,SBD,F,
Girls,82.33,DQ,Hannah Jefferson,Coleman,77.47,,,,,Unlimited,SBD,F,
Girls,82.33,DQ,Brianna Herrera,Ballinger,80.74,,,,,Unlimited,SBD,F,
Girls,90.04,1,Remi Easley,Llano,87.09,142.88,83.91,156.49,383.29,Unlimited,SBD,F,
Girls,90.04,2,Emily Leach,Llano,89.45,149.69,88.45,136.08,374.21,Unlimited,SBD,F,
Girls,90.04,3,Rylea Whitus,Burnet,83.82,142.88,86.18,129.27,358.34,Unlimited,SBD,F,
Girls,90.04,4,Carolina Cervantes,San Saba,83.64,145.15,58.97,117.93,322.05,Unlimited,SBD,F,
Girls,90.04,5,Aubryn Prieto,Brady,82.83,108.86,54.43,97.52,260.82,Unlimited,SBD,F,
Girls,90.04,6,Evangeline Escobedo,Lohn,88,102.06,40.82,102.06,244.94,Unlimited,SBD,F,
Girls,90.04,7,Julia Dotson,Lohn,83.91,70.31,34.02,77.11,181.44,Unlimited,SBD,F,
Girls,100.02,1,Austyn Graham,San Saba,95.16,174.63,97.52,147.42,419.57,Unlimited,SBD,F,
Girls,100.02,2,Ashlyn Harris,Brownwood,98.52,165.56,77.11,129.27,371.95,Unlimited,SBD,F,
Girls,100.02,3,Diandra Hernandez,Brady,97.52,140.61,70.31,133.81,344.73,Unlimited,SBD,F,
Girls,100.02,4,Alexyss Bigham,Coleman,96.62,131.54,77.11,129.27,337.93,Unlimited,SBD,F,
Girls,100.02,5,Maddi Moise,Burnet,96.34,108.86,56.7,136.08,301.64,Unlimited,SBD,F,
Girls,100.02,6,Rai-Ven Walton,Brady,92.99,86.18,52.16,113.4,251.74,Unlimited,SBD,F,
Girls,117.71,1,Alisha Parks,Coleman,116.75,204.12,90.72,147.42,442.25,Unlimited,SBD,F,
Girls,117.71,2,Daniela Hernandez,Brady,106.78,117.93,65.77,127.01,310.71,Unlimited,SBD,F,
Girls,117.71,3,Shaden Soto,Fredericksburg,108.59,115.67,72.57,113.4,301.64,Unlimited,SBD,F,
Girls,117.71,4,Lilly Medina,Lago Vista,113.49,122.47,45.36,129.27,297.1,Unlimited,SBD,F,
Girls,117.71,5,Michelle Medina,Lago Vista,108.05,124.74,56.7,113.4,294.84,Unlimited,SBD,F,
Girls,117.71,DQ,Aubrey Luna,Coleman,108.5,,,,,Unlimited,SBD,F,
Girls,117.71+,1,Abbey Lee,Christoval,133.54,188.24,113.4,179.17,480.81,Unlimited,SBD,F,
Girls,117.71+,2,Adrianna Reyes,Fredericksburg,121.29,70.31,56.7,97.52,224.53,Unlimited,SBD,F,
