Place,Name,BirthDate,Sex,BirthYear,Age,Country,State,Equipment,Division,BodyweightKg,WeightClassKg,Squat1Kg,Squat2Kg,Squat3Kg,Best3SquatKg,Bench1Kg,Bench2Kg,Bench3Kg,Best3BenchKg,Deadlift1Kg,Deadlift2Kg,Deadlift3Kg,Best3DeadliftKg,TotalKg,Event
1,Sara Nalazek,,F,,,Poland,,Wraps,J20-23,59.5,60,130,-140,140,140,50,52.5,57.5,57.5,-125,125,,125,322.5,SBD
1,Adrianna Borowczyk,,F,,,Poland,,Wraps,J20-23,64.5,67.5,160,167.5,-172.5,167.5,75,77.5,80,80,145,152.5,-157.5,152.5,400,SBD
2,Joanna Zaborowska,,F,,,Poland,,Wraps,J20-23,64.7,67.5,100,107.5,110,110,50,55,-57.5,55,125,130,-135,130,295,SBD
1,Dominika Piotrowicz,,F,,,Poland,,Wraps,J20-23,70.4,75,160,-170,-175,160,90,-95,-95,90,160,172.5,180,180,430,SBD
2,Marcelina Wodzinska,,F,,,Poland,,Wraps,J20-23,75,75,130,-137.5,-137.5,130,65,72.5,-77.5,72.5,130,140,-152.5,140,342.5,SBD
1,Sylvia Schmidt,,F,,,Germany,,Wraps,M40-49,55.1,56,90,-100,105,105,50,55,-57.5,55,105,115,125,125,285,SBD
1,Bozena Porada,,F,,,Poland,,Wraps,M40-49,60,60,80,90,95,95,40,45,50,50,90,100,105,105,250,SBD
1,Iwona Kamińska,,F,,,Poland,,Wraps,M40-49,65.1,67.5,100,107.5,110,110,55,57.5,-60,57.5,90,100,105,105,272.5,SBD
1,Sabrina Kothe,,F,,,Germany,,Wraps,M40-49,116.8,90+,155,165,-175,165,85,90,-95,90,155,-160,-160,155,410,SBD
1,Anna Staszczak,,F,,,Poland,,Wraps,MPF,60,,125,-135,-135,125,55,60,-65,60,140,-150,150,150,335,SBD
1,Natalia Soboń,,F,,,Poland,,Wraps,Open,50.5,52,-117.5,-120,120,120,52.5,-55,-55,52.5,-145,145,-150,145,317.5,SBD
1,Anna Gąska,,F,,,Poland,,Wraps,Open,55.7,56,105,110,112.5,112.5,47.5,-50,-50,47.5,135,140,-145,140,300,SBD
2,Milena Lazniewska,,F,,,Poland,,Wraps,Open,54.9,56,102.5,107.5,112.5,112.5,50,-52.5,52.5,52.5,120,130,-140,130,295,SBD
1,Paulina Zakostowicz,,F,,,Poland,,Wraps,Open,59.7,60,155,-162.5,-162.5,155,52.5,55,57.5,57.5,140,-145,145,145,357.5,SBD
2,Anna Staszczak,,F,,,Poland,,Wraps,Open,60,60,125,-135,-135,125,55,60,-65,60,140,-150,150,150,335,SBD
3,Sara Nalazek,,F,,,Poland,,Wraps,Open,59.5,60,130,-140,140,140,50,52.5,57.5,57.5,-125,125,,125,322.5,SBD
1,Adrianna Borowczyk,,F,,,Poland,,Wraps,Open,64.5,67.5,160,167.5,-172.5,167.5,75,77.5,80,80,145,152.5,-157.5,152.5,400,SBD
2,Ewelina Dębska,,F,,,Poland,,Wraps,Open,66.2,67.5,-145,145,150,150,65,-70,-70,65,155,-160,160,160,375,SBD
3,Anna Marciniak,,F,,,Poland,,Wraps,Open,65.1,67.5,130,-135,-135,130,70,-72.5,-72.5,70,135,142.5,150,150,350,SBD
1,Wiktoria Grzywa,,F,,,Poland,,Wraps,Open,74.2,75,180,190,200,200,100,-105,-105,100,195,-210,210,210,510,SBD
2,Katarzyna Knapik,,F,,,Poland,,Wraps,Open,67.8,75,155,170,-177.5,170,90,95,-100,95,160,-172.5,-175,160,425,SBD
3,Magdalena Jagnicka,,F,,,Poland,,Wraps,Open,74,75,145,152.5,157.5,157.5,62.5,65,67.5,67.5,140,147.5,155,155,380,SBD
4,Adrianna Pluta,,F,,,Poland,,Wraps,Open,71.5,75,130,-140,-140,130,52.5,-55,-55,52.5,130,140,-145,140,322.5,SBD
1,Martyna Ostrowska,2001-11-21,F,,,Poland,,Wraps,Open,80.8,82.5,145,155,-165,155,65,72.5,-77.5,72.5,145,155,-160,155,382.5,SBD
1,Anna Patrzek,,F,,,Poland,,Wraps,Open,96.6,90+,170,180,187.5,187.5,107.5,112.5,-117.5,112.5,160,170,175,175,475,SBD
1,Natasza Krawczyk,,F,,,Poland,,Wraps,T16-17,65.1,67.5,80,92.5,-100,92.5,35,40,42.5,42.5,90,100,110,110,245,SBD
1,Amelia Ruszkowska,,F,,,Poland,,Wraps,T18-19,66.2,67.5,102.5,107.5,112.5,112.5,45,47.5,50,50,102.5,110,115,115,277.5,SBD
1,Emilia Brynczak,,F,,,Poland,,Wraps,T13-15,51.3,52,85,92.5,100,100,42.5,46,47.5,47.5,-85,85,-95,85,232.5,SBD
1,Wiktoria Karwel,,F,,,Poland,,Sleeves,J20-23,51.3,52,92.5,97.5,100,100,47.5,50,52.5,52.5,120,127.5,132.5,132.5,285,SBD
1,Ewa Matuszka,,F,,,Poland,,Sleeves,J20-23,54,56,-105,107.5,-112.5,107.5,55,-60,-60,55,110,-120,,110,272.5,SBD
1,Magdalena Piktel-Brzeska,,F,,,Poland,,Sleeves,M40-49,57.6,60,70,80,-90,80,50,55,62.5,62.5,100,110,-120,110,252.5,SBD
DQ,Magdalena Krysiak,,F,,,Poland,,Sleeves,Open,52,52,90,-95,-95,90,-45,-50,-50,,110,120,-125,120,,SBD
1,Dominika Samonek,,F,,,Poland,,Sleeves,Open,53.8,56,130,135,140,140,62.5,67.5,70,70,132.5,-142.5,-142.5,132.5,342.5,SBD
1,Kinga Kostrzewa,,F,,,Poland,,Sleeves,Open,59.3,60,125,130,-135,130,75,77.5,-80,77.5,140,147.5,152.5,152.5,360,SBD
1,Julia Adamiec,,F,,,Poland,,Sleeves,Open,61.5,67.5,85,95,102.5,102.5,50,55,-60,55,120,130,140,140,297.5,SBD
1,Aleksandra Bochaj,,F,,,Poland,,Sleeves,Open,73.9,75,-75,75,80,80,40,-45,45,45,120,130,-140,130,255,SBD
1,Monika Tokarska,,F,,,Poland,,Sleeves,Open,88.4,90,120,125,130,130,62.5,65,67.5,67.5,120,127.5,135,135,332.5,SBD
1,Martyna Chodera,,F,,,Poland,,Sleeves,T13-15,44.1,52,60,-65,65,65,,30,32.5,32.5,-70,72.5,-75,72.5,170,SBD
1,Nadia Wieszczyk,,F,,,Poland,,Sleeves,T16-17,48.9,52,80,87.5,-92.5,87.5,47.5,52.5,-55,52.5,110,-117.5,-120,110,250,SBD
1,Amelia Piascik,,F,,,Poland,,Sleeves,T16-17,57.8,60,85,90,97.5,97.5,45,50,-55,50,90,100,105,105,252.5,SBD
2,Karolina Mastalerz,,F,,,Poland,,Sleeves,T16-17,57,60,75,80,85,85,40,42.5,,42.5,-75,75,82.5,82.5,210,SBD
1,Wiktoria Jakubus,,F,,,Poland,,Sleeves,T16-17,64.9,67.5,100,-107.5,107.5,107.5,62.5,67.5,-70,67.5,135,145,150,150,325,SBD
1,Oliwia Jaskulska,,F,,,Poland,,Sleeves,T16-17,70.3,75,85,95,102.5,102.5,62.5,67.5,,67.5,130,135,140,140,310,SBD
1,Katarzyna Karwowska,,F,,,Poland,,Sleeves,T18-19,64.9,67.5,95,100,105,105,50,57.5,60,60,125,-132.5,,125,290,SBD
1,Stanislaw Suslowicz,,M,,,Poland,,Wraps,T13-15,74.2,75,160,-170,175,175,60,65,-70,65,150,160,170,170,410,SBD
1,Wiktor Fularczyk,,M,,,Poland,,Wraps,T13-15,86.2,90,170,180,185,185,90,100,105,105,180,-190,200,200,490,SBD
1,Andrii Manychev,,M,,,Ukraine,,Wraps,T16-17,81.3,82.5,180,190,-200,190,-120,120,,120,200,215,230,230,540,SBD
2,Maciej Kalinowski,,M,,,Poland,,Wraps,T16-17,80.8,82.5,180,190,-200,190,90,95,-97.5,95,180,,,180,465,SBD
1,Wojciech Hanf,,M,,,Poland,,Wraps,T16-17,88,90,202.5,-212.5,-212.5,202.5,105,110,-115,110,225,240,-247.5,240,552.5,SBD
2,Jakub Chlebowski,,M,,,Poland,,Wraps,T16-17,85.2,90,205,-210,210,210,97.5,102.5,107.5,107.5,190,-202.5,-202.5,190,507.5,SBD
DQ,Hennadii Popov,,M,,,Ukraine,,Wraps,T16-17,88.5,90,160,-170,-170,160,-115,-115,-115,,-180,,,,,SBD
1,Przemyslaw Kwak,,M,,,Poland,,Wraps,T16-17,97.6,100,225,-240,240,240,160,-170.5,-170.5,160,-230,230,246,246,646,SBD
2,Michal Serafin,,M,,,Poland,,Wraps,T16-17,96.8,100,-200,-200,200,200,135,-140,-140,135,225,-235,235,235,570,SBD
3,Jakub Suślik,,M,,,Poland,,Wraps,T16-17,97.5,100,210,215,-222.5,215,125,130,-135,130,220,-230,-230,220,565,SBD
4,Damian Kryk,,M,,,Poland,,Wraps,T16-17,95,100,160,170,-180,170,102.5,107.5,-110,107.5,-180,180,-195,180,457.5,SBD
5,Kacper Jutrzenka,,M,,,Poland,,Wraps,T16-17,96.4,100,165,175,-180,175,80,87.5,90,90,130,140,150,150,415,SBD
1,Antoni Wawer,,M,,,Poland,,Wraps,T16-17,108.5,110,230,240,245,245,130,135,140,140,235,242.5,-247.5,242.5,627.5,SBD
1,Krzysztof Gorski,,M,,,Poland,,Wraps,T16-17,114.8,125,207.5,215,,215,130,135,140,140,240,252.5,260,260,615,SBD
2,Juliusz Poznanski,,M,,,Poland,,Wraps,T16-17,119.2,125,170,-185,-190,170,90,100,105,105,140,152.5,162.5,162.5,437.5,SBD
1,Dawid Sendrowski,,M,,,Poland,,Wraps,T16-17,140,140,-210,225,-232.5,225,140,150,-160,150,230,242.5,245,245,620,SBD
1,Jakub Bońkowski,,M,,,Poland,,Wraps,T18-19,65.1,67.5,170,190,-201,190,85,90,-92.5,90,220,230,235,235,515,SBD
1,Albert Papliński,,M,,,Poland,,Wraps,T18-19,73.3,75,215,227.5,235,235,115,125,-130,125,-215,215,-230,215,575,SBD
1,Jakub Kołodziejczyk,,M,,,Poland,,Wraps,T18-19,81.6,82.5,-185,-190,190,190,105,110,-112.5,110,200,210,220,220,520,SBD
1,Szymon Ogiegło,,M,,,Poland,,Wraps,T18-19,89,90,205,215,-225,215,140,150,-155,150,235,250,257.5,257.5,622.5,SBD
1,Kamil Kaczmarek,,M,,,Poland,,Wraps,T18-19,98.2,100,190,205,-210,205,95,102.5,105,105,200,215,230,230,540,SBD
1,Bartosz Boratyn,,M,,,Poland,,Wraps,T18-19,105.7,110,280,300,310,310,170,175,180,180,230,242.5,247.5,247.5,737.5,SBD
2,Jakub Frączek,,M,,,Poland,,Wraps,T18-19,107.3,110,285,-300,300,300,140,147.5,150,150,272.5,285,-290,285,735,SBD
3,Emil Golebiowski,,M,,,Poland,,Wraps,T18-19,107.9,110,250,-265,-270,250,140,147.5,-152.5,147.5,225,240,247.5,247.5,645,SBD
1,Konstantinos Chorazak,,M,,,Poland,,Wraps,T18-19,112.3,125,200,-210,-210,200,125,-130,-130,125,-230,230,-245,230,555,SBD
1,Dawid Grubich,,M,,,Poland,,Sleeves,T13-15,67.4,67.5,120,130,-142.5,130,75,80,85,85,-140,150,165,165,380,SBD
1,Mikolaj Przewodek,,M,,,Poland,,Sleeves,T13-15,73.7,75,160,170,-177.5,170,135,140,142.5,142.5,190,197.5,-202.5,197.5,510,SBD
2,Oskar Hirsz,,M,,,Poland,,Sleeves,T13-15,74.5,75,165,172.5,182.5,182.5,95,-105,-105,95,-195,205,220,220,497.5,SBD
3,Jakub Starnawski,,M,,,Poland,,Sleeves,T13-15,74.4,75,130,-142.5,-142.5,130,82.5,87.5,92.5,92.5,140,150,155,155,377.5,SBD
1,Szymon Kudzia,,M,,,Poland,,Sleeves,T13-15,91.4,100,80,95,102.5,102.5,50,55,-57.5,55,80,-95,95,95,252.5,SBD
1,Wiktor Skwarczynski,,M,,,Poland,,Sleeves,T16-17,58.8,60,110,117.5,122.5,122.5,62.5,67.5,-72.5,67.5,120,-127.5,-127.5,120,310,SBD
1,Szymon Rumel,,M,,,Poland,,Sleeves,T16-17,80.9,82.5,200,207.5,-215,207.5,105,110,112.5,112.5,205,212.5,220,220,540,SBD
2,Maciej Zdeb,,M,,,Poland,,Sleeves,T16-17,80,82.5,150,160,-167.5,160,95,102.5,-105,102.5,220,230,-235,230,492.5,SBD
3,Jaroslaw Jaskulski,,M,,,Poland,,Sleeves,T16-17,80.5,82.5,160,170,-175,170,105,107.5,-110,107.5,185,192.5,200,200,477.5,SBD
4,Kacper Sygulski,,M,,,Poland,,Sleeves,T16-17,79.9,82.5,145,150,155,155,-105,110,-115,110,190,-200,-200,190,455,SBD
5,Filip Dziewiatek,,M,,,Poland,,Sleeves,T16-17,79,82.5,-160,-162.5,162.5,162.5,105,-107.5,-107.5,105,180,-192.5,-192.5,180,447.5,SBD
6,Jakub Widelski,,M,,,Poland,,Sleeves,T16-17,78.2,82.5,130,137.5,-145,137.5,70,80,-92.5,80,150,160,167.5,167.5,385,SBD
1,Jakub Gmiterek,,M,,,Poland,,Sleeves,T16-17,86,90,127.5,-135,137.5,137.5,95,-102.5,-102.5,95,170,180,-190,180,412.5,SBD
1,Bartlomiej Machej,,M,,,Poland,,Sleeves,T16-17,105.1,110,170,180,-190,180,105,-110,-110,105,195,205,215,215,500,SBD
1,Paweł Lipka,,M,,,Poland,,Sleeves,T16-17,120.3,125,170,-185,-185,170,115,120,-127.5,120,250,260,270,270,560,SBD
1,Borys Gorecki,,M,,,Poland,,Sleeves,T18-19,121.8,125,155,-170,-180,155,110,117.5,125,125,-220,220,-235,220,500,SBD
DQ,Przemysław Stec,,M,,,Poland,,Wraps,J20-23,72.7,75,-220,220,-230,220,130,140,-145,140,-300,-300,-300,,,SBD
1,Jakub Koeijvoets,,M,,,Poland,,Wraps,J20-23,81.8,82.5,225,-232.5,,225,147.5,157.5,-160,157.5,272.5,-285,-285,272.5,655,SBD
2,Dawid Sadecki,,M,,,Poland,,Wraps,J20-23,81.8,82.5,-200,210,-220,210,-110,-110,110,110,200,210,-220,210,530,SBD
3,Filip Zabawa,,M,,,Poland,,Wraps,J20-23,81,82.5,-185,192.5,-200,192.5,100,107.5,112.5,112.5,-190,-195,195,195,500,SBD
4,Kacper Sobczak,,M,,,Poland,,Wraps,J20-23,80,82.5,190,-200,-200,190,-82.5,85,90,90,170,177.5,-185,177.5,457.5,SBD
1,Kacper Wawrzyniak,,M,,,Poland,,Wraps,J20-23,89.1,90,270,-285,-290,270,140,145,-147.5,145,280,-295,295,295,710,SBD
2,Michal Danieluk,,M,,,Poland,,Wraps,J20-23,89.7,90,235,245,250,250,157.5,165,170,170,-235,242.5,250,250,670,SBD
3,Josef Brož,,M,,,Czechia,,Wraps,J20-23,88.6,90,210,230,240,240,120,-130,130,130,-220,240,260,260,630,SBD
DQ,Oleksandr Bretsko,,M,,,Ukraine,,Wraps,J20-23,89.9,90,180,192.5,207.5,207.5,110,120,-125,120,-182.5,-200,-200,,,SBD
1,Dawid Holeksa,,M,,,Poland,,Wraps,J20-23,95.2,100,275,295,-305,295,155,165,172.5,172.5,270,-290,-290,270,737.5,SBD
2,Bartosz Szymaszko,,M,,,Poland,,Wraps,J20-23,98.9,100,240,250,260,260,137.5,145,-147.5,145,280,-295,295,295,700,SBD
DQ,Piotr Olszewski,,M,,,Poland,,Wraps,J20-23,97.7,100,-245,255,-265,255,145,150,-155,150,-275,-275,-275,,,SBD
1,Dawid Cesarz,,M,,,Poland,,Wraps,J20-23,108.4,110,275,290,300,300,165,172.5,-175,172.5,255,265,-270,265,737.5,SBD
2,Szymon Sonntag,,M,,,Poland,,Wraps,J20-23,106,110,265,-272.5,272.5,272.5,160,167.5,-170,167.5,-270,270,-285,270,710,SBD
3,Jakub Sołoducha,,M,,,Poland,,Wraps,J20-23,108.2,110,-235,235,250,250,150,157.5,-162.5,157.5,240,252.5,-262.5,252.5,660,SBD
1,Michał Welet,,M,,,Poland,,Wraps,J20-23,121.8,125,315,340,-350,340,195,202.5,-205,202.5,300,-310,-310,300,842.5,SBD
1,Anton Koshyl,,M,,,Poland,,Wraps,J20-23,136.2,140,-350,362.5,376,376,195,202.5,205,205,-310,310,330,330,911,SBD
2,Kacper Inglot,,M,,,Poland,,Wraps,J20-23,125.7,140,210,-225,-235,210,125,135,-137.5,135,215,-225,,215,560,SBD
1,Mariusz Piegat,,M,,,Poland,,Wraps,M40-49,71,75,200,-215,-215,200,110,115,120,120,190,205,-215,205,525,SBD
1,Ara Khachatryan,,M,,,Armenia,,Wraps,M40-49,82.4,82.5,240,255,-262.5,255,120,125,130,130,270,282.5,,282.5,667.5,SBD
1,Michal Komorowski,,M,,,Poland,,Wraps,M40-49,87.1,90,150,165,175,175,80,90,100,100,150,165,180,180,455,SBD
1,Krzysztof Wichrowski,,M,,,Poland,,Wraps,M40-49,99,100,210,220,230,230,135,-145,145,145,210,220,230,230,605,SBD
1,Szymon Bielucy,,M,,,Poland,,Wraps,M40-49,110,110,-265,265,275,275,150,160,-170,160,-260,260,-280,260,695,SBD
2,Jakub Koryzna,,M,,,Poland,,Wraps,M40-49,110,110,205,-215,,205,190,201,,201,235,,,235,641,SBD
1,Michael Schmidt,,M,,,Germany,,Wraps,M50-59,80.9,82.5,220,235,250,250,140,150,155,155,230,250,,250,655,SBD
1,Anton Frič,,M,,,Slovakia,,Wraps,M50-59,88.8,90,222.5,242.5,255,255,135,147.5,155,155,-220,230,251,251,661,SBD
1,Maciej Czereba,,M,,,Poland,,Wraps,M50-59,104,110,-235,250,260,260,130,140,150,150,250,265,-275,265,675,SBD
1,Mieczysłąw Maczka,,M,,,Germany,,Wraps,M60-69,83.6,90,135,-150,155,155,100,110,-115,110,135,157.5,165,165,430,SBD
1,Andrzej Redkowicz,,M,,,Poland,,Wraps,MPF,82.1,,210,220,230,230,165,170,175,175,230,245,262.5,262.5,667.5,SBD
2,Kacper Inglot,,M,,,Poland,,Wraps,MPF,125.7,,210,-225,-235,210,125,135,-137.5,135,215,-225,,215,560,SBD
3,Kacper Sobczak,,M,,,Poland,,Wraps,MPF,80,,190,-200,-200,190,-82.5,85,90,90,170,177.5,-185,177.5,457.5,SBD
1,Varos Vardanyan,,M,,,Armenia,,Wraps,Open,60,60,140,145,152.5,152.5,85,90,-101,90,160,175,185,185,427.5,SBD
1,Mateusz Podkoń,,M,,,Poland,,Wraps,Open,73.4,75,170,182.5,195,195,92.5,100,-102.5,100,175,-185,185,185,480,SBD
1,Andrzej Redkowicz,,M,,,Poland,,Wraps,Open,82.1,82.5,210,220,230,230,165,170,175,175,230,245,262.5,262.5,667.5,SBD
2,Sebastian Bojdo,,M,,,Poland,,Wraps,Open,82.5,82.5,-230,230,-240,230,135,140,-145,140,255,-270,-270,255,625,SBD
DQ,Paweł Just,,M,,,Poland,,Wraps,Open,81,82.5,-260,-260,-260,,-140,,,,,,,,,SBD
1,Erik Khachatryan,,M,,,Armenia,,Sleeves,J20-23,66,67.5,90,95,105,105,70,80,-100,80,140,155,170,170,355,SBD
1,Misha Khachatryan,,M,,,Armenia,,Sleeves,J20-23,82,82.5,-70,70,80,80,50,60,-70,60,100,115,125,125,265,SBD
1,Mateusz Sikora,,M,,,Poland,,Sleeves,J20-23,106.4,110,250,265,-270,265,170,177.5,-182.5,177.5,300,,,300,742.5,SBD
1,Mikołaj Reczyński,,M,,,Poland,,Sleeves,J20-23,116.2,125,205,215,222.5,222.5,147.5,152.5,155,155,230,245,-252.5,245,622.5,SBD
2,Gracjan Sadowski,,M,,,Poland,,Sleeves,J20-23,119.1,125,-200,200,215,215,135,142.5,-150,142.5,230,240,-260,240,597.5,SBD
1,Makar Tamrazyan,,M,,,Armenia,,Sleeves,M40-49,67.3,67.5,,150,167.5,167.5,70,,,70,200,220,,220,457.5,SBD
1,Jacek Bedryj,,M,,,Poland,,Sleeves,M40-49,82.5,82.5,210,220,230,230,140,145,150,150,225,235,-242.5,235,615,SBD
1,Robert Kucza,,M,,,Poland,,Sleeves,M40-49,87.5,90,105,115,-120,115,105,115,-125,115,170,180,190,190,420,SBD
1,Adam Stankiewicz,,M,,,Poland,,Sleeves,M40-49,99.4,100,255,265,270,270,170,180,-190,180,260,270,280,280,730,SBD
2,Radoslaw Piktel,,M,,,Poland,,Sleeves,M40-49,95.2,100,180,200,220,220,140,150,165,165,180,200,215,215,600,SBD
1,Andrzej Ratajczyk,,M,,,Poland,,Sleeves,M70+,98.5,100,-175,180,185,185,-135,135,140,140,-180,180,185,185,510,SBD
1,Jacek Bedryj,,M,,,Poland,,Sleeves,MPF,82.5,,210,220,230,230,140,145,150,150,225,235,-242.5,235,615,SBD
1,Marcin Baczynski,,M,,,Poland,,Sleeves,Open,75,75,187.5,-202.5,-202.5,187.5,-115,-115,115,115,220,230,-235,230,532.5,SBD
1,Jakub Bolanowski,,M,,,Poland,,Wraps,MPF,148.6,,335,350,-370,350,200,210,-215,210,325,340,-350,340,900,SBD
2,Milosz Krzyzewski,,M,,,Poland,,Wraps,MPF,112,,280,290,300,300,187.5,192.5,200,200,290,300,-305,300,800,SBD
3,Marek Sarama,,M,,,Poland,,Wraps,MPF,87.2,,260,-275,280,280,155,162.5,-167.5,162.5,250,260,-272.5,260,702.5,SBD
4,Wojciech Barszczewski,,M,,,Poland,,Wraps,MPF,94,,270,-290,-290,270,150,160,-170,160,270,287.5,-300,287.5,717.5,SBD
5,Jakub Wegenek,,M,,,Poland,,Wraps,MPF,89,,230,240,-250,240,130,135,-140,135,230,242.5,250,250,625,SBD
6,Daniel Miszkiel,,M,,,Poland,,Wraps,MPF,98,,235,245,250,250,135,142.5,-150,142.5,240,252.5,260,260,652.5,SBD
7,Marcin Michajłow,,M,,,Poland,,Wraps,MPF,91.9,,220,-230,-230,220,-125,125,-130,125,225,235,240,240,585,SBD
G,Bartosz Bebło,,M,,,Poland,,Wraps,J20-23,84.2,90,-265,285,,285,147.5,152.5,-157.5,152.5,285,-295,-295,285,722.5,SBD
1,Hubert Przybylski,,M,,,Poland,,Wraps,Open,88,90,-270,270,282.5,282.5,160,-170,170,170,300,310,-320,310,762.5,SBD
2,Marek Sarama,,M,,,Poland,,Wraps,Open,87.2,90,260,-275,280,280,155,162.5,-167.5,162.5,250,260,-272.5,260,702.5,SBD
3,Jakub Wegenek,,M,,,Poland,,Wraps,Open,89,90,230,240,-250,240,130,135,-140,135,230,242.5,250,250,625,SBD
1,Bartłomiej Balawender,,M,,,Poland,,Wraps,Open,97.6,100,285,305,-315,305,200,210,215,215,280,290,300,300,820,SBD
2,Sebastian Trybuś,,M,,,Poland,,Wraps,Open,99.1,100,285,-305,-305,285,170,177.5,-182.5,177.5,-280,300,-305,300,762.5,SBD
3,Wojciech Barszczewski,,M,,,Poland,,Wraps,Open,94,100,270,-290,-290,270,150,160,-170,160,270,287.5,-300,287.5,717.5,SBD
4,Daniel Miszkiel,,M,,,Poland,,Wraps,Open,98,100,235,245,250,250,135,142.5,-150,142.5,240,252.5,260,260,652.5,SBD
5,Adam Chaberko,,M,,,Poland,,Wraps,Open,97.4,100,235,-242.5,245,245,132.5,137.5,140,140,-242.5,250,255,255,640,SBD
6,Marcin Michajłow,,M,,,Poland,,Wraps,Open,91.9,100,220,-230,-230,220,-125,125,-130,125,225,235,240,240,585,SBD
7,Maciej Wojciechowski,,M,,,Poland,,Wraps,Open,97.5,100,195,205,215,215,100,107.5,-112.5,107.5,190,205,210,210,532.5,SBD
8,Pawel Wawrynek,,M,,,Poland,,Wraps,Open,94.9,100,185,-192.5,192.5,192.5,107.5,115,-117.5,115,180,195,-200,195,502.5,SBD
DQ,Bartłomiej Woryński,,M,,,Poland,,Wraps,Open,98.4,100,-290,-290,-290,,130,140,-145,140,250,-270,-270,250,,SBD
1,Krystian Kopka,,M,,,Poland,,Wraps,Open,105.1,110,265,277.5,285,285,-152.5,157.5,-162.5,157.5,285,300,-305,300,742.5,SBD
2,Jakub Borkowski,,M,,,Poland,,Wraps,Open,101.2,110,215,-225,230,230,155,160,-162.5,160,250,-260,260,260,650,SBD
3,Grzegorz Abramowicz,,M,,,Poland,,Wraps,Open,108.4,110,225,240,250,250,125,-132.5,-132.5,125,-235,252.5,260,260,635,SBD
4,Tomasz Szymaniuk,,M,,,Poland,,Wraps,Open,101.2,110,220,235,245,245,142.5,-145,-145,142.5,235,-250,-250,235,622.5,SBD
5,Daniel Krol,,M,,,Poland,,Wraps,Open,108,110,220,235,-250,235,140,150,-157.5,150,215,230,-240,230,615,SBD
1,Leon Pavlovic,,M,,,Norway,,Wraps,Open,110,110,-285,301,-315,301,165,170,-175,170,290,302.5,-315,302.5,773.5,SBD
1,Oskar Bar,,M,,,Poland,,Wraps,Open,117.2,125,340,-360,360,360,205,-212.5,-212.5,205,-280,300,315,315,880,SBD
2,Sebastian Pawlik,,M,,,Poland,,Wraps,Open,121.4,125,-330,-350,350,350,220,230,-235,230,300,-320,-320,300,880,SBD
3,Milosz Krzyzewski,,M,,,Poland,,Wraps,Open,112,125,280,290,300,300,187.5,192.5,200,200,290,300,-305,300,800,SBD
4,Marcin Kuczkowski,,M,,,Poland,,Wraps,Open,124.1,125,335,-345,-345,335,170,177.5,182.5,182.5,270,275,-287.5,275,792.5,SBD
5,Kamil Witkowski,,M,,,Poland,,Wraps,Open,122,125,280,300,-320,300,150,160,-170,160,250,270,290,290,750,SBD
6,Adrian Masny,,M,,,Poland,,Wraps,Open,112.6,125,280,-290,290,290,170,-175,-175,170,275,280,-285,280,740,SBD
1,Mariusz Marciniak,,M,,,Poland,,Wraps,Open,131.8,140,-300,300,315,315,190,200,-210,200,-260,260,285,285,800,SBD
2,Mateusz Cichy,,M,,,Poland,,Wraps,Open,134.2,140,270,290,300,300,175,185,-195,185,240,255,265,265,750,SBD
DQ,Jakub Dylewski,,M,,,Poland,,Wraps,Open,136.5,140,-340,-350,-350,,,,,,,,,,,SBD
1,Jakub Bolanowski,,M,,,Poland,,Wraps,Open,148.6,140+,335,350,-370,350,200,210,-215,210,325,340,-350,340,900,SBD
1,Maciej Domanski,,M,,,Poland,,Wraps,T13-15,60,60,120,130,-140,130,90,95,-97.5,95,130,140,-150,140,365,SBD
1,Franciszek Zloch,,M,,,Poland,,Wraps,T13-15,69.2,75,100,107.5,112.5,112.5,60,65,67.5,67.5,107.5,115,120,120,300,SBD
1,Kuba Zelazowski,,M,,,Poland,,Wraps,T16-17,72.9,75,150,160,-165,160,-90,95,-100,95,175,-185,-185,175,430,SBD
1,Jan Wyrebkowski,,M,,,Poland,,Wraps,T18-19,78.6,82.5,-190,190,-207.5,190,82.5,87.5,92.5,92.5,-185,185,200,200,482.5,SBD
1,David Künzling,,M,,,Germany,,Wraps,M40-49,89,90,-170,180,-202.5,180,,,,,,,,,180,S
1,Krzysztof Wichrowski,,M,,,Poland,,Wraps,M40-49,99,100,230,,,230,,,,,,,,,230,S
1,Maciej Czereba,,M,,,Poland,,Wraps,M50-59,104,110,260,,,260,,,,,,,,,260,S
1,Mieczysłąw Maczka,,M,,,Germany,,Wraps,M60-69,83.6,90,155,,,155,,,,,,,,,155,S
1,Damian Matuszczak,,M,,,Poland,,Wraps,Open,105,110,210,220,-230,220,,,,,,,,,220,S
1,Leon Pavlovic,,M,,,Norway,,Wraps,Open,110,110,301,,,301,,,,,,,,,301,S
1,Paweł Baranowski,,M,,,Poland,,Sleeves,MPF,121.6,,280,300,310,310,190,-200,-200,190,320,340,-365,340,840,SBD
2,Karol Prawdzik,,M,,,Poland,,Sleeves,MPF,113.9,,200,220,230,230,200,205,210,210,270,280,290,290,730,SBD
1,Marcin Kosut,,M,,,Poland,,Sleeves,Open,89.8,90,240,250,260,260,160,170,,170,250,265,-280,265,695,SBD
1,Michał Nowak,,M,,,Poland,,Sleeves,Open,99.9,100,265,277.5,-285,277.5,165,170,-175,170,255,265,277.5,277.5,725,SBD
2,Adrian Sołtysik,,M,,,Poland,,Sleeves,Open,100,100,220,230,-240,230,155,165,-170,165,240,255,265,265,660,SBD
3,Michał Prętkiewicz,,M,,,Poland,,Sleeves,Open,98.1,100,185,195,202.5,202.5,132.5,140,-145,140,227.5,245,-257.5,245,587.5,SBD
4,Kacper Zawislanski,,M,,,Poland,,Sleeves,Open,97.9,100,170,182.5,-195,182.5,90,95,100,100,170,-180,-180,170,452.5,SBD
5,Bartlomiej Zasinski,,M,,,Poland,,Sleeves,Open,98.3,100,140,150,-160,150,90,95,-100,95,-170,180,-190,180,425,SBD
1,Adrian Młynarczyk,,M,,,Poland,,Sleeves,Open,106,110,230,250,260,260,150,160,165,165,-270,270,290,290,715,SBD
2,Łukasz Machynia,,M,,,Poland,,Sleeves,Open,109.5,110,230,240,-250,240,160,167.5,-172.5,167.5,270,290,-300,290,697.5,SBD
3,Łukasz Kulczyński,,M,,,Poland,,Sleeves,Open,109.2,110,215,225,-230,225,130,-135,-135,130,235,250,,250,605,SBD
1,Paweł Baranowski,,M,,,Poland,,Sleeves,Open,121.6,125,280,300,310,310,190,-200,-200,190,320,340,-365,340,840,SBD
2,Karol Prawdzik,,M,,,Poland,,Sleeves,Open,113.9,125,200,220,230,230,200,205,210,210,270,280,290,290,730,SBD
3,Hubert Woźniak,,M,,,Poland,,Sleeves,Open,110.7,125,260,-270,270,270,160,165,-167.5,165,260,-270,-275,260,695,SBD
4,Maciej Duda,,M,,,Poland,,Sleeves,Open,110.9,125,220,230,-235,230,130,135,-140,135,235,-250,250,250,615,SBD
1,Kuba Kucharski,,M,,,Poland,,Sleeves,T13-15,61.2,67.5,75,80,87.5,87.5,70,75,-77.5,75,100,-115,115,115,277.5,SBD
1,Kacper Plecha,,M,,,Poland,,Sleeves,T16-17,59.7,60,95,100,-110,100,80,-85,85,85,120,-130,-135,120,305,SBD
1,Livia Tal Nemethne,,F,,,Hungary,,Multi-ply,M50-59,70.7,75,,,,,75,-85,-85,75,,,,,75,B
1,Tímea Kadenszki,,F,,,Hungary,,Multi-ply,Open,64.4,67.5,,,,,-72.5,75,-81,75,,,,,75,B
1,Boglárka Horváth,,F,,,Hungary,,Raw,J20-23,51.3,52,,,,,57.5,60,62.5,62.5,,,,,62.5,B
1,Klaudia Grinig,,F,,,Poland,,Raw,J20-23,64.6,67.5,,,,,47.5,50,52.5,52.5,,,,,52.5,B
1,Beáta Szalay,,F,,,Hungary,,Raw,M40-49,73.8,75,,,,,60,65,70,70,,,,,70,B
1,Mónika Molnár,,F,,,Hungary,,Raw,M50-59,71.1,75,,,,,52.5,55,-57.5,55,,,,,55,B
1,Brigitte Maczka,,F,,,Germany,,Raw,M60-69,66.5,67.5,,,,,35,-40,40,40,,,,,40,B
1,Barbara Mocsár,,F,,,Hungary,,Raw,Open,95.2,90+,,,,,80,90,100,100,,,,,100,B
1,Alicja Jaworska,,F,,,Poland,,Raw,T16-17,58.4,60,,,,,40,45,-46,45,,,,,45,B
1,Petra Vaščáková,,F,,,Slovakia,,Raw,T16-17,80.1,82.5,,,,,81,82.5,-85,82.5,,,,,82.5,B
1,Julia Gorecka,,F,,,Poland,,Raw,T18-19,72.3,75,,,,,55,-65,-65,55,,,,,55,B
1,Kaja Moczyło,,F,,,Poland,,Raw,T18-19,75.4,82.5,,,,,65,70,-72.5,70,,,,,70,B
1,Erika Molnár,,F,,,Hungary,,Unlimited,M40-49,67.9,75,,,,,95,101,-105,101,,,,,101,B
1,Andrea Csuti,,F,,,Hungary,,Unlimited,M40-49,90.3,90+,,,,,75,80,85,85,,,,,85,B
1,Astrid Fehr,,F,,,Germany,,Unlimited,M70+,58,60,,,,,42.5,45,47.5,47.5,,,,,47.5,B
1,Barbara Mocsár,,F,,,Hungary,,Unlimited,Open,95.2,90+,,,,,160,170,178,178,,,,,178,B
1,Karolina Mastalerz,,F,,,Poland,,Unlimited,T16-17,56.7,60,,,,,50,60,-65,60,,,,,60,B
1,Tamara Bugár,,F,,,Hungary,,Unlimited,T16-17,85.8,90,,,,,82.5,-85,-85,82.5,,,,,82.5,B
1,Júlia Nagy,,F,,,Hungary,,Unlimited,T18-19,65.9,67.5,,,,,75,81,82.5,82.5,,,,,82.5,B
1,Zhozef Tigranyan,,M,,,Armenia,,Multi-ply,J20-23,68.5,75,,,,,80,-85,-90,80,,,,,80,B
1,Remigiusz Zwoliński,,M,,,Poland,,Multi-ply,J20-23,89.8,90,,,,,245,260,-272.5,260,,,,,260,B
DQ,Károly Tölli,,M,,,Hungary,,Multi-ply,M40-49,88.8,90,,,,,-155,-155,-155,,,,,,,B
1,Daniel Kaufmann,,M,,,Germany,,Multi-ply,M40-49,92.6,100,,,,,270,285,300,300,,,,,300,B
2,Róbert Csetényi,,M,,,Hungary,,Multi-ply,M40-49,95.1,100,,,,,240,,,240,,,,,240,B
1,Henning Tiedje,,M,,,Germany,,Multi-ply,M40-49,108.5,110,,,,,275,-300,300,300,,,,,300,B
2,Peter Funtík,,M,,,Slovakia,,Multi-ply,M40-49,109.3,110,,,,,180,-190,190,190,,,,,190,B
1,Ján Šiska,,M,,,Slovakia,,Multi-ply,M40-49,122.1,125,,,,,250,270,-280,270,,,,,270,B
1,Oskars Zvarts,,M,,,Ireland,,Multi-ply,M40-49,139.6,140,,,,,260,270,-280,270,,,,,270,B
1,Károly Németh,,M,,,Hungary,,Multi-ply,M50-59,140.4,140+,,,,,245,,,245,,,,,245,B
1,Peter Rathke,,M,,,Germany,,Multi-ply,M60-69,88.6,90,,,,,190,-200,-200,190,,,,,190,B
DQ,Søren Bertelsen,,M,,,Denmark,,Multi-ply,M60-69,99.7,100,,,,,-270,-280,-280,,,,,,,B
1,Tibor Horváth,,M,,,Hungary,,Multi-ply,M60-69,104,110,,,,,130,135,-137.5,135,,,,,135,B
1,Krzysztof Wolszczak,,M,,,Poland,,Multi-ply,Open,74.7,75,,,,,170,-180,-180,170,,,,,170,B
1,Dawid Deptuch,,M,,,Poland,,Multi-ply,Open,88.9,90,,,,,220,,,220,,,,,220,B
1,Gracjan Hnatów,,M,,,Poland,,Multi-ply,Open,93.3,100,,,,,-300,-300,305,305,,,,,305,B
2,Imre Kadenszki,,M,,,Hungary,,Multi-ply,Open,97.8,100,,,,,150,160,170,170,,,,,170,B
1,Jakub Dolinski,,M,,,Poland,,Raw,J20-23,66.4,67.5,,,,,120,-126,-126,120,,,,,120,B
1,Patryk Wójcik,,M,,,Poland,,Raw,J20-23,75,75,,,,,-135,135,-140,135,,,,,135,B
1,Michał Kowalski,,M,,,Poland,,Raw,J20-23,81.9,82.5,,,,,185,192.5,197.5,197.5,,,,,197.5,B
1,Bartłomiej Balawender,,M,,,Poland,,Raw,J20-23,97.6,100,,,,,215,,,215,,,,,215,B
1,Tymoteusz Kowalski,,M,,,Poland,,Raw,J20-23,109.1,110,,,,,200,207.5,212.5,212.5,,,,,212.5,B
2,Dawid Szajek,,M,,,Poland,,Raw,J20-23,110,110,,,,,185,195,-200,195,,,,,195,B
1,Jan Pastuszek,,M,,,Poland,,Raw,J20-23,121.6,125,,,,,210,220,225,225,,,,,225,B
2,Jakub Mazurek,,M,,,Poland,,Raw,J20-23,112,125,,,,,190,195,-200,195,,,,,195,B
3,Patryk Pikul,,M,,,Poland,,Raw,J20-23,114,125,,,,,185,-192.5,-192.5,185,,,,,185,B
1,Roman Eremashvili,,M,,,Belarus,,Raw,M40-49,71.8,75,,,,,200,210,215,215,,,,,215,B
2,Jaroslaw Konowada,,M,,,Poland,,Raw,M40-49,74.6,75,,,,,100,112.5,-120,112.5,,,,,112.5,B
1,Sebastian Niedziela,,M,,,Poland,,Raw,M40-49,85.9,90,,,,,170,-180,,170,,,,,170,B
2,Juliusz Zbierski,,M,,,Poland,,Raw,M40-49,90,90,,,,,-150,150,-152.5,150,,,,,150,B
1,Krzysztof Wichrowski,,M,,,Poland,,Raw,M40-49,99,100,,,,,145,,,145,,,,,145,B
1,Krzysztof Zakrzewski,,M,,,Poland,,Raw,M40-49,106,110,,,,,207.5,212.5,-217.5,212.5,,,,,212.5,B
2,Dominik Lowas,,M,,,Poland,,Raw,M40-49,104.9,110,,,,,-120,120,130,130,,,,,130,B
1,Jakub Koryzna,,M,,,Poland,,Raw,M40-49,110,125,,,,,201,,,201,,,,,201,B
2,Michal Čorba,,M,,,Slovakia,,Raw,M40-49,120,125,,,,,150,155,,155,,,,,155,B
1,Krzysztof Drozdowski,,M,,,Poland,,Raw,M40-49,130.3,140,,,,,190,210,215,215,,,,,215,B
2,Maciek Kiślewski,,M,,,Poland,,Raw,M40-49,128.5,140,,,,,200,-210,-210,200,,,,,200,B
1,Tomasz Zowsik,,M,,,Poland,,Raw,M40-49,143.4,140+,,,,,210,220,230,230,,,,,230,B
2,Marcin Czaja,,M,,,Poland,,Raw,M40-49,141.7,140+,,,,,165,172.5,-177.5,172.5,,,,,172.5,B
1,János Tóth,,M,,,Hungary,,Raw,M50-59,56.5,60,,,,,70,75,,75,,,,,75,B
1,Norbert Hajas,,M,,,Hungary,,Raw,M50-59,74,75,,,,,-150,150,-156,150,,,,,150,B
1,Iurii Girenko,,M,,,Poland,,Raw,M50-59,89.6,90,,,,,130,135,-140,135,,,,,135,B
1,Jerzy Czajka,,M,,,Poland,,Raw,M50-59,93.6,100,,,,,190,-196,-196,190,,,,,190,B
2,Attila Marosi,,M,,,Hungary,,Raw,M50-59,97.2,100,,,,,155,,,155,,,,,155,B
1,Alius Fominas,,M,,,Lithuania,,Raw,M50-59,109.7,110,,,,,197.5,205,207.5,207.5,,,,,207.5,B
2,Göran Vente,,M,,,Germany,,Raw,M50-59,106.8,110,,,,,165,175,180,180,,,,,180,B
3,Krzysztof Golendzinowski,,M,,,Poland,,Raw,M50-59,103.4,110,,,,,170,175,-180,175,,,,,175,B
4,Wojciech Kaliciak,,M,,,Poland,,Raw,M50-59,108.1,110,,,,,140,152.5,-157.5,152.5,,,,,152.5,B
1,Krzysztof Bożyczko-Jałocha,,M,,,Poland,,Raw,M50-59,114.5,125,,,,,200,-207.5,-207.5,200,,,,,200,B
1,László Mészáros,,M,,55,Hungary,,Raw,M50-59,136.9,140,,,,,245,252.5,260.5,260.5,,,,,260.5,B
2,Adam Eikman,,M,,,Poland,,Raw,M50-59,125.5,140,,,,,-195,195,200,200,,,,,200,B
1,Zsolt Tóth,,M,,,Hungary,,Raw,M50-59,142,140+,,,,,180,190,200,200,,,,,200,B
2,Robert Marciniak,,M,,,Poland,,Raw,M50-59,140.3,140+,,,,,145,155,-162.5,155,,,,,155,B
1,Frank Lubitz,,M,,,Germany,,Raw,M60-69,85.9,90,,,,,130,135,137.5,137.5,,,,,137.5,B
1,Roman Raczykowski,,M,,,Poland,,Raw,M60-69,105,110,,,,,130,135,140,140,,,,,140,B
1,Henryk Świerzy,,M,,,Poland,,Raw,M60-69,110.2,125,,,,,145,150,-155,150,,,,,150,B
1,Roman Wanot,,M,,,Poland,,Raw,M70+,89.3,90,,,,,85,-90,-90,85,,,,,85,B
1,Dawid Trzciński,,M,,,Poland,,Raw,MPF,88.1,,,,,,190,200,205,205,,,,,205,B
2,Karol Prawdzik,,M,,,Poland,,Raw,MPF,113.9,,,,,,210,,,210,,,,,210,B
3,Krzysztof Drozdowski,,M,,,Poland,,Raw,MPF,130.3,,,,,,190,210,215,215,,,,,215,B
4,Jakub Łabaj,,M,,,Poland,,Raw,MPF,87.5,,,,,,-180,-180,180,180,,,,,180,B
5,Maciek Kiślewski,,M,,,Poland,,Raw,MPF,128.5,,,,,,200,-210,-210,200,,,,,200,B
6,Mateusz Trzciński,,M,,,Poland,,Raw,MPF,66.6,,,,,,135,140,-145,140,,,,,140,B
1,Mateusz Trzciński,,M,,,Poland,,Raw,Open,66.6,67.5,,,,,135,140,-145,140,,,,,140,B
DQ,Andrzej Dudek,,M,,,Poland,,Raw,Open,67.4,67.5,,,,,-130,-130,-130,,,,,,,B
1,Marcin Sokołowski #2,,M,,,Poland,,Raw,Open,72.2,75,,,,,135,-140,140,140,,,,,140,B
1,Michał Kowalski,,M,,,Poland,,Raw,Open,81.9,82.5,,,,,185,192.5,197.5,197.5,,,,,197.5,B
2,Łukasz Szczerba,,M,,,Poland,,Raw,Open,82.1,82.5,,,,,170,175,180,180,,,,,180,B
3,Dominik Šafránek,,M,,,Slovakia,,Raw,Open,79.1,82.5,,,,,160,167.5,-172.5,167.5,,,,,167.5,B
1,Dawid Trzciński,,M,,,Poland,,Raw,Open,88.1,90,,,,,190,200,205,205,,,,,205,B
2,Emil Kowalski,,M,,,Poland,,Raw,Open,88.7,90,,,,,185,190,-200,190,,,,,190,B
3,Dzmirty Abakumov,,M,,,Belarus,,Raw,Open,85.6,90,,,,,175,180,-182.5,180,,,,,180,B
4,Jakub Łabaj,,M,,,Poland,,Raw,Open,87.5,90,,,,,-180,-180,180,180,,,,,180,B
DQ,Kamil Wlodarczyk,,M,,,Poland,,Raw,Open,87.3,90,,,,,-160,-160,-160,,,,,,,B
1,Paweł Przybyłowicz,,M,,,Poland,,Raw,Open,99.3,100,,,,,220,-227.5,227.5,227.5,,,,,227.5,B
2,Jarosław Buczko,,M,,,Poland,,Raw,Open,94.2,100,,,,,215,225,-227.5,225,,,,,225,B
DQ,Łukasz Kantor,,M,,,Poland,,Raw,Open,98.9,100,,,,,-130,,,,,,,,,B
1,Giedrius Kaleckas,,M,,,Lithuania,,Raw,Open,100.1,110,,,,,210,217.5,-225,217.5,,,,,217.5,B
1,Arkadiusz Redzynia,,M,,,Poland,,Raw,Open,112.1,125,,,,,-225,225,235,235,,,,,235,B
2,Michał Pawłowski,,M,,,Poland,,Raw,Open,123.1,125,,,,,217.5,227.5,230,230,,,,,230,B
3,Karol Prawdzik,,M,,,Poland,,Raw,Open,113.9,125,,,,,210,,,210,,,,,210,B
4,Dariusz Gauza,,M,,,Poland,,Raw,Open,112.7,125,,,,,180,-190,-190,180,,,,,180,B
DQ,Michał Szymańczak,,M,,,Poland,,Raw,Open,115.3,125,,,,,-225,-232.5,-232.5,,,,,,,B
1,Artur Kabza,,M,,,Poland,,Raw,Open,127.5,140,,,,,237.5,245,-250,245,,,,,245,B
2,Krzysztof Cieślak,,M,,,Poland,,Raw,Open,136.2,140,,,,,225,-235,-235,225,,,,,225,B
1,Marcin Czaja,,M,,,Poland,,Raw,Open,141.7,140+,,,,,165,172.5,-177.5,172.5,,,,,172.5,B
1,Rafał Roch,,M,,,Poland,,Raw,Paralympic,50.4,60,,,,,150,157.5,165,165,,,,,165,B
1,Maciej Domanski,,M,,,Poland,,Raw,T13-15,60,60,,,,,95,,,95,,,,,95,B
2,Samvel Ananyan,,M,,,Armenia,,Raw,T13-15,59.9,60,,,,,70,-85,-85,70,,,,,70,B
1,Szymon Zoladek,,M,,,Poland,,Raw,T13-15,67.1,67.5,,,,,75,80,-85,80,,,,,80,B
1,Aleksander Poreda,,M,,,Poland,,Raw,T13-15,74.3,75,,,,,-105,-105,105,105,,,,,105,B
2,Hunor Marosi,,M,,,Hungary,,Raw,T13-15,72.6,75,,,,,-70,-75,75,75,,,,,75,B
1,Gabriel Konowada,,M,,,Poland,,Raw,T13-15,80.7,82.5,,,,,80,92.5,95,95,,,,,95,B
1,Tomasz Kaczkowski,,M,,,Poland,,Raw,T13-15,94.5,100,,,,,125,135,-140,135,,,,,135,B
2,Vahe Apitsaryan,,M,,,Armenia,,Raw,T13-15,97.9,100,,,,,95,105,110,110,,,,,110,B
1,Jakub Kowalski,,M,,,Poland,,Raw,T13-15,108.6,110,,,,,112.5,117.5,-120,117.5,,,,,117.5,B
1,Richárd Sós-Tóvizi,,M,,,Hungary,,Raw,T16-17,72.7,75,,,,,95,102.5,110,110,,,,,110,B
1,Jakub Lozecki,,M,,,Poland,,Raw,T16-17,100,100,,,,,155,160,-165,160,,,,,160,B
2,Klaudiusz Orzechowski,,M,,,Poland,,Raw,T16-17,93.5,100,,,,,140,-150,-150,140,,,,,140,B
3,Piotr Kleban,,M,,,Poland,,Raw,T16-17,99.7,100,,,,,120,125,-132.5,125,,,,,125,B
1,Michal Kolodziejczyk,,M,,,Poland,,Raw,T18-19,70.7,75,,,,,-132.5,140,-145,140,,,,,140,B
2,Marcin Sobiński,,M,,,Poland,,Raw,T18-19,73.3,75,,,,,130,-135,-135,130,,,,,130,B
3,Marcel Czyzycki,,M,,,Poland,,Raw,T18-19,69,75,,,,,90,100,-110,100,,,,,100,B
1,Krystian Klarowski,,M,,,Poland,,Raw,T18-19,98,100,,,,,130,140,145,145,,,,,145,B
1,Ferenc Busznyák,,M,,,Hungary,,Raw,T18-19,114.1,125,,,,,120,130,,130,,,,,130,B
1,Dávid Kökényesy,,M,,,Hungary,,Unlimited,J20-23,90,90,,,,,152.5,160,-182.5,160,,,,,160,B
1,Róbert Csetényi,,M,,,Hungary,,Unlimited,M40-49,95.1,100,,,,,230,250,-260,250,,,,,250,B
2,Christian Stoebke,,M,,,Germany,,Unlimited,M40-49,97,100,,,,,-160,160,-165,160,,,,,160,B
1,Jozef Harandza,,M,,,Slovakia,,Unlimited,M40-49,114.1,125,,,,,330,350,-365,350,,,,,350,B
1,Gábor Salamon,,M,,,Hungary,,Unlimited,M40-49,156.5,140+,,,,,260,350,,350,,,,,350,B
1,Attila Marosi,,M,,,Hungary,,Unlimited,M50-59,97.2,100,,,,,-250,260,,260,,,,,260,B
1,Ákos Bugár,,M,,,Hungary,,Unlimited,M50-59,105.6,110,,,,,175,185,192.5,192.5,,,,,192.5,B
1,Csaba Molnár,,M,,,Hungary,,Unlimited,M50-59,133.2,140,,,,,240,250,260,260,,,,,260,B
1,Andrzej Dudek,,M,,,Poland,,Unlimited,Open,67.4,67.5,,,,,170,-185,-190,170,,,,,170,B
1,Bogusław Ufir,,M,,,Poland,,Unlimited,Open,71.8,75,,,,,230,272.5,285,285,,,,,285,B
1,Dawid Deptuch,,M,,,Poland,,Unlimited,Open,88.9,90,,,,,270,290,305,305,,,,,305,B
DQ,Kamil Wlodarczyk,,M,,,Poland,,Unlimited,Open,87.3,90,,,,,-230,-230,-230,,,,,,,B
1,Gracjan Hnatów,,M,,,Poland,,Unlimited,Open,93.3,100,,,,,-300,310,-332.5,310,,,,,310,B
2,Ashot Antonyan,,M,,,Armenia,,Unlimited,Open,94,100,,,,,150,-160,-160,150,,,,,150,B
DQ,Łukasz Kantor,,M,,,Poland,,Unlimited,Open,98.9,100,,,,,,,,,,,,,,B
1,Jozef Harandza,,M,,,Slovakia,,Unlimited,Open,114.1,125,,,,,330,350,-365,350,,,,,350,B
2,Matej Krišica,,M,,,Slovakia,,Unlimited,Open,119.3,125,,,,,280,-310,320,320,,,,,320,B
3,Dariusz Gauza,,M,,,Poland,,Unlimited,Open,112.7,125,,,,,-240,250,-265,250,,,,,250,B
1,Gábor Salamon,,M,,,Hungary,,Unlimited,Open,156.5,140+,,,,,260,350,,350,,,,,350,B
1,Szymon Kudzia,,M,,,Poland,,Unlimited,T13-15,92.8,100,,,,,95,102.5,-120,102.5,,,,,102.5,B
1,Ferenc Busznyák,,M,,,Hungary,,Unlimited,T18-19,114.1,125,,,,,170,-217.5,-217.5,170,,,,,170,B
1,Magdalena Szpila,,F,,,Poland,,Raw,J20-23,50.8,52,,,,,,,,,115,122.5,127.5,127.5,127.5,D
2,Kamila Gawkowska,,F,,,Poland,,Raw,J20-23,50.3,52,,,,,,,,,102.5,-110,110,110,110,D
1,Karolina Jaworska,,F,,,Poland,,Raw,M40-49,74.7,75,,,,,,,,,90,105,107.5,107.5,107.5,D
1,Melinda Danicser,,F,,,Hungary,,Raw,M40-49,96.4,90+,,,,,,,,,140,-150,-150,140,140,D
1,Brigitte Maczka,,F,,,Germany,,Raw,M60-69,66.5,67.5,,,,,,,,,100,,,100,100,D
1,Grazyna Tur,,F,,,Poland,,Raw,M70+,51.9,52,,,,,,,,,60,72.5,-80,72.5,72.5,D
1,Dominika Samonek,,F,,,Poland,,Raw,Open,53.8,56,,,,,,,,,132.5,,,132.5,132.5,D
1,Elżbieta Kardaś,,F,,,Poland,,Raw,Open,58.8,60,,,,,,,,,130,140,-150,140,140,D
1,Ilona Sobiesiak,,F,,,Poland,,Raw,Open,66.9,67.5,,,,,,,,,120,130,142.5,142.5,142.5,D
1,Nives Tokić,,F,,,Croatia,,Raw,Open,83.8,90,,,,,,,,,130,-140,145,145,145,D
1,Zsófia Blaskó,,F,,,Hungary,,Raw,Open,94.9,90+,,,,,,,,,125,135,142.5,142.5,142.5,D
1,Gabriela Hatlas,,F,,,Poland,,Raw,T13-15,45.7,52,,,,,,,,,80,87.5,-90,87.5,87.5,D
1,Aleksandra Jarończyk,,F,,,Poland,,Raw,T16-17,52.2,56,,,,,,,,,100,110,115,115,115,D
1,Lena Ignatowska,,F,,,Poland,,Raw,T16-17,63.8,67.5,,,,,,,,,125,132.5,140,140,140,D
1,Kaja Moczyło,,F,,,Poland,,Raw,T18-19,77.7,82.5,,,,,,,,,110,115,-117.5,115,115,D
1,Michal Buranský,,M,,,Slovakia,,Multi-ply,M40-49,81.4,82.5,,,,,,,,,-240,-245,245,245,245,D
1,Grzegorz Drewniany,,M,,,Poland,,Multi-ply,M40-49,101.4,110,,,,,,,,,250,275,285,285,285,D
1,Ondrej Hudák,,M,,,Slovakia,,Multi-ply,M40-49,119.6,125,,,,,,,,,260,280,-300,280,280,D
1,Robert Nemś,,M,,,Poland,,Multi-ply,M50-59,119.5,125,,,,,,,,,260,,,260,260,D
1,Manuk Avetisyan,,M,,,Armenia,,Multi-ply,Open,74,75,,,,,,,,,200,-220,-220,200,200,D
1,David Žemlička,,M,,,Czechia,,Multi-ply,Open,89.4,90,,,,,,,,,280,300,,300,300,D
1,Leon Pavlovic,,M,,,Norway,,Multi-ply,Open,109.3,110,,,,,,,,,305,315,-325,315,315,D
1,Erik Khachatryan,,M,,,Armenia,,Raw,J20-23,66,67.5,,,,,,,,,170,,,170,170,D
1,Misha Khachatryan,,M,,,Armenia,,Raw,J20-23,82.5,82.5,,,,,,,,,125,,,125,125,D
1,Jan Pastuszek,,M,,,Poland,,Raw,J20-23,122.3,125,,,,,,,,,295,307.5,-312.5,307.5,307.5,D
1,Elias Bergset,,M,,,Norway,,Raw,J20-23,143.4,140+,,,,,,,,,260,280,-300,280,280,D
1,Wiesław Kiwacki,,M,,,Poland,,Raw,M40-49,75.2,82.5,,,,,,,,,180,200,-222.5,200,200,D
1,David Künzling,,M,,,Germany,,Raw,M40-49,88.2,90,,,,,,,,,185,200,207.5,207.5,207.5,D
2,Dariusz Zwoliński,,M,,,Poland,,Raw,M40-49,87.1,90,,,,,,,,,180,-190,-190,180,180,D
1,Sebastian Brzyski,,M,,,Poland,,Raw,M40-49,95.6,100,,,,,,,,,-260,260,270,270,270,D
2,Krzysztof Wichrowski,,M,,,Poland,,Raw,M40-49,99,100,,,,,,,,,230,,,230,230,D
1,Jakub Koryzna,,M,,,Poland,,Raw,M40-49,110,110,,,,,,,,,235,,,235,235,D
1,Jozef Tomaszewski,,M,,,Poland,,Raw,M40-49,117.5,125,,,,,,,,,265,275,280,280,280,D
2,Bartosz Haluch,,M,,,Poland,,Raw,M40-49,117.2,125,,,,,,,,,210,220,-235,220,220,D
1,Davit Grigoryan,,M,,,Armenia,,Raw,M50-59,82.5,82.5,,,,,,,,,-135,135,-152.5,135,135,D
1,Boleslaw Jastak,,M,,,Poland,,Raw,M50-59,97.9,100,,,,,,,,,210,230,245,245,245,D
1,Maciej Czereba,,M,,,Poland,,Raw,M50-59,104,110,,,,,,,,,265,,,265,265,D
2,István Lugasi,,M,,,Hungary,,Raw,M50-59,110,110,,,,,,,,,175,185,-200,185,185,D
3,Slawomir Kucharski,,M,,,Poland,,Raw,M50-59,103,110,,,,,,,,,160,175,-202.5,175,175,D
1,Robert Nemś,,M,,,Poland,,Raw,M50-59,119.5,125,,,,,,,,,250,260,-265,260,260,D
1,Ireneusz Czupryn,,M,,,Poland,,Raw,M60-69,84.3,90,,,,,,,,,175,185,195,195,195,D
1,Andreas Friedel,,M,,,Germany,,Raw,M60-69,113.8,125,,,,,,,,,170,180,192.5,192.5,192.5,D
1,Marcin Nisiewicz,,M,,,Poland,,Raw,MPF,121.6,,,,,,,,,,280,292.5,302.5,302.5,302.5,D
2,Przemysław Kawczyński,,M,,,Poland,,Raw,MPF,82.1,,,,,,,,,,250,265,-272.5,265,265,D
3,Konrad Czupryn,,M,,,Poland,,Raw,MPF,98.8,,,,,,,,,,210,220,-230,220,220,D
1,Radoslaw Kiesz,,M,,,Poland,,Raw,Open,67.2,67.5,,,,,,,,,125,130,135,135,135,D
1,Marcin Sokołowski #2,,M,,,Poland,,Raw,Open,72.4,75,,,,,,,,,-205,205,222.5,222.5,222.5,D
1,Dominik Šafránek,,M,,,Slovakia,,Raw,Open,78.9,82.5,,,,,,,,,285,300,-308.5,300,300,D
2,Przemysław Kawczyński,,M,,,Poland,,Raw,Open,82.1,82.5,,,,,,,,,250,265,-272.5,265,265,D
1,David Žemlička,,M,,,Czechia,,Raw,Open,89.4,90,,,,,,,,,-260,260,280,280,280,D
2,Lukasz Drozdz,,M,,,Poland,,Raw,Open,88.5,90,,,,,,,,,240,250,-280,250,250,D
1,Konrad Czupryn,,M,,,Poland,,Raw,Open,98.8,100,,,,,,,,,210,220,-230,220,220,D
2,Viktor Kvile Anders,,M,,,Norway,,Raw,Open,100,100,,,,,,,,,160,172.5,-185,172.5,172.5,D
1,Krzysztof Antosik,,M,,,Poland,,Raw,Open,108,110,,,,,,,,,290,310,,310,310,D
2,Leon Pavlovic,,M,,,Norway,,Raw,Open,110,110,,,,,,,,,302.5,,,302.5,302.5,D
3,Łukasz Lipka,,M,,,Poland,,Raw,Open,103.7,110,,,,,,,,,255,-270,-270,255,255,D
4,Damian Matuszczak,,M,,,Poland,,Raw,Open,106.9,110,,,,,,,,,210,230,235,235,235,D
1,Marcin Nisiewicz,,M,,,Poland,,Raw,Open,121.6,125,,,,,,,,,280,292.5,302.5,302.5,302.5,D
2,Marcin Borkowski,,M,,,Poland,,Raw,Open,110.9,125,,,,,,,,,-250,260,-270,260,260,D
3,Grzegorz Stelmasik,,M,,,Poland,,Raw,Open,122.2,125,,,,,,,,,200,220,230,230,230,D
1,Artur Kabza,,M,,,Poland,,Raw,Open,126.9,140,,,,,,,,,300,320,335,335,335,D
1,Samvel Ananyan,,M,,,Armenia,,Raw,T13-15,59.9,60,,,,,,,,,140,145,-150,145,145,D
2,Sipan Khachatryan,,M,,,Armenia,,Raw,T13-15,44,60,,,,,,,,,90,-100,100,100,100,D
3,Hamlet Simonyan,,M,,,Armenia,,Raw,T13-15,46,60,,,,,,,,,45,50,60,60,60,D
4,Garik Simonyan,,M,,,Armenia,,Raw,T13-15,42,60,,,,,,,,,40,45,50,50,50,D
1,Konrad Lisowski,,M,,,Poland,,Raw,T13-15,74,75,,,,,,,,,120,-130,-130,120,120,D
1,Jan Haberny,,M,,,Poland,,Raw,T13-15,76.1,82.5,,,,,,,,,-115,120,132.5,132.5,132.5,D
1,Benedek Firtl,,M,,,Hungary,,Raw,T16-17,66.1,67.5,,,,,,,,,175,190,-202.5,190,190,D
2,László Zétény Nagy,,M,,,Hungary,,Raw,T16-17,66.5,67.5,,,,,,,,,170,185,-200,185,185,D
3,Ruben Hovhannisyan,,M,,,Armenia,,Raw,T16-17,67,67.5,,,,,,,,,170,-180,-187.5,170,170,D
1,Karol Milek,,M,,,Poland,,Raw,T16-17,71.4,75,,,,,,,,,120,135,-142.5,135,135,D
1,Kornel Chrapkowski,,M,,,Poland,,Raw,T16-17,81.1,82.5,,,,,,,,,190,202,210,210,210,D
2,Miklos Poczi,,M,,,Hungary,,Raw,T16-17,80.7,82.5,,,,,,,,,170,180,-190,180,180,D
1,Paweł Lipka,,M,,,Poland,,Raw,T16-17,121.2,125,,,,,,,,,240,260,-280,260,260,D
1,Jakub Bońkowski,,M,,,Poland,,Raw,T18-19,65.1,67.5,,,,,,,,,235,,,235,235,D
1,Tomasz Zembrowski,,M,,,Poland,,Raw,T18-19,68.1,75,,,,,,,,,210,225,232.5,232.5,232.5,D
2,Zhozef Tigranyan,,M,,,Armenia,,Raw,T18-19,68.5,75,,,,,,,,,140,160,-165,160,160,D
1,Jakub Jarończyk,,M,,,Poland,,Raw,T18-19,96.5,100,,,,,,,,,240,250,-255,250,250,D
2,Bartlomiej Petk,,M,,,Poland,,Raw,T18-19,96.5,100,,,,,,,,,210,220,-230,220,220,D
1,Dániel Páder,,M,,,Hungary,,Raw,T18-19,108.1,110,,,,,,,,,220,230,240,240,240,D
1,Marcin Kacnerski,,M,,,Poland,,Straps,M40-49,100,100,,,,,,,,,260,272.5,-280,272.5,272.5,D
1,Marek Jaroniec,,M,,,Poland,,Straps,M50-59,75.7,82.5,,,,,,,,,260,-287.5,-287.5,260,260,D
1,Dominik Šafránek,,M,,,Slovakia,,Straps,Open,78.9,82.5,,,,,,,,,290,305,315,315,315,D
1,David Žemlička,,M,,,Czechia,,Straps,Open,89.4,90,,,,,,,,,280,-300,,280,280,D
1,Michał Michajłowski,,M,,,Poland,,Straps,Open,95.9,100,,,,,,,,,200,210,-215,210,210,D
DQ,René Černý,,M,,,Slovakia,,Straps,Open,106.8,110,,,,,,,,,-320,-320,,,,D
1,Adrian Trznadel,,M,,,Poland,,Straps,Open,120.5,125,,,,,,,,,285,300,310,310,310,D
2,Marcin Bochra,,M,,,Poland,,Straps,Open,117.5,125,,,,,,,,,270,285,300,300,300,D
3,Wojciech Czarnecki,,M,,,Poland,,Straps,Open,112,125,,,,,,,,,235,250,260,260,260,D
4,Kamil Muller,,M,,,Poland,,Straps,Open,122,125,,,,,,,,,-220,220,-235,220,220,D
