Place,Name,BirthYear,Country,BodyweightKg,Squat1Kg,Squat2Kg,Squat3Kg,Best3SquatKg,Bench1Kg,Bench2Kg,Bench3Kg,Best3BenchKg,Deadlift1Kg,Deadlift2Kg,Deadlift3Kg,Best3DeadliftKg,TotalKg,WeightClassKg,Division,Event,Sex,Equipment,BirthDate
1,Edmond Dumikyan,2004,Russia,52.7,145,150,155,155,95,105,107.5,107.5,155,165,172.5,172.5,435,53,Sub-Juniors,SBD,M,Raw,
2,Jakub Bońkowski,2004,Poland,52.78,127.5,135,-137.5,135,62.5,65,67.5,67.5,170,182.5,185,185,387.5,53,Sub-Juniors,SBD,M,Raw,
3,Jackson Watkins #1,2006,US Virgin Islands,42.25,45,-52.5,55,55,-25,27.5,-32.5,27.5,60,70,80,80,162.5,53,Sub-Juniors,SBD,M,Raw,
1,Ved Buryanovskiy,2006,Russia,58.98,170,180,187.5,187.5,-110,112.5,-117.5,112.5,205,212.5,225,225,525,59,Sub-Juniors,SBD,M,Raw,
2,Boris Bukatka,2003,Kazakhstan,58.85,170,180,187.5,187.5,110,117.5,-120,117.5,180,200,-215,200,505,59,Sub-Juniors,SBD,M,Raw,
3,Danylo Volosianko,2004,Ukraine,58.32,150,160,-165,160,95,100,102.5,102.5,195,202.5,207.5,207.5,470,59,Sub-Juniors,SBD,M,Raw,
4,Ali Alshavi,2003,Turkey,57.59,135,155,-165,155,85,92.5,-97.5,92.5,185,195,-202.5,195,442.5,59,Sub-Juniors,SBD,M,Raw,
5,Oleksandr Pyshenkov,2003,Ukraine,58.97,160,167.5,-170,167.5,95,-100,-100,95,170,175,-180,175,437.5,59,Sub-Juniors,SBD,M,Raw,
1,Alexandr Ivanov,2004,Kazakhstan,65.9,190,-200,200,200,117.5,122.5,127.5,127.5,185,202.5,-220,202.5,530,66,Sub-Juniors,SBD,M,Raw,
2,Terence Jacobs,2004,Netherlands,64.17,150,157.5,162.5,162.5,100,102.5,-105,102.5,200,210,220,220,485,66,Sub-Juniors,SBD,M,Raw,
3,Leonid Koval,2003,Russia,65.77,170,175,177.5,177.5,97.5,102.5,105,105,170,185,-205,185,467.5,66,Sub-Juniors,SBD,M,Raw,
1,Teo Kalogjera,2003,Croatia,73.42,210,-220,220,220,162.5,170,-175,170,242.5,255,-262.5,255,645,74,Sub-Juniors,SBD,M,Raw,
2,Vadim Plakhotnikov,2003,Kazakhstan,70.26,-220,220,230,230,-120,120,130,130,250,260,-285,260,620,74,Sub-Juniors,SBD,M,Raw,
3,Elmeri Kujala,2003,Finland,72.95,-190,190,207.5,207.5,125,132.5,135,135,230,240,255,255,597.5,74,Sub-Juniors,SBD,M,Raw,
4,Agustin Lorenzo,2003,Philippines,72.1,175,185,195,195,-142.5,142.5,147.5,147.5,220,-230,230,230,572.5,74,Sub-Juniors,SBD,M,Raw,
5,Minh Vinh Anh Le,2003,Netherlands,72.73,175,182.5,187.5,187.5,115,120,-122.5,120,212.5,220,-225,220,527.5,74,Sub-Juniors,SBD,M,Raw,
6,Shane McGarry,2003,Ireland,73.38,147.5,157.5,-160,157.5,107.5,115,-117.5,115,-210,-210,210,210,482.5,74,Sub-Juniors,SBD,M,Raw,
7,Wiktor Tarnowski,2004,Poland,72.44,155,162.5,-165,162.5,72.5,75,80,80,160,170,-175,170,412.5,74,Sub-Juniors,SBD,M,Raw,
1,Mikuláš Sikora,2003,Czechia,80.89,200,215,-220,215,140,147.5,-150,147.5,250,270,-287,270,632.5,83,Sub-Juniors,SBD,M,Raw,
2,Aleksandr Ponamarev,2003,Russia,82.47,215,-225,-225,215,135,-140,-140,135,265,275,-285,275,625,83,Sub-Juniors,SBD,M,Raw,
3,Theo Goff,2003,UK,82.28,182.5,197.5,205,205,152.5,-162.5,162.5,162.5,240,255,-260,255,622.5,83,Sub-Juniors,SBD,M,Raw,
4,Ostap Kosyk,2003,Ukraine,82.64,220,230,-237.5,230,140,145,-150,145,230,240,-250,240,615,83,Sub-Juniors,SBD,M,Raw,
5,David Lacina,2003,Czechia,81.61,187.5,197.5,-205,197.5,137.5,142.5,-147.5,142.5,240,250,262.5,262.5,602.5,83,Sub-Juniors,SBD,M,Raw,
6,Aaron Hoxellari,2003,UK,82.09,190,207.5,-215,207.5,125,-132.5,135,135,245,260,-270,260,602.5,83,Sub-Juniors,SBD,M,Raw,
7,Dara McCullagh,2003,Ireland,81.38,190,200,-207.5,200,127.5,-130,,127.5,240,-255,-255,240,567.5,83,Sub-Juniors,SBD,M,Raw,
8,Aaron Happonen,2003,Finland,82.19,190,-200,200,200,115,122.5,127.5,127.5,230,-237.5,-237.5,230,557.5,83,Sub-Juniors,SBD,M,Raw,
1,Jack Hopkins,2003,UK,89.57,240,252.5,257.5,257.5,167.5,175,180,180,285,300.5,310,310,747.5,93,Sub-Juniors,SBD,M,Raw,
2,Malik Bernoussi Triolet,2004,France,92.82,-267.5,-267.5,267.5,267.5,180,185,-187.5,185,265,285,-301,285,737.5,93,Sub-Juniors,SBD,M,Raw,
3,Olivér Susa,2004,Hungary,93,-230,230,250,250,172.5,182.5,187,187,235,250,265,265,702,93,Sub-Juniors,SBD,M,Raw,
4,Dominik Fischer,2003,Austria,91.79,-212.5,212.5,222.5,222.5,137.5,145,150,150,242.5,257.5,267.5,267.5,640,93,Sub-Juniors,SBD,M,Raw,
5,Silvan Heijnen,2003,Netherlands,92.58,212.5,222.5,225,225,132.5,137.5,142.5,142.5,242.5,257.5,-267.5,257.5,625,93,Sub-Juniors,SBD,M,Raw,
6,Ondřej Smetaník,2003,Czechia,91.73,195,210,220,220,140,150,-155,150,215,230,-240,230,600,93,Sub-Juniors,SBD,M,Raw,
1,Ivan Panfilov,2003,Russia,103.94,225,237.5,250,250,160,167.5,172.5,172.5,240,255,267.5,267.5,690,105,Sub-Juniors,SBD,M,Raw,
2,Hermanni Järvenpää,2003,Finland,104.3,185,200,210,210,170,180,-182.5,180,230,240,242.5,242.5,632.5,105,Sub-Juniors,SBD,M,Raw,
3,Maksym Horobei,2003,Ukraine,97.05,205,207.5,-212.5,207.5,160,165,-167.5,165,220,-230,,220,592.5,105,Sub-Juniors,SBD,M,Raw,
4,Conor Buck,2004,South Africa,102.7,195,210,-215,210,100,107.5,-110,107.5,215,230,232.5,232.5,550,105,Sub-Juniors,SBD,M,Raw,
5,Dawid Margas,2003,Poland,95.85,195,205,210,210,110,117.5,-122.5,117.5,205,215,-230,215,542.5,105,Sub-Juniors,SBD,M,Raw,
6,Taariq Osman,2005,South Africa,104.36,190,-210,-210,190,105,112.5,115,115,195,215,-232.5,215,520,105,Sub-Juniors,SBD,M,Raw,
7,Enes Akpolat Ahmed,2005,Turkey,101.75,150,165,180,180,105,115,125,125,160,170,-180,170,475,105,Sub-Juniors,SBD,M,Raw,
1,Krystian Muczyński,2003,Poland,118.99,285,295,300.5,300.5,152.5,-157.5,-157.5,152.5,285,-300,300,300,753,120,Sub-Juniors,SBD,M,Raw,
2,Ivan Georgiev,2004,Bulgaria,113.12,200,-210,-210,200,190,202.5,207.5,207.5,275,290,-300,290,697.5,120,Sub-Juniors,SBD,M,Raw,
3,Lukas Dimic,2003,Finland,110.26,190,200,210,210,130,135,137.5,137.5,252.5,265,270,270,617.5,120,Sub-Juniors,SBD,M,Raw,
1,Bartłomiej Tuszyński,2003,Poland,162.06,270,285,295,295,165,170,-172.5,170,280,-290,-290,280,745,120+,Sub-Juniors,SBD,M,Raw,
2,Imran Ozer Muhammet,2003,Turkey,120.69,250,270,285,285,155,165,170,170,265,280,-300.5,280,735,120+,Sub-Juniors,SBD,M,Raw,
3,Artem Chekalov,2005,Russia,153.93,285,300,305,305,160,170,175,175,235,242.5,-260,242.5,722.5,120+,Sub-Juniors,SBD,M,Raw,
4,Mikael Salomäki,2003,Finland,137.67,252.5,260,265,265,132.5,-137.5,-137.5,132.5,265,275,-282.5,275,672.5,120+,Sub-Juniors,SBD,M,Raw,
5,Nika Lekaidze,2003,Georgia,152.6,250,265,-272.5,265,150,-157.5,-157.5,150,250,-270,-277.5,250,665,120+,Sub-Juniors,SBD,M,Raw,
6,Horvath Matyas Kolos,2003,Hungary,171.34,200,217.5,227.5,227.5,110,117.5,122.5,122.5,230,-247.5,247.5,247.5,597.5,120+,Sub-Juniors,SBD,M,Raw,
7,Jan Tuszyński,2006,Poland,125.36,180,195,210,210,95,-105,-105,95,180,200,-215,200,505,120+,Sub-Juniors,SBD,M,Raw,
1,Matvei Popov,2002,Russia,52.84,130,135,137.5,137.5,85,-90,95,95,140,150,160,160,392.5,53,Juniors,SBD,M,Raw,
2,Salman Desai,1999,UK,51.85,115,122.5,-125,122.5,75,80,-82.5,80,142.5,152.5,-157.5,152.5,355,53,Juniors,SBD,M,Raw,
1,Boris Komissarov,1998,Russia,58.84,185,195,200,200,142.5,150,151.5,151.5,190,202.5,220,220,571.5,59,Juniors,SBD,M,Raw,
2,Thomas Acher,2000,France,58.68,182.5,190,,190,135,-140,-140,135,202.5,212.5,220,220,545,59,Juniors,SBD,M,Raw,
3,Viliam Kováč,2000,Czechia,58.3,175,-182.5,182.5,182.5,110,117.5,122.5,122.5,200,210,215,215,520,59,Juniors,SBD,M,Raw,
4,Aykut Kaymak Mert,1998,Turkey,58.86,-172.5,172.5,180,180,100,112.5,-115,112.5,185,200,-215,200,492.5,59,Juniors,SBD,M,Raw,
5,Diyaz Mukhamedin,2001,Kazakhstan,58.96,175,182.5,-187.5,182.5,110,-115,-115,110,170,-175,,170,462.5,59,Juniors,SBD,M,Raw,
6,Jansen Zhen Hao Law,1999,UK,58.5,145,152.5,-160,152.5,75,80,85,85,-205,205,212.5,212.5,450,59,Juniors,SBD,M,Raw,
1,Alberto Herraiz Francés,2000,Spain,65.22,225,235,-240,235,132.5,137.5,140,140,235,242.5,-257.5,242.5,617.5,66,Juniors,SBD,M,Raw,
2,Egor Khutorov,1999,Russia,65.44,205,212.5,217.5,217.5,147.5,152.5,157.5,157.5,205,210,-212.5,210,585,66,Juniors,SBD,M,Raw,
3,Alex Cremins,1999,Ireland,64,187.5,195,-200,195,115,122.5,-127.5,122.5,237.5,250,260,260,577.5,66,Juniors,SBD,M,Raw,
4,Satveer Rai,1998,Canada,64.58,180,187.5,192.5,192.5,127.5,130,-132.5,130,242.5,255,-262.5,255,577.5,66,Juniors,SBD,M,Raw,
5,Ciarán Murray,1998,Ireland,64.08,210,-222.5,-222.5,210,117.5,125,127.5,127.5,220,230,-240,230,567.5,66,Juniors,SBD,M,Raw,
6,Hayato Iwaki,1999,Japan,64.4,175,177.5,195,195,125,132.5,135,135,222.5,-235,-247.5,222.5,552.5,66,Juniors,SBD,M,Raw,
7,Alan Chung,1998,Canada,65.5,200,-207.5,207.5,207.5,110,-115,-115,110,235,-245,-245,235,552.5,66,Juniors,SBD,M,Raw,
8,Jesus Amado,2000,Mexico,65.46,180,190,192.5,192.5,-125,125,130,130,227.5,-240,-240,227.5,550,66,Juniors,SBD,M,Raw,
9,Yuji Murata,1999,Japan,65.52,165,180,-192.5,180,130,135,137.5,137.5,200,215,-225,215,532.5,66,Juniors,SBD,M,Raw,
1,Yuya Fujii,1998,Japan,73.66,250,-265,-265,250,160,-170,170,170,280,295,-308,295,715,74,Juniors,SBD,M,Raw,
2,Ade Omisakin,1998,UK,73.48,232.5,247.5,252.5,252.5,140,147.5,152.5,152.5,280,297.5,300,300,705,74,Juniors,SBD,M,Raw,
3,Carl Johansson,2000,Sweden,73.16,230,242.5,-247.5,242.5,155,160,162.5,162.5,267.5,282.5,297.5,297.5,702.5,74,Juniors,SBD,M,Raw,
4,Aleksey Sergeenko,1998,Russia,73.78,242.5,-247.5,250,250,180,185,-187.5,185,215,222.5,-225,222.5,657.5,74,Juniors,SBD,M,Raw,
5,Andréa Bonetto,2000,France,73.22,237.5,247.5,-255,247.5,150,-160,162.5,162.5,245,-255,-255,245,655,74,Juniors,SBD,M,Raw,
6,Aren Joy Fernandes,2001,India,73.5,-210,-215,215,215,130,137.5,-142.5,137.5,265,280,-285,280,632.5,74,Juniors,SBD,M,Raw,
7,Khaled Benbachir,2001,France,73.64,212.5,220,-225,220,165,167.5,-170,167.5,240,-280,-280,240,627.5,74,Juniors,SBD,M,Raw,
8,Eetu Aalto,1998,Finland,73.64,210,-217.5,-217.5,210,147.5,152.5,-155,152.5,-250,250,257.5,257.5,620,74,Juniors,SBD,M,Raw,
9,Simen Johnson Myrvold,2000,Norway,73.78,210,217.5,-222.5,217.5,-167.5,167.5,172.5,172.5,230,-240,-240,230,620,74,Juniors,SBD,M,Raw,
10,Josh Foyle,1998,Ireland,73.46,207.5,217.5,225,225,117.5,127.5,132.5,132.5,240,252.5,260,260,617.5,74,Juniors,SBD,M,Raw,
11,Di Ke Wu,1999,Netherlands,73.2,190,200,210,210,-152.5,152.5,155,155,245,-255,-255,245,610,74,Juniors,SBD,M,Raw,
12,Lars Engø-Monsen,2002,Norway,73.38,200,210,217.5,217.5,142.5,147.5,150,150,225,235,242.5,242.5,610,74,Juniors,SBD,M,Raw,
13,Patrik Lněnička,2001,Czechia,73.46,220,227.5,230,230,127.5,-132.5,-132.5,127.5,235,245,-255,245,602.5,74,Juniors,SBD,M,Raw,
14,Krisztián Posta,2000,Hungary,73.8,192.5,205,215,215,120,132.5,135,135,225,237.5,250,250,600,74,Juniors,SBD,M,Raw,
15,Dmitrii Stepanov,2002,Russia,73.36,222.5,-227.5,227.5,227.5,135,-140,-140,135,225,-232.5,,225,587.5,74,Juniors,SBD,M,Raw,
16,Raffael Schnell,2002,Austria,73.68,195,-205,205,205,127.5,132.5,137.5,137.5,230,-242.5,245,245,587.5,74,Juniors,SBD,M,Raw,
17,Aybar Turan,2000,Turkey,72.76,165,185,210,210,115,125,-132.5,125,-220,220,240,240,575,74,Juniors,SBD,M,Raw,
18,Luc Koekelkoren,1998,Netherlands,73.78,-192.5,192.5,-200,192.5,125,130,-132.5,130,240,-247.5,-247.5,240,562.5,74,Juniors,SBD,M,Raw,
19,Yuki Otake,1998,Japan,73.24,180,192.5,197.5,197.5,122.5,130,-132.5,130,200,215,222.5,222.5,550,74,Juniors,SBD,M,Raw,
1,Edoardo Mazzucchielli,1999,Italy,82.08,255,270,282.5,282.5,150,157.5,162.5,162.5,285,302.5,-312.5,302.5,747.5,83,Juniors,SBD,M,Raw,
2,Adam Jansson,1999,Canada,82.02,252.5,262.5,270,270,177.5,-185,185,185,280,290,-297.5,290,745,83,Juniors,SBD,M,Raw,
3,Robert Barsegian,1998,Russia,82.34,240,247.5,252.5,252.5,182.5,187.5,-190,187.5,-282.5,282.5,-295,282.5,722.5,83,Juniors,SBD,M,Raw,
4,Anthony Costarigot,1998,France,82.72,237.5,250,252.5,252.5,-182.5,182.5,-185,182.5,275,-290,-290,275,710,83,Juniors,SBD,M,Raw,
5,Luke Wilson #2,1999,UK,82.56,242.5,252.5,260,260,152.5,157.5,162.5,162.5,250,265,275,275,697.5,83,Juniors,SBD,M,Raw,
6,Thomas Czaplicki,2001,France,82.74,232.5,240,-252.5,240,150,157.5,162.5,162.5,285,295,-300,295,697.5,83,Juniors,SBD,M,Raw,
7,Eetu Kumpulainen,1998,Finland,82.7,240,250,-255,250,155,-162.5,-162.5,155,265,275,-282.5,275,680,83,Juniors,SBD,M,Raw,
8,Ion Calmic,2001,Ireland,81.84,220,230,235,235,142.5,150,155,155,250,265,275,275,665,83,Juniors,SBD,M,Raw,
9,Denis Kočar,2000,Slovenia,81.44,200,210,220,220,157.5,165,170,170,237.5,250,255,255,645,83,Juniors,SBD,M,Raw,
10,Arnar Jonsson Helgi,1998,Iceland,81.38,210,225,235,235,120,127.5,132.5,132.5,245,262.5,270,270,637.5,83,Juniors,SBD,M,Raw,
11,Karel Rada #2,2001,Czechia,82.44,230,237.5,-242.5,237.5,132.5,135,-137.5,135,245,260,-267.5,260,632.5,83,Juniors,SBD,M,Raw,
1,Gavin Adin,1998,US Virgin Islands,92.51,-310,310,-320,310,205,215,-217.5,215,302.5,310,317.5,317.5,842.5,93,Juniors,SBD,M,Raw,
2,Matthew Lewis Vena,1998,Canada,92.48,280,292.5,300,300,145,155,162.5,162.5,290,305,310,310,772.5,93,Juniors,SBD,M,Raw,
3,Richmond Baiden,2001,France,90.72,272.5,-282.5,-282.5,272.5,177.5,185,-190,185,290,302.5,310,310,767.5,93,Juniors,SBD,M,Raw,
4,Mattias Svensson,1998,Sweden,92.51,255,267.5,272.5,272.5,152.5,157.5,160,160,300,320,-325,320,752.5,93,Juniors,SBD,M,Raw,
5,Dami Fashoranti,1998,Ireland,91.82,-270,-270,270,270,175,180,-182.5,180,300,-320,-320,300,750,93,Juniors,SBD,M,Raw,
6,Paul Egger,1998,Austria,92.35,255,265,272.5,272.5,145,150,-152.5,150,302.5,322.5,325,325,747.5,93,Juniors,SBD,M,Raw,
7,Yulong Li #1,2000,Sweden,90.75,270,280,285,285,170,175,180,180,280,-287.5,-287.5,280,745,93,Juniors,SBD,M,Raw,
8,Andrew Blackwood,2001,Ireland,92.89,245,262.5,-270,262.5,145,152.5,-157.5,152.5,290,305,315,315,730,93,Juniors,SBD,M,Raw,
9,Alfredo Orsini,1998,Italy,92.81,240,-255,255,255,170,177.5,-187.5,177.5,270,-290,290,290,722.5,93,Juniors,SBD,M,Raw,
10,Benjamin Rastum,1999,Norway,92.87,247.5,265,275,275,157.5,167.5,175,175,252.5,272.5,-280,272.5,722.5,93,Juniors,SBD,M,Raw,
11,Niko Lappi,2002,Finland,92.1,250,-270,-270,250,145,155,160,160,300,-320,,300,710,93,Juniors,SBD,M,Raw,
12,Alexander Örn Kárason,1998,Iceland,92.94,227.5,245,257.5,257.5,170,180,190,190,262.5,-280,-280,262.5,710,93,Juniors,SBD,M,Raw,
13,John Wortel,2000,Netherlands,91.64,225,237.5,245,245,160,-172.5,-172.5,160,-285,285,-297.5,285,690,93,Juniors,SBD,M,Raw,
14,Jacob Florelius,1998,Norway,92.6,220,230,235,235,-177.5,177.5,-185,177.5,265,275,-285,275,687.5,93,Juniors,SBD,M,Raw,
15,Ilia Moshkin,2000,Russia,92.68,242.5,250,252.5,252.5,180,-185,-185,180,237.5,-242.5,242.5,242.5,675,93,Juniors,SBD,M,Raw,
16,Mark Dolzhenko,2002,Ukraine,91.84,220,230,-235,230,155,157.5,160,160,250,265,,265,655,93,Juniors,SBD,M,Raw,
17,Nejc Rebolj,1999,Slovenia,92.46,230,242.5,-250,242.5,140,145,-150,145,240,252.5,257.5,257.5,645,93,Juniors,SBD,M,Raw,
18,Mustafa Yeşilyurt,2000,Turkey,92.55,200,215,225,225,120,135,140,140,245,-260,-260,245,610,93,Juniors,SBD,M,Raw,
DQ,Guillaume Parisot,1999,France,92.54,-265,-270,-270,,172.5,180,-185,180,300,-310,-310,300,,93,Juniors,SBD,M,Raw,
1,Nicolas Peyraud,1999,France,104.24,280,300,307.5,307.5,192.5,197.5,200,200,315,332.5,-340,332.5,840,105,Juniors,SBD,M,Raw,
2,Antonio Pérez Barros,2001,Spain,104,295,310,317.5,317.5,147.5,155,160,160,315,332.5,-342.5,332.5,810,105,Juniors,SBD,M,Raw,
3,Eino Järvisalo,1998,Finland,104.54,280,295,,295,175,185,-192.5,185,300,315,-332.5,315,795,105,Juniors,SBD,M,Raw,
4,Melvin Conteh,1999,Ireland,101.48,240,255,265,265,190,200,207.5,207.5,280,302.5,-307.5,302.5,775,105,Juniors,SBD,M,Raw,
5,Knut Einar Skår,2001,Norway,100.34,230,240,250,250,-167.5,167.5,177.5,177.5,277.5,292.5,312.5,312.5,740,105,Juniors,SBD,M,Raw,
6,Yasen Georgiev,1999,Bulgaria,102.6,260,270,-275,270,180,190,-192.5,190,270,280,-290,280,740,105,Juniors,SBD,M,Raw,
7,Sinan Toygar Kiliç,1999,Turkey,103.52,245,265,280,280,165,-180,-180,165,265,285,-290,285,730,105,Juniors,SBD,M,Raw,
8,Mats Høylo Kjøllesdal,2001,Norway,104.5,245,257.5,-270,257.5,170,-177.5,-177.5,170,265,285,295,295,722.5,105,Juniors,SBD,M,Raw,
9,Taras Melnichuk,2001,Ukraine,103.3,255,-262.5,-262.5,255,185,192.5,195,195,260,270,-275,270,720,105,Juniors,SBD,M,Raw,
10,Lewis Kelly,2000,UK,104.22,257.5,270,277.5,277.5,165,-170,-170,165,277.5,-287.5,-287.5,277.5,720,105,Juniors,SBD,M,Raw,
11,Patrik Tomko,1999,Slovakia,102.92,217.5,230,-240,230,162.5,167.5,172.5,172.5,290,310,-320,310,712.5,105,Juniors,SBD,M,Raw,
DQ,Oleksandr Hanhur,1999,Ukraine,104.1,-300,-300,-300,,,,,,,,,,,105,Juniors,SBD,M,Raw,
1,Isaac Whistler,1999,US Virgin Islands,119.16,305,-320,-320,305,175,190,-195,190,310,325,332.5,332.5,827.5,120,Juniors,SBD,M,Raw,
2,Mark Stell,1999,Ireland,110,250,265,277.5,277.5,195,205,207.5,207.5,275,292.5,297.5,297.5,782.5,120,Juniors,SBD,M,Raw,
3,Ludwig Bachner,1998,Austria,112.96,270,282.5,290,290,167.5,172.5,-175,172.5,290,312.5,-322.5,312.5,775,120,Juniors,SBD,M,Raw,
4,Sebastian Stanek,1999,Poland,118.38,275,-292.5,292.5,292.5,165,170,-172.5,170,280,300,312.5,312.5,775,120,Juniors,SBD,M,Raw,
5,Bradley May,1999,UK,118.68,265,282.5,290,290,177.5,182.5,185,185,280,300,-310,300,775,120,Juniors,SBD,M,Raw,
6,Mirza Toptaş,2002,Turkey,118.62,250,-265,-265,250,160,180,190,190,305,320,-332.5,320,760,120,Juniors,SBD,M,Raw,
7,Anders Broeten Lillemoe,1999,Norway,119.62,240,252.5,,252.5,150,157.5,160,160,312.5,322.5,335,335,747.5,120,Juniors,SBD,M,Raw,
8,Alexander Eteria,2001,Georgia,118.22,250,265,272.5,272.5,150,160,165,165,280,295,-305,295,732.5,120,Juniors,SBD,M,Raw,
9,Jakub Krakowian,2001,Poland,118.42,-280,280,-300,280,170,-175,,170,260,275,-300,275,725,120,Juniors,SBD,M,Raw,
10,Daniel Holmstedt,1999,Finland,119.68,-260,270,275,275,150,-155,155,155,260,275,-285,275,705,120,Juniors,SBD,M,Raw,
11,Justin Furman,2001,South Africa,117.12,240,-255,255,255,-140,140,-145,140,240,260,-270,260,655,120,Juniors,SBD,M,Raw,
12,Šimon Král,2002,Czechia,119,232.5,242.5,250,250,130,140,145,145,235,255,-262.5,255,650,120,Juniors,SBD,M,Raw,
13,Vijay Kaweti Sagar,2000,India,106.24,160,180,-190,180,90,97.5,100,100,170,195,205,205,485,120,Juniors,SBD,M,Raw,
1,Temur Samkharadze,2001,Georgia,143.74,320,335,345,345,190,-200,205,205,347.5,362.5,-387.5,362.5,912.5,120+,Juniors,SBD,M,Raw,
2,Giacomo Bifaro,1998,Italy,144.9,340,-360,360,360,205,215,222.5,222.5,280,300,-317.5,300,882.5,120+,Juniors,SBD,M,Raw,
3,Bogdan Prokopev,1998,Russia,134.72,327.5,340,345,345,195,202.5,205,205,295,310,-332.5,310,860,120+,Juniors,SBD,M,Raw,
4,Nuutti Mansukoski,2000,Finland,155.32,280,300,315,315,190,200,-202.5,200,300,330,335,335,850,120+,Juniors,SBD,M,Raw,
5,Milán Bana,1998,Hungary,149.4,282.5,300,307.5,307.5,205,217.5,225,225,292.5,-305,-305,292.5,825,120+,Juniors,SBD,M,Raw,
6,Andrii Oliinyk,1999,Ukraine,137.96,315,330,-337.5,330,180,187.5,-192.5,187.5,285,-292.5,,285,802.5,120+,Juniors,SBD,M,Raw,
7,Grzegorz Heinze,2002,Poland,122.4,280,295,305,305,155,167.5,175,175,275,290,302.5,302.5,782.5,120+,Juniors,SBD,M,Raw,
8,Artem Usov,2000,Czechia,135.88,280,292.5,300,300,180,190,-197.5,190,275,285,292.5,292.5,782.5,120+,Juniors,SBD,M,Raw,
1,Sławomir Śledź,1976,Poland,63.36,180,190,197.5,197.5,135,140,145,145,205,215,220,220,562.5,66,Masters 1,SBD,M,Raw,
2,Chris Aviado,1975,Canada,64.58,165,177.5,185,185,147.5,152.5,158,158,202.5,212.5,-215,212.5,555.5,66,Masters 1,SBD,M,Raw,
3,Niklas Ek,1974,Sweden,65.66,167.5,172.5,180,180,92.5,97.5,105,105,192.5,205,217.5,217.5,502.5,66,Masters 1,SBD,M,Raw,
1,Jani Haapamäki,1979,Finland,73.6,210,220,225,225,150,157.5,165,165,240,260,275,275,665,74,Masters 1,SBD,M,Raw,
2,Malcolm Long,1977,UK,73.66,185,195,-200,195,127.5,135,137.5,137.5,230,242.5,250,250,582.5,74,Masters 1,SBD,M,Raw,
3,Florian Dorfner,1978,Germany,73.3,207.5,-215,-215,207.5,130,135,-137.5,135,210,220,225,225,567.5,74,Masters 1,SBD,M,Raw,
4,Ali Gönen,1976,Turkey,72.76,-190,-190,190,190,90,-115,115,115,230,250,-262.5,250,555,74,Masters 1,SBD,M,Raw,
1,Alessandro Cuoghi,1975,Italy,82.4,235,-245,245,245,140,147.5,152.5,152.5,240,250,-255,250,647.5,83,Masters 1,SBD,M,Raw,
2,Emil Löfgren,1976,Sweden,82.03,205,215,225,225,130,135,-140,135,255,270,275,275,635,83,Masters 1,SBD,M,Raw,
3,Kent Flaeten,1979,Denmark,82.45,195,205,,205,170,177.5,182.5,182.5,190,207.5,215,215,602.5,83,Masters 1,SBD,M,Raw,
4,Job Zeijen,1978,Netherlands,82.43,195,202.5,207.5,207.5,110,117.5,-120,117.5,250,-262.5,-262.5,250,575,83,Masters 1,SBD,M,Raw,
5,Rob Dyke,1972,Canada,81.46,-175,175,182.5,182.5,155,-157.5,-157.5,155,200,210,-237.5,210,547.5,83,Masters 1,SBD,M,Raw,
6,Egedahl Overgaard Jesper,1974,Denmark,82.86,160,170,180,180,117.5,122.5,-125,122.5,215,-225,-225,215,517.5,83,Masters 1,SBD,M,Raw,
7,Faisal Alzaabi,1978,UAE,82.17,110,,,110,165,-172.5,-177.5,165,120,,,120,395,83,Masters 1,SBD,M,Raw,
DQ,Adem Biyikoğlu,1974,Turkey,81.2,205,220,225,225,-160,-160,-160,,260,270,275,275,,83,Masters 1,SBD,M,Raw,
DQ,Maël Le Paven,1980,France,82.67,,,,,,,,,,,,,,83,Masters 1,SBD,M,Raw,
1,Miklós Fekete,1973,Hungary,92.44,240,252.5,257.5,257.5,175,182.5,185,185,272.5,287.5,-307.5,287.5,730,93,Masters 1,SBD,M,Raw,
2,Keto Allen,1980,Canada,92.48,235,247.5,252.5,252.5,170,175,177.5,177.5,-270,-270,270,270,700,93,Masters 1,SBD,M,Raw,
3,Sébastien Hupfer,1981,France,91.8,245,-265,-265,245,150,162.5,167.5,167.5,260,277.5,282.5,282.5,695,93,Masters 1,SBD,M,Raw,
4,Helge Hansen,1979,Norway,92.02,240,250,255,255,155,160,165,165,252.5,270,275,275,695,93,Masters 1,SBD,M,Raw,
5,Fredrik Correa,1977,Sweden,91.2,217.5,230,-240,230,155,162.5,-167.5,162.5,260,280,-287.5,280,672.5,93,Masters 1,SBD,M,Raw,
6,Enno Langelotz,1976,Spain,92.04,230,240,-245,240,155,162.5,167.5,167.5,225,240,-245,240,647.5,93,Masters 1,SBD,M,Raw,
7,Thomas Edvinsson,1977,Sweden,91.98,210,220,,220,175,180,185,185,200,220,-230,220,625,93,Masters 1,SBD,M,Raw,
8,Kay Milde,1978,Germany,91.08,155,,,155,140,145,-150,145,260,275,282.5,282.5,582.5,93,Masters 1,SBD,M,Raw,
9,Nygren Hansen Thomas,1975,Denmark,90.58,140,155,162.5,162.5,115,125,130,130,210,220,-235,220,512.5,93,Masters 1,SBD,M,Raw,
10,Abdussaleem C V,1972,India,90.86,160,170,177.5,177.5,110,115,117.5,117.5,190,200,-202.5,200,495,93,Masters 1,SBD,M,Raw,
1,Anthony McLeggan,1981,Ireland,102.61,235,255,267.5,267.5,200,205,-207.5,205,300,320,-327.5,320,792.5,105,Masters 1,SBD,M,Raw,
2,Rene Brunner,1976,Austria,104.29,290,305,-315,305,175,182.5,187.5,187.5,275,290,-302.5,290,782.5,105,Masters 1,SBD,M,Raw,
3,Pjotr van den Hoek,1972,Netherlands,104.64,270,280,285,285,192.5,-197.5,-197.5,192.5,292.5,-300,-307.5,292.5,770,105,Masters 1,SBD,M,Raw,
4,Ross Brimsted,1981,UK,104.55,265,282.5,-285,282.5,160,170,175,175,300,-317.5,-317.5,300,757.5,105,Masters 1,SBD,M,Raw,
5,Karel Rada #1,1973,Czechia,104.4,260,270,-280,270,160,165,-170,165,260,275,-285,275,710,105,Masters 1,SBD,M,Raw,
6,Abdel Seidouvy,1972,Sweden,102.71,230,240,245,245,130,-137.5,137.5,137.5,292.5,300,305,305,687.5,105,Masters 1,SBD,M,Raw,
7,Ruben Manenti,1976,Italy,101.84,220,235,242.5,242.5,130,137.5,-142.5,137.5,285,295,302.5,302.5,682.5,105,Masters 1,SBD,M,Raw,
8,Robin Kensenhuis,1980,Netherlands,103.92,-210,210,220,220,160,167.5,175,175,250,265,282.5,282.5,677.5,105,Masters 1,SBD,M,Raw,
9,Martin Šafář,1981,Czechia,103.83,225,240,250,250,150,162.5,-167.5,162.5,235,250,262.5,262.5,675,105,Masters 1,SBD,M,Raw,
10,Nezar Ballil,1978,Morocco,101.93,180,195,205,205,185,190,-192.5,190,200,210,220,220,615,105,Masters 1,SBD,M,Raw,
11,Kaj Wasenius,1972,Finland,104.48,180,200,-205,200,130,135,-137.5,135,230,240,250,250,585,105,Masters 1,SBD,M,Raw,
12,Craig Masson,1981,South Africa,104.7,185,192.5,-200,192.5,145,152.5,160,160,210,-230,230,230,582.5,105,Masters 1,SBD,M,Raw,
13,Yoichi Sasaki,1976,Japan,94,185,195,205,205,117.5,122.5,-127.5,122.5,190,207.5,220,220,547.5,105,Masters 1,SBD,M,Raw,
DQ,Mohammed Ali Alkhanbouli,1980,UAE,104.75,-230,-250,,,165,175,-180,175,-272.5,-282.5,-295,,,105,Masters 1,SBD,M,Raw,
1,Ryan J Stills,1976,US Virgin Islands,119.54,287.5,305,315,315,190,200,-205,200,320,335,-352.5,335,850,120,Masters 1,SBD,M,Raw,
2,Fredrik Gudmundsson,1977,Sweden,118.88,250,262.5,270,270,180,190,-200,190,290,305,-315,305,765,120,Masters 1,SBD,M,Raw,
3,Håkan Mellberg,1977,Sweden,118.57,230,245,-250,245,215,220,-228.5,220,250,270,-280,270,735,120,Masters 1,SBD,M,Raw,
4,Luigi Brivio,1976,Italy,115.18,245,260,-270,260,160,165,-170,165,230,242.5,-250,242.5,667.5,120,Masters 1,SBD,M,Raw,
5,Marcel Benzler,1974,Germany,118.7,200,-220,-220,200,155,-165,-165,155,220,235,-245,235,590,120,Masters 1,SBD,M,Raw,
1,Jesús Daniel Prieto Freire,1977,Spain,149.66,335,350,-366,350,185,190,-195,190,300,315,-325,315,855,120+,Masters 1,SBD,M,Raw,
2,Jaroslav Šoukal,1972,Czechia,173.45,295,310,317.5,317.5,190,200,205,205,275,295,310,310,832.5,120+,Masters 1,SBD,M,Raw,
3,Antti Nevalainen,1978,Finland,178.74,250,275,290,290,190,200,205,205,300,325,-362.5,325,820,120+,Masters 1,SBD,M,Raw,
4,Steve Snell #1,1980,Canada,143.1,255,270,275,275,192.5,202.5,205,205,260,272.5,-275,272.5,752.5,120+,Masters 1,SBD,M,Raw,
5,Michele Peluso,1979,Italy,149.1,300,-315,-315,300,170,-180,-180,170,260,-280,-280,260,730,120+,Masters 1,SBD,M,Raw,
6,Olof Arvidsson,1979,Sweden,129.96,210,220,230,230,165,170,175,175,277.5,295,-300,295,700,120+,Masters 1,SBD,M,Raw,
7,Hamad Al Ajmi,1977,UAE,137.94,265,280,,280,170,175,,175,225,240,,240,695,120+,Masters 1,SBD,M,Raw,
1,Thomas Wulffeld,1969,Sweden,58.91,155,165,172.5,172.5,80,85,,85,202.5,217.5,225,225,482.5,59,Masters 2,SBD,M,Raw,
2,Frank Wunderlich,1964,Germany,58.66,97.5,102.5,105,105,80,85,87.5,87.5,137.5,142.5,147.5,147.5,340,59,Masters 2,SBD,M,Raw,
1,Lewis Noppers,1970,Canada,65.73,-177.5,180,190,190,110,115,120,120,230,259,-263,259,569,66,Masters 2,SBD,M,Raw,
2,Jonas Telégin,1965,Sweden,65.75,130,140,150,150,90,97.5,-102.5,97.5,200,215,-230,215,462.5,66,Masters 2,SBD,M,Raw,
1,Jacob Carrasco-Gonzales,1966,Peru,72.26,-205,205,-215,205,107.5,110,112.5,112.5,225,235,-242.5,235,552.5,74,Masters 2,SBD,M,Raw,
2,Che Manolo Omarini,1970,Italy,73.77,182.5,-190,192.5,192.5,127.5,-132.5,-132.5,127.5,215,225,-235,225,545,74,Masters 2,SBD,M,Raw,
3,Marek Jaroniec,1967,Poland,71.37,190,200,-202.5,200,100,105,-110,105,200,207.5,210,210,515,74,Masters 2,SBD,M,Raw,
4,Joe McCullough,1966,Canada,72.83,-170,170,182.5,182.5,112.5,115,-120,115,212.5,217.5,-220,217.5,515,74,Masters 2,SBD,M,Raw,
5,Per Gasdal,1968,Norway,73.59,135,145,150,150,115,120,122.5,122.5,190,205,225,225,497.5,74,Masters 2,SBD,M,Raw,
6,Cory Watkins,1968,US Virgin Islands,73.52,-140,-140,145,145,92.5,97.5,-107.5,97.5,185,192.5,200,200,442.5,74,Masters 2,SBD,M,Raw,
7,Terje Myrvold,1967,Norway,73.64,125,135,140,140,100,-105,-105,100,165,172.5,-180,172.5,412.5,74,Masters 2,SBD,M,Raw,
DQ,Ahmed Zellouf,1969,France,72.08,130,135,140,140,-110,-110,-110,,-200,-200,,,,74,Masters 2,SBD,M,Raw,
1,Thomas Gustavsson,1970,Sweden,82.15,175,185,190,190,112.5,117.5,-120,117.5,225,232.5,,232.5,540,83,Masters 2,SBD,M,Raw,
2,Erik Vik Jan,1969,Sweden,82.31,185,197.5,-202.5,197.5,112.5,117.5,-120,117.5,215,-225,-227.5,215,530,83,Masters 2,SBD,M,Raw,
3,Jesper Mogensen,1969,Denmark,79.72,140,150,157.5,157.5,100,105,-107.5,105,180,200,205,205,467.5,83,Masters 2,SBD,M,Raw,
1,Alejandro Rodríguez Acuña,1968,Spain,92.66,250,262.5,270,270,162.5,-170,-170,162.5,250,260,-267.5,260,692.5,93,Masters 2,SBD,M,Raw,
2,Jeff Butt,1970,Canada,92.64,240,247.5,252.5,252.5,140,145,147.5,147.5,260,272.5,280,280,680,93,Masters 2,SBD,M,Raw,
3,Pasi Kapanen,1970,Sweden,92.18,235,-245,245,245,132.5,-137.5,-137.5,132.5,272.5,-282.5,-302.5,272.5,650,93,Masters 2,SBD,M,Raw,
4,Harald Ekerhovd Nils,1969,Norway,91.62,200,210,-220,210,135,140,-142.5,140,225,250,-270,250,600,93,Masters 2,SBD,M,Raw,
5,Kim Dahl Hansen,1971,Denmark,92.66,207.5,-215,215,215,120,-122.5,-122.5,120,230,242.5,-247.5,242.5,577.5,93,Masters 2,SBD,M,Raw,
6,Vladimir Grazhdankin,1969,Russia,89.22,160,-170,170,170,120,130,-150,130,190,,,190,490,93,Masters 2,SBD,M,Raw,
1,Lawrence Hackley,1970,Sweden,102.1,240,250,-260,250,150,157.5,-160,157.5,280,295,,295,702.5,105,Masters 2,SBD,M,Raw,
2,Domenico Zaino,1969,Italy,102.88,-235,235,245,245,135,142.5,147.5,147.5,275,287.5,-295,287.5,680,105,Masters 2,SBD,M,Raw,
3,Anders Andersson,1962,Sweden,104.4,225,245,252.5,252.5,150,162.5,167.5,167.5,250,-260,-270,250,670,105,Masters 2,SBD,M,Raw,
4,Claus Joergensen,1964,Denmark,104.58,160,167.5,-172.5,167.5,120,125,127.5,127.5,190,205,-210,205,500,105,Masters 2,SBD,M,Raw,
1,Scott Robertson,1970,Canada,119.22,290,307.5,-315,307.5,205,-215.5,-215.5,205,255,-267.5,267.5,267.5,780,120,Masters 2,SBD,M,Raw,
2,Saša Cvetković,1970,Serbia,119.24,257.5,277.5,285,285,152.5,160,,160,270,290,-302.5,290,735,120,Masters 2,SBD,M,Raw,
3,Jim Ljungquist,1967,Norway,118.86,220,227.5,232.5,232.5,180,185,-187.5,185,270,280,285,285,702.5,120,Masters 2,SBD,M,Raw,
4,Arne Giseth Geir,1966,Norway,119.38,-220,220,230,230,150,-155,-160,150,260,280,-292.5,280,660,120,Masters 2,SBD,M,Raw,
5,Kaj Mattila,1970,Finland,109.15,202.5,215,227.5,227.5,132.5,137.5,-140,137.5,220,230,237.5,237.5,602.5,120,Masters 2,SBD,M,Raw,
6,Garmez Parks,1965,US Virgin Islands,107.39,175,-205,-205,175,150,160,-165,160,255,265,-275,265,600,120,Masters 2,SBD,M,Raw,
7,Eric Bar,1969,France,118.91,150,-160,-160,150,132.5,137.5,-140,137.5,210,230,-250,230,517.5,120,Masters 2,SBD,M,Raw,
1,Teijo Hytönen,1969,Finland,149.68,245,-255,255,255,160,170,175,175,260,275,-300,275,705,120+,Masters 2,SBD,M,Raw,
2,Nicklas Karlsson,1969,Sweden,121.99,230,235,,235,180,185,187.5,187.5,235,245,-252.5,245,667.5,120+,Masters 2,SBD,M,Raw,
3,Raymond Andersen,1967,Norway,121.57,225,232.5,237.5,237.5,170,177.5,-182.5,177.5,200,212.5,225,225,640,120+,Masters 2,SBD,M,Raw,
4,Ronny Andersen,1964,Norway,124.43,-205,-205,205,205,145,155,162.5,162.5,245,-247.5,-252.5,245,612.5,120+,Masters 2,SBD,M,Raw,
5,Robert Stoecklinger,1965,Austria,123.38,200,-212.5,-212.5,200,150,157.5,-160,157.5,215,230,,230,587.5,120+,Masters 2,SBD,M,Raw,
6,Ian Furman,1967,South Africa,131.87,165,175,180,180,185,-187.5,-190,185,185,200,-210,200,565,120+,Masters 2,SBD,M,Raw,
DQ,Bob Sadler,1962,UK,133.42,220,235,-240,235,-122.5,-122.5,,,235,247.5,-252.5,247.5,,120+,Masters 2,SBD,M,Raw,
1,Rafael López Cabello,1958,Spain,64.66,-147.5,147.5,167.5,167.5,82.5,-87.5,-90,82.5,180,200,-225.5,200,450,66,Masters 3,SBD,M,Raw,
1,Fernando Jimenez Ortega,1961,Spain,71.72,170,185,195,195,117.5,127.5,-132.5,127.5,200,215,-227.5,215,537.5,74,Masters 3,SBD,M,Raw,
2,Reino Puska,1959,Sweden,72,175,185,-192.5,185,105,110,-112.5,110,190,200,-205,200,495,74,Masters 3,SBD,M,Raw,
3,Henryk Hintzke,1957,Poland,72.66,-160,160,170,170,100,110,-112.5,110,175,-190,190,190,470,74,Masters 3,SBD,M,Raw,
4,Jean-Yves Marion,1952,France,71.96,120,125,130,130,80,82.5,-85,82.5,155,160,-165,160,372.5,74,Masters 3,SBD,M,Raw,
DQ,Hans Winbo,1958,Sweden,73.86,,,,,,,,,,,,,,74,Masters 3,SBD,M,Raw,
1,Rolf Hampel,1961,Germany,81.78,218,227.5,232.5,232.5,100,-105,110,110,205,217.5,227.5,227.5,570,83,Masters 3,SBD,M,Raw,
2,Tormod Andersen,1956,Norway,80.5,162.5,-170,170,170,100,105,-110,105,200,210,220,220,495,83,Masters 3,SBD,M,Raw,
3,Tomas Ring,1960,Sweden,82.4,145,152.5,,152.5,137.5,-140,-140,137.5,-155,-160,162.5,162.5,452.5,83,Masters 3,SBD,M,Raw,
4,Wim Bevers,1960,Netherlands,82.82,147.5,155,,155,95,-102.5,-102.5,95,175,192.5,-205,192.5,442.5,83,Masters 3,SBD,M,Raw,
1,David Ricks,1959,US Virgin Islands,92.65,265,-282.5,-282.5,265,180,192.5,198,198,260,273,287.5,287.5,750.5,93,Masters 3,SBD,M,Raw,
2,Harri Hagfors,1961,Finland,92.76,175,187.5,195,195,105,110,115,115,225,-235,237.5,237.5,547.5,93,Masters 3,SBD,M,Raw,
3,Michal Sekot,1961,Czechia,92.03,180,-187.5,190,190,130,137.5,-142.5,137.5,205,215,217.5,217.5,545,93,Masters 3,SBD,M,Raw,
4,Anders Källberg,1954,Sweden,91.54,165,175,180,180,117.5,-122.5,-122.5,117.5,205,215,-217.5,215,512.5,93,Masters 3,SBD,M,Raw,
5,Morten Rygh,1958,Norway,91.32,155,165,175,175,90,-95,-95,90,180,205,-215,205,470,93,Masters 3,SBD,M,Raw,
1,Ron Kilpatrick,1959,Canada,101.03,195,210,222.5,222.5,105,110,112.5,112.5,215,227.5,235,235,570,105,Masters 3,SBD,M,Raw,
2,Jarle Aaberg,1958,Norway,102.92,-195,195,-205,195,-140,-140,140,140,205,215,227.5,227.5,562.5,105,Masters 3,SBD,M,Raw,
3,Ladislav Horny,1959,Slovakia,104.12,192.5,-200,200,200,140,145,147.5,147.5,195,205,215,215,562.5,105,Masters 3,SBD,M,Raw,
4,Rune Johansen,1957,Norway,104.96,180,187.5,192.5,192.5,140,142.5,-145,142.5,210,-212.5,-220,210,545,105,Masters 3,SBD,M,Raw,
1,Björn Ahlberg,1956,Sweden,117.42,210,222.5,230,230,180,190,-200,190,210,225,230,230,650,120,Masters 3,SBD,M,Raw,
2,Mike Forster,1960,Canada,116.11,212.5,-222.5,-225,212.5,-110,112.5,117.5,117.5,222.5,232.5,237.5,237.5,567.5,120,Masters 3,SBD,M,Raw,
3,Eskild Sommernes,1958,Norway,106.8,160,-170,170,170,120,127.5,130,130,210,225,230,230,530,120,Masters 3,SBD,M,Raw,
4,Börje Lindh,1960,Sweden,109.24,140,150,152.5,152.5,120,125,130,130,190,200,210,210,492.5,120,Masters 3,SBD,M,Raw,
1,Yngve Gustafsson,1959,Sweden,129.13,145,160,-172.5,160,155,162.5,-167.5,162.5,210,220,-242.5,220,542.5,120+,Masters 3,SBD,M,Raw,
2,John O'Dwyer,1955,Ireland,121.39,170,-180,180,180,145,150,,150,150,180,,180,510,120+,Masters 3,SBD,M,Raw,
1,Lars Flyborg,1951,Sweden,65.32,142.5,155,160,160,92.5,100,102.5,102.5,150,165,-172.5,165,427.5,66,Masters 4,SBD,M,Raw,
1,John Terragni,1947,Denmark,72.3,137.5,147.5,152.5,152.5,110,115,120,120,155,165,172.5,172.5,445,74,Masters 4,SBD,M,Raw,
2,Jean-Pierre Duverger,1950,France,72.88,100,122.5,127.5,127.5,70,80,-85,80,120,140,-160,140,347.5,74,Masters 4,SBD,M,Raw,
1,John LaFlamme,1950,US Virgin Islands,82.11,175,185,193,193,90,97.5,105,105,200,220,232.5,232.5,530.5,83,Masters 4,SBD,M,Raw,
2,Janos Fabri,1945,Hungary,80.22,150,160,-165,160,70,75,77.5,77.5,220,230,240,240,477.5,83,Masters 4,SBD,M,Raw,
3,Kari Mattila,1945,Sweden,78.09,65,70,75,75,65,70,75,75,135,145,-155,145,295,83,Masters 4,SBD,M,Raw,
1,Sava Vasiljevski,1950,Serbia,88.98,-140,140,,140,60,70,,70,170,190,,190,400,93,Masters 4,SBD,M,Raw,
DQ,Kazimierz Michael Forys,1945,Germany,91.36,-150,,,,120,,,120,150,,,150,,93,Masters 4,SBD,M,Raw,
1,Valeriy Stepanenko,1951,Kazakhstan,103.98,165,-182.5,-182.5,165,95,100,-102.5,100,180,-192.5,192.5,192.5,457.5,105,Masters 4,SBD,M,Raw,
2,Tapani Puhakka,1944,Finland,93.2,-65,-65,65,65,70,80,90,90,140,-150,160,160,315,105,Masters 4,SBD,M,Raw,
1,Jean-Paul Belmas,1949,France,106.59,160,180,-190,180,90,95,-97.5,95,170,190,,190,465,120,Masters 4,SBD,M,Raw,
1,Sergey Fedosienko,1982,Russia,58.74,205,220,230,230,150,-155,-155,150,230,250,260,260,640,59,Open,SBD,M,Raw,
2,Evgeniy Mukhomedyanov,1981,Russia,58.9,185,200,207.5,207.5,120,125,-127.5,125,200,220,230,230,562.5,59,Open,SBD,M,Raw,
1,Panagiotis Tarinidis,1994,France,65.82,-240,240,247.5,247.5,160,165,167.5,167.5,270,277.5,-285,277.5,692.5,66,Open,SBD,M,Raw,
2,Sergey Gladkikh,1989,Russia,65.96,240,250,255,255,145,155,160,160,262.5,272.5,-285,272.5,687.5,66,Open,SBD,M,Raw,
3,Eddie Berglund,1995,Sweden,65.84,225,235,242.5,242.5,187.5,-202.5,-202.5,187.5,222.5,230,-257.5,230,660,66,Open,SBD,M,Raw,
4,Oleksii Titov,1994,Ukraine,65.94,215,222.5,227.5,227.5,142.5,-147.5,-147.5,142.5,255,265,-280,265,635,66,Open,SBD,M,Raw,
5,Mark Tobias,1995,Canada,66,225,237.5,-242.5,237.5,132.5,137.5,140,140,250,-265,-265,250,627.5,66,Open,SBD,M,Raw,
1,Alexander Eriksson,1994,Sweden,73.76,-240,245,-255,245,167.5,175,180,180,275,292.5,302.5,302.5,727.5,74,Open,SBD,M,Raw,
2,Paul Rembauville,1997,France,73.72,247.5,260,-262.5,260,147.5,-152.5,-152.5,147.5,290,310,-320,310,717.5,74,Open,SBD,M,Raw,
3,Yakov Ionin,1986,Kazakhstan,73.3,250,257.5,-260,257.5,170,175,177.5,177.5,-280,280,-292.5,280,715,74,Open,SBD,M,Raw,
4,Joshua Wright #1,1986,Germany,73.44,230,237.5,242.5,242.5,-175,175,-180,175,285,295,-305,295,712.5,74,Open,SBD,M,Raw,
5,Yakup Ünal,1994,Turkey,73.92,240,250,255,255,145,152.5,157.5,157.5,285,300,-317.5,300,712.5,74,Open,SBD,M,Raw,
6,Riccardo Angelini,1997,Italy,73.98,240,250,255,255,160,170,-172.5,170,265,280,-295,280,705,74,Open,SBD,M,Raw,
7,Christopher Wong,1985,UK,72.28,-230,230,250,250,130,140,-145,140,265,285,295,295,685,74,Open,SBD,M,Raw,
8,Dawid Kawka,1993,Poland,73.68,240,-252.5,-252.5,240,160,167.5,,167.5,265,275,-280,275,682.5,74,Open,SBD,M,Raw,
9,Jesús Javier Quirante Pérez,1997,Spain,73.3,192.5,202.5,-207.5,202.5,150,157.5,-160,157.5,255,267.5,-275,267.5,627.5,74,Open,SBD,M,Raw,
10,Shiva Karout,1989,Lebanon,71.76,200,212.5,220,220,132.5,-140,140,140,240,255,-265,255,615,74,Open,SBD,M,Raw,
11,Sean McGrory,1987,Ireland,73.7,200,215,222.5,222.5,132.5,140,-145,140,227.5,240,250,250,612.5,74,Open,SBD,M,Raw,
12,Jan Simo,1987,Austria,73.76,210,220,225,225,120,-125,125,125,252.5,-262.5,-267.5,252.5,602.5,74,Open,SBD,M,Raw,
13,Luke Rogers #1,1988,UK,73.8,-210,210,215,215,122.5,127.5,-130,127.5,250,260,,260,602.5,74,Open,SBD,M,Raw,
14,Muhammet Ali Berber,1997,Turkey,69.56,185,195,-207.5,195,105,110,-112.5,110,240,-255,-255,240,545,74,Open,SBD,M,Raw,
1,Russel Orhii,1994,US Virgin Islands,82.62,297.5,313.5,320.5,320.5,180,185,187.5,187.5,310,325,333,333,841,83,Open,SBD,M,Raw,
2,Yanis Bouchou,1996,France,82.58,245,257.5,267.5,267.5,162.5,167.5,175,175,315,330,335.5,335.5,778,83,Open,SBD,M,Raw,
3,Emilio Cotti Cometti,1995,Italy,82.86,265,275,282.5,282.5,155,160,162.5,162.5,305,325,327.5,327.5,772.5,83,Open,SBD,M,Raw,
4,Damian Nam,1994,Ireland,82.46,265,280,287.5,287.5,160,167.5,170,170,280,297.5,312.5,312.5,770,83,Open,SBD,M,Raw,
5,Kafui Hotsonyame,1993,Canada,81.92,-252.5,260,270,270,160,165,167.5,167.5,312.5,-322.5,-325,312.5,750,83,Open,SBD,M,Raw,
6,Nikolay Zemtsov,1992,Kazakhstan,82.42,255,265,-270,265,172.5,-177.5,-177.5,172.5,-310,310,-335,310,747.5,83,Open,SBD,M,Raw,
7,Matteo Moretto,1988,Italy,82.1,270,-285,285,285,180,185,-187.5,185,260,275,-280,275,745,83,Open,SBD,M,Raw,
8,Jack Söderberg,1996,Sweden,82.14,255,265,270,270,180,187.5,-192.5,187.5,270,285,-290,285,742.5,83,Open,SBD,M,Raw,
9,Alexey Kuzmin,1982,Russia,82.74,260,267.5,-270,267.5,180,185,-187.5,185,275,290,-300,290,742.5,83,Open,SBD,M,Raw,
10,Johannes Kristensen,1997,Norway,82.84,252.5,262.5,,262.5,165,172.5,177.5,177.5,292.5,-302.5,-305,292.5,732.5,83,Open,SBD,M,Raw,
11,Christian Ayandokun,1991,UK,82.8,225,-240,-240,225,167.5,177.5,-185,177.5,310,-331.5,-335.5,310,712.5,83,Open,SBD,M,Raw,
12,Enahoro Asein,1999,Hungary,81.54,217.5,230,240,240,115,125,-130,125,312.5,332.5,336,336,701,83,Open,SBD,M,Raw,
13,Anton Umanskyi,1994,Ukraine,80.98,262.5,-272.5,272.5,272.5,137.5,142.5,145,145,270,-277.5,-277.5,270,687.5,83,Open,SBD,M,Raw,
14,Joakim Halland Anders,1992,Norway,82.92,240,250,255,255,140,147.5,-152.5,147.5,270,285,-292.5,285,687.5,83,Open,SBD,M,Raw,
15,Martin Reidy,1992,Ireland,82.47,215,227.5,232.5,232.5,140,147.5,150,150,275,300,-305,300,682.5,83,Open,SBD,M,Raw,
16,Friðbjörn Bragi Hlynsson,1991,Iceland,82.84,235,245,-257.5,245,150,157.5,-162.5,157.5,250,270,-280,270,672.5,83,Open,SBD,M,Raw,
17,Richárd Zavesicki,1993,Hungary,82.24,220,232.5,-237.5,232.5,135,142.5,-145,142.5,225,247.5,-260,247.5,622.5,83,Open,SBD,M,Raw,
18,Akeame Jones,1989,US Virgin Islands,81.86,202.5,217.5,-227.5,217.5,150,-162.5,-162.5,150,245,-265,-265,245,612.5,83,Open,SBD,M,Raw,
DQ,Miroslav Nečas,1993,Czechia,82.24,245,255,-260,255,-160,-167.5,-167.5,,255,265,272.5,272.5,,83,Open,SBD,M,Raw,
1,Jonathan Cayco,1992,US Virgin Islands,92.14,272.5,287.5,292.5,292.5,222.5,233,238,238,317.5,335,342.5,342.5,873,93,Open,SBD,M,Raw,
2,Gustav Hedlund,1995,Sweden,92.88,290,302.5,312.5,312.5,192.5,202.5,210,210,322.5,335,-352.5,335,857.5,93,Open,SBD,M,Raw,
3,Emil Krastev,1997,Bulgaria,92.72,280,292.5,300,300,207.5,215,220,220,305,317.5,-337.5,317.5,837.5,93,Open,SBD,M,Raw,
4,Teodor Radev,1994,Bulgaria,91.8,270,-277.5,-280,270,195,-200,-200,195,305,-317.5,325,325,790,93,Open,SBD,M,Raw,
5,Alexey Zinurov,1988,Russia,93,285,292.5,297.5,297.5,192.5,197.5,-202.5,197.5,280,295,-302.5,295,790,93,Open,SBD,M,Raw,
6,TJ Gear,1990,Canada,91.8,235,242.5,250,250,185,192.5,200,200,297.5,312.5,325,325,775,93,Open,SBD,M,Raw,
7,Erik Mata,1996,UK,92.84,265,287.5,295,295,160,175,-180,175,275,300,-307.5,300,770,93,Open,SBD,M,Raw,
8,René Hofer,1997,Austria,92.02,260,272.5,282.5,282.5,160,165,-170,165,300,317.5,-330,317.5,765,93,Open,SBD,M,Raw,
9,Richard van Bezooijen,1996,Netherlands,90.86,-272.5,275,-282.5,275,175,182.5,185,185,287.5,302.5,-310,302.5,762.5,93,Open,SBD,M,Raw,
10,Ulan Anuar,1993,Kazakhstan,91.96,260,280,-292.5,280,170,-177.5,-177.5,170,280,300,-310,300,750,93,Open,SBD,M,Raw,
11,Antonio Gorga,1995,Italy,89.04,250,262.5,270,270,-155,160,167.5,167.5,285,300,310,310,747.5,93,Open,SBD,M,Raw,
12,Vyacheslav Shutenko,1986,Ukraine,92.68,275,282.5,-287.5,282.5,142.5,147.5,-150,147.5,307.5,317.5,-327.5,317.5,747.5,93,Open,SBD,M,Raw,
13,Oleg Dudchenko,1996,Ukraine,92.62,255,262.5,267.5,267.5,165,170,-172.5,170,290,300,,300,737.5,93,Open,SBD,M,Raw,
14,Cian Madden,1995,Ireland,92.8,265,-277.5,277.5,277.5,157.5,167.5,170,170,267.5,285,-300,285,732.5,93,Open,SBD,M,Raw,
15,Kevin Chau,1996,Canada,91.92,237.5,257.5,272.5,272.5,140,152.5,-157.5,152.5,250,267.5,280,280,705,93,Open,SBD,M,Raw,
16,Dávid Susa #2,1990,Hungary,93,230,242.5,252.5,252.5,145,152.5,160,160,250,265,-280,265,677.5,93,Open,SBD,M,Raw,
17,Alper Bülbül,1994,Turkey,91.16,200,220,-230,220,165,175,-180,175,260,280,-300,280,675,93,Open,SBD,M,Raw,
18,Ali Deniz Mehmet,1982,Turkey,91.32,220,-240,240,240,145,155,-160,155,260,275,-285,275,670,93,Open,SBD,M,Raw,
19,Deon Smedley,1984,South Africa,91.86,225,237.5,-247.5,237.5,140,145,-147.5,145,245,255,260,260,642.5,93,Open,SBD,M,Raw,
DQ,Tanno de Pender,1992,Netherlands,92.36,255,265,270,270,-190,-190,-190,,285,312.5,-327.5,312.5,,93,Open,SBD,M,Raw,
1,Anatolii Novopismennyi,1996,Ukraine,102.82,343.5,355,360,360,215,225,-231,225,330,342.5,352.5,352.5,937.5,105,Open,SBD,M,Raw,
2,Emil Norling,1996,Sweden,104.94,325,337.5,-345,337.5,195,200,-205,200,340,357.5,367.5,367.5,905,105,Open,SBD,M,Raw,
3,Corentin Clément,2000,France,103.76,310,-325,325,325,200,-205,205,205,340,352.5,365,365,895,105,Open,SBD,M,Raw,
4,Levon Tavakalov,1988,Russia,104.84,305,312.5,317.5,317.5,215,222.5,-227.5,222.5,335,-352.5,-355,335,875,105,Open,SBD,M,Raw,
5,Áron Hegedűs #1,1996,Hungary,103.22,260,285,300,300,160,172.5,177.5,177.5,302.5,322.5,332.5,332.5,810,105,Open,SBD,M,Raw,
6,Viktor Samúelsson,1993,Iceland,103.56,265,275,285,285,-180,185,192.5,192.5,300,-322.5,322.5,322.5,800,105,Open,SBD,M,Raw,
7,Joel Immanuel Vikesland,1997,Norway,104.54,250,262.5,270,270,170,180,187.5,187.5,290,315,325,325,782.5,105,Open,SBD,M,Raw,
8,Mattia Perazzuolo,1992,Italy,101.72,270,290,-305,290,165,170,175,175,300,315,,315,780,105,Open,SBD,M,Raw,
9,Vinzenz Helmreich,1990,Austria,104.8,270,282.5,-290,282.5,162.5,170,-175,170,295,320,-332.5,320,772.5,105,Open,SBD,M,Raw,
10,Lasse Johansen,1994,Denmark,101.94,250,262.5,-272.5,262.5,160,-167.5,167.5,167.5,285,300,310,310,740,105,Open,SBD,M,Raw,
11,Liam McManus,2000,Ireland,103.18,240,255,262.5,262.5,140,150,155,155,275,300,307.5,307.5,725,105,Open,SBD,M,Raw,
12,Vur Yektaoğlu,1984,Turkey,102.42,220,-230,230,230,-155,155,165,165,255,270,-290,270,665,105,Open,SBD,M,Raw,
13,Bakhtiyor Rahimov,1981,Tajikistan,101.24,-200,200,220,220,-150,150,-160,150,250,260,-265,260,630,105,Open,SBD,M,Raw,
1,Konstantin Musaev,1997,Russia,119.9,305,317.5,327.5,327.5,215,222.5,225,225,350,367.5,375,375,927.5,120,Open,SBD,M,Raw,
2,Tony Cliffe,1984,UK,119.66,310,330,-337.5,330,225,235,-240,235,325,350,-362.5,350,915,120,Open,SBD,M,Raw,
3,Cenk Koçak,1996,Turkey,119.46,-320,320,-330,320,210,-220,-220,210,370,-390,-390,370,900,120,Open,SBD,M,Raw,
4,Bryce Krawczyk,1987,Canada,117.32,292.5,305,315,315,185,192.5,195,195,365,385.5,-390.5,385.5,895.5,120,Open,SBD,M,Raw,
5,Emil Gustafsson,1994,Sweden,119.88,300,310,-315,310,205,212.5,217.5,217.5,315,327.5,332.5,332.5,860,120,Open,SBD,M,Raw,
6,Carl Petter Sommerseth,1985,Norway,119.42,280,295,-300,295,190,197.5,207.5,207.5,320,340,355,355,857.5,120,Open,SBD,M,Raw,
7,Talha Çetin,1997,Turkey,117.02,270,290,300,300,190,205,-210,205,320,340,-355,340,845,120,Open,SBD,M,Raw,
8,Dmitriy Li,1991,Kazakhstan,118.72,290,-305,305,305,230,-235,-235,230,290,305,-315,305,840,120,Open,SBD,M,Raw,
9,Friedrich von Hennig,1992,Germany,118.74,-300,-300,300,300,170,180,187.5,187.5,325,-345,345,345,832.5,120,Open,SBD,M,Raw,
10,Jens Peter Smalbro,1994,Denmark,118.9,275,300,315,315,155,165,170,170,300,320,335,335,820,120,Open,SBD,M,Raw,
11,Victor Mattsson,1990,Sweden,117.3,315,-335,335,335,140,150,-157.5,150,305,-320,-320,305,790,120,Open,SBD,M,Raw,
12,Ole Soerbo Borup,1995,Denmark,119.66,250,265,-272.5,265,172.5,180,185,185,300,325,-335,325,775,120,Open,SBD,M,Raw,
13,Deepak Deepak,1996,India,110.78,220,240,255,255,162.5,175,185,185,240,255,262.5,262.5,702.5,120,Open,SBD,M,Raw,
DQ,Piotr Sadowski #1,1993,Poland,119.82,-310,-310,-310,,217.5,-225,-225,217.5,320,-352.5,,320,,120,Open,SBD,M,Raw,
1,Jesus Olivares,1998,US Virgin Islands,167.02,387.5,412.5,427.5,427.5,232.5,245,252.5,252.5,342.5,365,-377.5,365,1045,120+,Open,SBD,M,Raw,
2,Erik Willis,1990,Canada,134.96,300,-320,320,320,235,250,257.5,257.5,350,370,375,375,952.5,120+,Open,SBD,M,Raw,
3,Dmytro Vovk,1996,Ukraine,141.48,330,350,362.5,362.5,235,250,260,260,305,330,-340,330,952.5,120+,Open,SBD,M,Raw,
4,Rubén Rico Martín,1984,Spain,200,360,375,380,380,225,232.5,235,235,315,330,-345,330,945,120+,Open,SBD,M,Raw,
5,Wesley Hall #1,1984,UK,138.4,310,325,-332.5,325,-210,-210,210,210,330,357.5,370,370,905,120+,Open,SBD,M,Raw,
6,Róbert Valach,1992,Slovakia,142.7,320,335,345,345,220,-225,-225,220,340,-370,-370,340,905,120+,Open,SBD,M,Raw,
7,Romuald Massé,1992,France,151.02,330,345,350,350,245,250,255,255,285,300,-305,300,905,120+,Open,SBD,M,Raw,
8,Jari Saario,1985,Finland,148.2,335,352.5,355,355,190,195,-197.5,195,350,-360,-365,350,900,120+,Open,SBD,M,Raw,
9,Steve Ringoot,1989,Belgium,150.8,320,332.5,-335,332.5,220,227.5,232.5,232.5,310,325,-332.5,325,890,120+,Open,SBD,M,Raw,
10,Andrey Konovalov #1,1986,Russia,159.14,345,-360,,345,-235,235,-245,235,310,-327.5,-327.5,310,890,120+,Open,SBD,M,Raw,
11,David Lupač,1991,Czechia,154.34,315,325,-335,325,225,-235,235,235,325,-337.5,,325,885,120+,Open,SBD,M,Raw,
12,Robert Gleisner,1991,Finland,172.3,315,325,-335,325,215,225,-230,225,310,-325,-325,310,860,120+,Open,SBD,M,Raw,
13,Francesco Pelizza,1986,Italy,135.2,290,300,,300,200,207.5,210,210,310,320,325,325,835,120+,Open,SBD,M,Raw,
14,James McCarthy #1,1998,Ireland,142.32,270,285,295,295,175,-182.5,-182.5,175,300,317.5,330,330,800,120+,Open,SBD,M,Raw,
15,Boska Jonathan,1995,India,120.5,-180,-180,180,180,-110,115,125,125,180,190,200,200,505,120+,Open,SBD,M,Raw,
16,Prasad Naik Kantyani,1988,India,159.05,150,-180,-180,150,95,-107.5,107.5,107.5,170,-180,,170,427.5,120+,Open,SBD,M,Raw,
1,Diana Anerkhanova,2003,Russia,42.7,60,65,70,70,35,40,-42.5,40,75,80,87.5,87.5,197.5,43,Sub-Juniors,SBD,F,Raw,
2,Pragathi P Nair,2005,India,42.37,40,52.5,60,60,25,-30,30,30,70,85,-107.5,85,175,43,Sub-Juniors,SBD,F,Raw,
1,Alina Udaltsova,2003,Russia,46.94,102.5,107.5,-110,107.5,75,77.5,80,80,135,-142.5,-142.5,135,322.5,47,Sub-Juniors,SBD,F,Raw,
2,Tetiana Petrenko,2007,Ukraine,46.77,77.5,85,-92.5,85,55,60,62.5,62.5,115,122.5,132.5,132.5,280,47,Sub-Juniors,SBD,F,Raw,
3,Jane Erasmo,2003,Philippines,46.87,-85,-85,85,85,55,60,-62.5,60,110,-130,132.5,132.5,277.5,47,Sub-Juniors,SBD,F,Raw,
1,Sofiya Stanko,2006,Ukraine,51.97,105,110,115,115,82.5,-87.5,-87.5,82.5,107.5,115,-120,115,312.5,52,Sub-Juniors,SBD,F,Raw,
2,Maria Kurkova,2004,Russia,51.57,107.5,-110,-110,107.5,62.5,65,67.5,67.5,130,-137.5,-137.5,130,305,52,Sub-Juniors,SBD,F,Raw,
3,Lauren Recci,2003,UK,50.65,87.5,95,100,100,40,45,-47.5,45,130,140,-142.5,140,285,52,Sub-Juniors,SBD,F,Raw,
4,Andrea Boyle,2005,US Virgin Islands,51.5,85,-95,95,95,45,47.5,57.5,57.5,122.5,132.5,-137.5,132.5,285,52,Sub-Juniors,SBD,F,Raw,
5,Aimee Grefen,2003,South Africa,51.48,100,-102.5,-102.5,100,42.5,-47.5,-47.5,42.5,120,-132.5,-132.5,120,262.5,52,Sub-Juniors,SBD,F,Raw,
1,Laoise Quinn,2003,Ireland,55.44,135,142.5,147.5,147.5,72.5,75,77.5,77.5,155,-165.5,-165.5,155,380,57,Sub-Juniors,SBD,F,Raw,
2,Esmee Neeleman,2003,Netherlands,56.16,100,107.5,110,110,62.5,67.5,70,70,140,147.5,157.5,157.5,337.5,57,Sub-Juniors,SBD,F,Raw,
3,Barbora Švaňová,2003,Czechia,55.71,115,127.5,-132.5,127.5,52.5,57.5,-60,57.5,132.5,140,-142.5,140,325,57,Sub-Juniors,SBD,F,Raw,
DQ,Polina Pavlova,2005,Russia,56.86,120,-125,-125,120,77.5,-80,80,80,-160,-160,-160,,,57,Sub-Juniors,SBD,F,Raw,
1,Veronika Dyakova,2004,Russia,62.31,110,125,-130,125,85,90,-95,90,142.5,-157.5,165,165,380,63,Sub-Juniors,SBD,F,Raw,
2,Anastasiya Butenko,2003,Kazakhstan,58.75,137.5,142.5,-147.5,142.5,75,80,82.5,82.5,145,150,-152.5,150,375,63,Sub-Juniors,SBD,F,Raw,
3,Mijuane de Wet,2006,South Africa,61.7,130,140,-142.5,140,60,65,-67.5,65,140,-150,-150,140,345,63,Sub-Juniors,SBD,F,Raw,
1,Anna Bardova,2004,Russia,67.4,170,180,-190,180,82.5,87.5,-90,87.5,185,192.5,199,199,466.5,69,Sub-Juniors,SBD,F,Raw,
2,Diana Hvahvalia,2003,Ukraine,68.89,130,135,-137.5,135,85,90,-95,90,160,-165,-165,160,385,69,Sub-Juniors,SBD,F,Raw,
3,Andjela Kitanovic,2003,Serbia,67.14,105,110,115,115,67.5,72.5,-75,72.5,130,137.5,140,140,327.5,69,Sub-Juniors,SBD,F,Raw,
4,Justyna Pietrykowska,2005,Poland,68.29,92.5,-97.5,97.5,97.5,65,70,-72.5,70,115,122.5,-127.5,122.5,290,69,Sub-Juniors,SBD,F,Raw,
5,Ayisha Beegam C. V,2004,India,67.36,92.5,102.5,110,110,-42.5,42.5,50,50,102.5,115,122.5,122.5,282.5,69,Sub-Juniors,SBD,F,Raw,
6,Heike Groenewald,2004,South Africa,64.72,85,-92.5,-92.5,85,52.5,-57.5,-57.5,52.5,115,125,130,130,267.5,69,Sub-Juniors,SBD,F,Raw,
7,Štěpánka Radová,2006,Czechia,66.38,90,97.5,102.5,102.5,42.5,47.5,50,50,100,110,115,115,267.5,69,Sub-Juniors,SBD,F,Raw,
1,Eliise Mikomägi,2003,Estonia,74.61,135,145,152.5,152.5,75,80,-82.5,80,150,160,170,170,402.5,76,Sub-Juniors,SBD,F,Raw,
2,Viktoriia Volvenkina,2003,Russia,75.61,127.5,135,-142.5,135,75,-80,-80,75,145,157.5,177.5,177.5,387.5,76,Sub-Juniors,SBD,F,Raw,
1,Tatyana Bykova,2005,Russia,83.3,125,-130,130,130,80,85,-90,85,125,130,135,135,350,84,Sub-Juniors,SBD,F,Raw,
2,Reda Laurinavičiūtė,2007,Lithuania,82.92,107.5,112.5,115,115,62.5,65,-67.5,65,132.5,140,145,145,325,84,Sub-Juniors,SBD,F,Raw,
DQ,Cassandra Annergren,2003,Sweden,81.6,-140,-140,-140,,80,-82.5,-82.5,80,180,196.5,-202.5,196.5,,84,Sub-Juniors,SBD,F,Raw,
1,Valerija Petrovaitė,2005,Lithuania,102.29,130,140,145,145,62.5,-65,-65,62.5,95,102.5,107.5,107.5,315,84+,Sub-Juniors,SBD,F,Raw,
DQ,Yevheniia Yelovska,2003,Ukraine,,,,,,,,,,,,,,,84+,Sub-Juniors,SBD,F,Raw,
1,Veronica Ompod,2000,Philippines,42.5,90,95,-105,95,42.5,-45,-45,42.5,100,110,117.5,117.5,255,43,Juniors,SBD,F,Raw,
1,Cosmiana Montanaro,2000,Italy,46.4,115,117.5,120,120,60,62.5,,62.5,157.5,-162.5,162.5,162.5,345,47,Juniors,SBD,F,Raw,
2,Zuzanna Kula,1999,Poland,46.88,122.5,-127.5,-127.5,122.5,75,77.5,-80,77.5,130,-137.5,137.5,137.5,337.5,47,Juniors,SBD,F,Raw,
3,Svetlana Verigina,1999,Russia,46.74,105,110,-112.5,110,-80,80,-85,80,-135,135,140,140,330,47,Juniors,SBD,F,Raw,
4,Karine St-Coeur,2002,Canada,46.36,105,110,-112.5,110,60,65,-67.5,65,130,-137.5,-137.5,130,305,47,Juniors,SBD,F,Raw,
5,Kym Murray,1998,Ireland,46.38,92.5,-100,-100,92.5,60,65,67.5,67.5,110,120,122.5,122.5,282.5,47,Juniors,SBD,F,Raw,
6,Kristina Lieonienko,2001,Ukraine,46.64,-100,-100,100,100,65,70,-72.5,70,100,105,-115,105,275,47,Juniors,SBD,F,Raw,
1,Olivia Kyösti,1999,Finland,51.74,135,141,143,143,80,82.5,-85,82.5,145,152.5,-155,152.5,378,52,Juniors,SBD,F,Raw,
2,Ida-Therese Lindeberg,2000,Sweden,51.18,127.5,132.5,-137.5,132.5,72.5,-75,-75,72.5,157.5,162.5,170,170,375,52,Juniors,SBD,F,Raw,
3,Anna Maramotti,1999,France,51.66,132.5,141.5,143.5,143.5,72.5,-75,75,75,142.5,-150,155,155,373.5,52,Juniors,SBD,F,Raw,
4,Giulia Grechi,2001,Italy,51.1,120,125,-130,125,62.5,-65,-65,62.5,162.5,175,182.5,182.5,370,52,Juniors,SBD,F,Raw,
5,Viktoria Druziaka,1998,Ukraine,51.58,-135,135,-142,135,80,85,-90,85,135,140,145,145,365,52,Juniors,SBD,F,Raw,
6,Valeriya Lescheva,2000,Russia,50.88,120,-127.5,127.5,127.5,105,111,113,113,115,117.5,-122.5,117.5,358,52,Juniors,SBD,F,Raw,
7,Sopiko Kvantchiani,1998,Georgia,51.94,115,122.5,127.5,127.5,67.5,-77.5,-77.5,67.5,120,132.5,-140,132.5,327.5,52,Juniors,SBD,F,Raw,
8,Laura Nathalia Varela Vallejos,1998,Colombia,51.32,110,115,117.5,117.5,57.5,-62.5,-62.5,57.5,120,-130,130,130,305,52,Juniors,SBD,F,Raw,
1,Jade Jacob,2001,France,55.92,-162.5,166.5,171.5,171.5,82.5,87.5,-90,87.5,175,185.5,-195,185.5,444.5,57,Juniors,SBD,F,Raw,
2,Maiara Da Silva Días,1999,Spain,56.4,160,-168,-168,160,72.5,-80,-80,72.5,180,188,-195,188,420.5,57,Juniors,SBD,F,Raw,
3,Sherry Berdigan,1998,Canada,56.78,-140,-145,145,145,80,87.5,90,90,172.5,180,182.5,182.5,417.5,57,Juniors,SBD,F,Raw,
4,Janneke Brauckman,1999,Netherlands,56.24,137.5,-142.5,142.5,142.5,97.5,102.5,105,105,157.5,165,167.5,167.5,415,57,Juniors,SBD,F,Raw,
5,Emily Finnern,2000,Germany,56.76,150,-157.5,-157.5,150,105,-107.5,107.5,107.5,150,155,-162.5,155,412.5,57,Juniors,SBD,F,Raw,
6,Joya Khairallah,2001,Lebanon,55.38,130,135,-140,135,-90,90,92.5,92.5,160,167.5,172.5,172.5,400,57,Juniors,SBD,F,Raw,
7,Nicole Tiranti,2000,Italy,56.78,-130,-130,130,130,75,-80,80,80,170,180,-188.5,180,390,57,Juniors,SBD,F,Raw,
8,Rachel Mawer,1998,UK,56.94,122.5,-127.5,-127.5,122.5,-82.5,82.5,85,85,150,157.5,162.5,162.5,370,57,Juniors,SBD,F,Raw,
9,Mia Margrethe Ramberg Storstad,1999,Norway,55.8,122.5,127.5,132.5,132.5,92.5,97.5,-102.5,97.5,130,137.5,-150,137.5,367.5,57,Juniors,SBD,F,Raw,
10,Elizaveta Pechenkina,2000,Russia,56.5,125,-130,130,130,-70,70,72.5,72.5,155,-162.5,-162.5,155,357.5,57,Juniors,SBD,F,Raw,
11,Veronika Pasičná,1999,Czechia,55.84,122.5,127.5,-130,127.5,62.5,65,-67.5,65,145,152.5,155,155,347.5,57,Juniors,SBD,F,Raw,
12,Veronique Cormier,1998,Canada,55.96,122.5,127.5,-132.5,127.5,75,-80,80,80,-140,140,-145,140,347.5,57,Juniors,SBD,F,Raw,
13,Sofia Räihä,2001,Finland,56.64,-120,120,-125,120,70,72.5,-75,72.5,-145,145,-157.5,145,337.5,57,Juniors,SBD,F,Raw,
14,Priscilla Delmoral,1998,US Virgin Islands,55.64,120,127.5,130,130,65,67.5,-72.5,67.5,125,127.5,130,130,327.5,57,Juniors,SBD,F,Raw,
15,Adriana Holubová,2001,Czechia,56.74,90,100,105,105,72.5,-77.5,-77.5,72.5,120,127.5,-132.5,127.5,305,57,Juniors,SBD,F,Raw,
DQ,Regina Bille,2002,Kazakhstan,56.1,-150,-150,-150,,-75,-75,-75,,,,,,,57,Juniors,SBD,F,Raw,
1,Chiara Bernardi,1998,Italy,62.26,170,178.5,183,183,107.5,112.5,-115,112.5,195,203.5,210,210,505.5,63,Juniors,SBD,F,Raw,
2,Sara Naldi,1998,Italy,61.98,167.5,176,181,181,100,-102.5,-102.5,100,195,202.5,-207,202.5,483.5,63,Juniors,SBD,F,Raw,
3,Alba Boström,2001,Sweden,62.26,155,-162.5,-162.5,155,110,-115,115,115,180,187.5,192.5,192.5,462.5,63,Juniors,SBD,F,Raw,
4,Aletta Rozsnyai-Kovács,1999,Hungary,62.66,145,155,162.5,162.5,110,115,120,120,165,180,-185,180,462.5,63,Juniors,SBD,F,Raw,
5,Samantha Eugenie,2002,France,62.12,160,-167.5,170,170,95,-100,100,100,170,180,-192.5,180,450,63,Juniors,SBD,F,Raw,
6,Ludivine Delos,2000,France,61.56,157.5,165,-170,165,80,-87.5,-87.5,80,-180,182.5,-187.5,182.5,427.5,63,Juniors,SBD,F,Raw,
7,Serena DeSantis,1998,Canada,61.94,150,157.5,160,160,77.5,80,-85,80,165,175,185,185,425,63,Juniors,SBD,F,Raw,
8,Darya Vorobeva,2001,Russia,62.66,160,165,-167.5,165,80,85,87.5,87.5,160,167.5,172.5,172.5,425,63,Juniors,SBD,F,Raw,
9,Kana Okada,1998,Japan,61.5,152.5,162.5,172.5,172.5,77.5,-85,-90,77.5,150,162.5,-167.5,162.5,412.5,63,Juniors,SBD,F,Raw,
10,Sophia Pilwax,1999,Austria,61.78,137.5,142.5,145,145,77.5,82.5,85,85,167.5,175,182.5,182.5,412.5,63,Juniors,SBD,F,Raw,
11,Mackenzie Rose,1999,Canada,60.4,145,150,155,155,80,87.5,-92.5,87.5,157.5,167.5,-175,167.5,410,63,Juniors,SBD,F,Raw,
12,Sanne van der Ploeg,1998,Netherlands,62.2,130,137.5,-140,137.5,80,-85,85,85,155,162.5,-170,162.5,385,63,Juniors,SBD,F,Raw,
13,Ida Hyytiäinen,1998,Finland,63,125,130,-132.5,130,92.5,95,-97.5,95,160,-167.5,-167.5,160,385,63,Juniors,SBD,F,Raw,
14,Jayne Jones,1998,Ireland,62.16,115,122.5,127.5,127.5,62.5,67.5,70,70,145,155,-160,155,352.5,63,Juniors,SBD,F,Raw,
15,Selin Çullu,2000,Turkey,60.76,60,75,-92.5,75,40,50,-57.5,50,90,97.5,-117.5,97.5,222.5,63,Juniors,SBD,F,Raw,
1,Agnes Rudin,2000,Sweden,67.68,170,177.5,180.5,180.5,110,-115,115.5,115.5,180,187.5,-192.5,187.5,483.5,69,Juniors,SBD,F,Raw,
2,Clara Peyraud,2002,France,67.64,160,167.5,-170,167.5,102.5,-107.5,107.5,107.5,206.5,-211,-211,206.5,481.5,69,Juniors,SBD,F,Raw,
3,Amira Isabel Blecua Malak,1999,Spain,68.22,157.5,167.5,-172.5,167.5,102.5,-107.5,-107.5,102.5,195,205,-214,205,475,69,Juniors,SBD,F,Raw,
4,Emma Omani,1998,Netherlands,66.92,150,160,-162.5,160,92.5,97.5,100,100,170,187.5,195,195,455,69,Juniors,SBD,F,Raw,
5,Valeriya Kochina,1998,Kazakhstan,68.4,160,-170,-170,160,110,-112.5,-112.5,110,170,-190,-190,170,440,69,Juniors,SBD,F,Raw,
6,Andorina Bouchoux,2002,France,68.6,-157.5,157.5,-162.5,157.5,95,100,-102.5,100,155,165,-172.5,165,422.5,69,Juniors,SBD,F,Raw,
7,Iduna Bink,2001,Netherlands,66.78,-150,150,-160,150,75,77.5,80,80,165,175,182.5,182.5,412.5,69,Juniors,SBD,F,Raw,
8,Lota Leinberga,1999,Ireland,68.5,132.5,140,145,145,85,90,92.5,92.5,145,155,162.5,162.5,400,69,Juniors,SBD,F,Raw,
9,Jennifer Harrington,1998,Ireland,67.94,132.5,137.5,142.5,142.5,72.5,77.5,80,80,152.5,160,165,165,387.5,69,Juniors,SBD,F,Raw,
DQ,Fauve-Belle Bouchard,2000,Canada,66.52,-175,-175,-175,,95,,,95,182.5,-190,195,195,,69,Juniors,SBD,F,Raw,
1,Vilma Olsson,1999,Sweden,72.38,195.5,204,-210.5,204,105,110,112.5,112.5,-187.5,190,202.5,202.5,519,76,Juniors,SBD,F,Raw,
2,Agata Sitko,2002,Poland,75.66,172.5,-182.5,-182.5,172.5,120,125.5,-128.5,125.5,-190,190,202.5,202.5,500.5,76,Juniors,SBD,F,Raw,
3,Isabell Adolfsen,1999,Norway,74.1,142.5,152.5,157.5,157.5,97.5,100,102.5,102.5,175,190,200,200,460,76,Juniors,SBD,F,Raw,
4,Cathelijne Gort,2001,Netherlands,74.18,120,125,130,130,92.5,97.5,100,100,185,195,-205,195,425,76,Juniors,SBD,F,Raw,
5,Sofie Horne,2001,Norway,75.6,135,145,150,150,85,90,-95,90,165,180,185,185,425,76,Juniors,SBD,F,Raw,
6,Dinara Matiakubova,1999,Russia,74.02,155,162.5,165,165,85,-90,-90,85,150,160,170,170,420,76,Juniors,SBD,F,Raw,
7,Caoimhe Ryan-Ireland,1998,Ireland,74.88,130,137.5,140,140,75,80,-82.5,80,142.5,150,152.5,152.5,372.5,76,Juniors,SBD,F,Raw,
8,Cristina Haug,1999,Argentina,74.46,130,137.5,-142.5,137.5,65,-72.5,-72.5,65,135,142.5,152.5,152.5,355,76,Juniors,SBD,F,Raw,
1,Giada Palma,1998,Italy,81.44,167.5,175,180,180,100,105,107.5,107.5,190,200,-205,200,487.5,84,Juniors,SBD,F,Raw,
2,Marianne Groleau,1998,Canada,82.69,180,190,195,195,80,85,87.5,87.5,180,192.5,200,200,482.5,84,Juniors,SBD,F,Raw,
3,Henna Kaasalainen,1999,Finland,81.72,180,185,187.5,187.5,87.5,92.5,-95,92.5,190,200,-210,200,480,84,Juniors,SBD,F,Raw,
4,Anastasiia Eskova,1998,Russia,80.96,175,182.5,185,185,95,-100,-100,95,155,165,-170,165,445,84,Juniors,SBD,F,Raw,
1,Melissa Bird,1998,UK,100.94,150,160,170,170,80,87.5,92.5,92.5,155,167.5,175,175,437.5,84+,Juniors,SBD,F,Raw,
1,Nataliya Ivankova,1974,Ukraine,46.66,102.5,107.5,110,110,65,67.5,70,70,120,127.5,-132.5,127.5,307.5,47,Masters 1,SBD,F,Raw,
2,Natalie Sleiers,1977,Sweden,46.38,95,100,-102.5,100,60,62.5,65,65,125,132.5,-142.5,132.5,297.5,47,Masters 1,SBD,F,Raw,
1,Joanna Rieber,1976,Canada,51.2,130,-137.5,-137.5,130,95,97.5,-103,97.5,152.5,160,-165,160,387.5,52,Masters 1,SBD,F,Raw,
2,Adriana Pence,1975,US Virgin Islands,51.7,127.5,132.5,137.5,137.5,55,57.5,60,60,150,157.5,165,165,362.5,52,Masters 1,SBD,F,Raw,
3,Cat Shamel,1977,UK,51.68,107.5,112.5,115,115,70,72.5,-75,72.5,142.5,150,157.5,157.5,345,52,Masters 1,SBD,F,Raw,
4,Ira Neitzel,1981,Germany,51.42,92.5,100,-105,100,50,55,-57.5,55,95,102.5,-110,102.5,257.5,52,Masters 1,SBD,F,Raw,
1,Elisa Vinante,1975,Italy,56.3,135,142.5,147.5,147.5,60,62.5,-65,62.5,135,142.5,150,150,360,57,Masters 1,SBD,F,Raw,
2,Helen Hughes #1,1976,UK,55.46,107.5,112.5,117.5,117.5,80,85,-87.5,85,135,145,-157.5,145,347.5,57,Masters 1,SBD,F,Raw,
3,Elise Rummens,1981,Belgium,55.36,115,-122.5,-122.5,115,67.5,-72.5,-72.5,67.5,155,-162.5,162.5,162.5,345,57,Masters 1,SBD,F,Raw,
4,Jasmin Treimer,1976,Germany,55.54,-100,-100,100,100,55,60,-62.5,60,145,150,152.5,152.5,312.5,57,Masters 1,SBD,F,Raw,
5,Danielle Hussey,1976,Canada,56.24,110,120,-122.5,120,60,65,-67.5,65,110,120,127.5,127.5,312.5,57,Masters 1,SBD,F,Raw,
6,Nina Honka,1972,Finland,56.42,95,-102.5,102.5,102.5,57.5,-60,-60,57.5,137.5,147.5,-155,147.5,307.5,57,Masters 1,SBD,F,Raw,
7,Nadège Barrere,1979,France,55.26,102.5,107.5,-112.5,107.5,60,-62.5,-62.5,60,122.5,-127.5,-127.5,122.5,290,57,Masters 1,SBD,F,Raw,
8,Åsa Kalderstam,1980,Sweden,56.14,85,90,-92.5,90,62.5,-65,-65,62.5,110,-115,,110,262.5,57,Masters 1,SBD,F,Raw,
1,Nataliia Zhukovska,1981,Ukraine,62.82,140,145,147.5,147.5,82.5,87.5,90,90,185,190,195,195,432.5,63,Masters 1,SBD,F,Raw,
2,Alice Veniani,1980,Italy,62.07,135,142.5,145,145,72.5,77.5,-80,77.5,175,182.5,-190,182.5,405,63,Masters 1,SBD,F,Raw,
3,Abi Graham,1978,UK,61.2,120,127.5,132.5,132.5,80,85,-87.5,85,175,185,-187.5,185,402.5,63,Masters 1,SBD,F,Raw,
4,Katri Backman,1977,Finland,62.28,137.5,145,-150,145,77.5,80,82.5,82.5,155,-162.5,-177.5,155,382.5,63,Masters 1,SBD,F,Raw,
5,Anett Kiss,1976,Hungary,62.44,127.5,-135,-135,127.5,72.5,75,-77.5,75,160,170,175,175,377.5,63,Masters 1,SBD,F,Raw,
6,Hege Velten,1973,Norway,61.71,105,110,115,115,60,65,-67.5,65,130,140,-145,140,320,63,Masters 1,SBD,F,Raw,
7,Anne Bernard,1978,France,61.08,100,105,-110,105,52.5,-57.5,-57.5,52.5,145,152.5,157.5,157.5,315,63,Masters 1,SBD,F,Raw,
8,Karen McKernan,1977,Ireland,62.4,100,-107.5,107.5,107.5,65,-70,-70,65,115,125,-130,125,297.5,63,Masters 1,SBD,F,Raw,
9,Christelle Musseau,1974,France,59.86,85,90,95,95,47.5,50,52.5,52.5,95,100,105,105,252.5,63,Masters 1,SBD,F,Raw,
1,Niamh Savage,1978,Ireland,66.48,147.5,155,162.5,162.5,70,75,77.5,77.5,185,200,-205,200,440,69,Masters 1,SBD,F,Raw,
2,Raquel de la Calle Labarzana,1977,Spain,65.8,-155,155,-162.5,155,75,80,85,85,155,165,170,170,410,69,Masters 1,SBD,F,Raw,
3,Genevieve Collins,1980,UK,67.23,145,-155,-155,145,77.5,80,82.5,82.5,155,-165,167.5,167.5,395,69,Masters 1,SBD,F,Raw,
4,Aysun Cakmak,1978,Netherlands,67.12,132.5,135,137.5,137.5,75,80,82.5,82.5,157.5,162.5,-175,162.5,382.5,69,Masters 1,SBD,F,Raw,
5,Sanna Joutsela,1973,Finland,64.98,117.5,125,130,130,77.5,82.5,-85,82.5,145,155,-160,155,367.5,69,Masters 1,SBD,F,Raw,
6,Katja Kärkkäinen,1974,Finland,63.71,120,-130,132.5,132.5,80,82.5,-85,82.5,142.5,-150,-150,142.5,357.5,69,Masters 1,SBD,F,Raw,
1,Melissa Garron,1981,Canada,75.12,145,152.5,157.5,157.5,-90,90,95,95,165,172.5,187.5,187.5,440,76,Masters 1,SBD,F,Raw,
2,Rebecca Allen,1979,UK,73.82,155,160,165,165,70,72.5,75,75,160,167.5,172.5,172.5,412.5,76,Masters 1,SBD,F,Raw,
3,Karen Tvedt,1977,Norway,75.5,145,150,-155,150,80,82.5,-85,82.5,147.5,157.5,167.5,167.5,400,76,Masters 1,SBD,F,Raw,
4,Saara Laine,1979,Finland,72.58,140,-147.5,-147.5,140,-70,70,-72.5,70,172.5,182.5,-190,182.5,392.5,76,Masters 1,SBD,F,Raw,
5,Malin Wahlberg,1974,Sweden,72.6,135,142.5,-150,142.5,72.5,77.5,-80,77.5,145,155,160,160,380,76,Masters 1,SBD,F,Raw,
6,Aileen Muldoon,1978,Ireland,72.7,132.5,135,-140,135,77.5,-82.5,-82.5,77.5,155,-160,160,160,372.5,76,Masters 1,SBD,F,Raw,
7,Pia Marangoni,1978,South Africa,73.82,127.5,135,-140,135,62.5,67.5,-70,67.5,145,160,-167.5,160,362.5,76,Masters 1,SBD,F,Raw,
8,Alexandra Johansson,1979,Sweden,74.88,105,115,120,120,70,-75,-80,70,125,135,142.5,142.5,332.5,76,Masters 1,SBD,F,Raw,
DQ,Evelyne Roos,1980,Belgium,75.56,-125,-125,-125,,62.5,-65,-65,62.5,-155,-155,-155,,,76,Masters 1,SBD,F,Raw,
1,Frida Henell,1978,Sweden,83.36,165,172.5,177.5,177.5,105,110,-115,110,172.5,182.5,190,190,477.5,84,Masters 1,SBD,F,Raw,
2,Mila Cuevas Mulero,1974,Spain,83.38,150,157.5,162.5,162.5,77.5,80,82.5,82.5,190,200,207.5,207.5,452.5,84,Masters 1,SBD,F,Raw,
3,Mia Öhrnell,1972,Sweden,80.37,155,162.5,167.5,167.5,92.5,-97.5,-97.5,92.5,150,162.5,-170,162.5,422.5,84,Masters 1,SBD,F,Raw,
4,Hilde Dretvik,1974,Norway,83.68,135,140,145,145,87.5,90,-95,90,160,170,180,180,415,84,Masters 1,SBD,F,Raw,
5,Grimstad Nordstrand Kristina,1978,Norway,81.32,135,145,150,150,80,-82.5,-82.5,80,145,155,165,165,395,84,Masters 1,SBD,F,Raw,
6,Taina Nuutinen-Kallio,1977,Finland,82.99,130,135,-140,135,62.5,67.5,-70,67.5,152.5,160,-165,160,362.5,84,Masters 1,SBD,F,Raw,
7,Hannele Eerikäinen,1977,Finland,79.41,120,127.5,132.5,132.5,72.5,77.5,-80,77.5,142.5,150,-155,150,360,84,Masters 1,SBD,F,Raw,
8,Amber Gomez,1978,US Virgin Islands,79.14,120,122.5,-130,122.5,60,65,-70,65,142.5,147.5,-157.5,147.5,335,84,Masters 1,SBD,F,Raw,
9,Xavière De Lucca,1978,France,78.33,95,100,105,105,55,57.5,-60,57.5,110,115,-117.5,115,277.5,84,Masters 1,SBD,F,Raw,
10,Kochumol K,1976,India,78.63,60,70,75,75,40,45,47.5,47.5,80,90,95,95,217.5,84,Masters 1,SBD,F,Raw,
1,Helen Ferguson-Ford,1981,UK,132.15,182.5,187.5,-192.5,187.5,90,95,-100,95,172.5,182.5,195,195,477.5,84+,Masters 1,SBD,F,Raw,
2,Victoria Tauson,1977,Sweden,101.29,152.5,160,167.5,167.5,82.5,87.5,92.5,92.5,170,177.5,-192.5,177.5,437.5,84+,Masters 1,SBD,F,Raw,
3,Liisa Asanti,1978,Finland,128.48,135,140,145,145,82.5,87.5,-90,87.5,165,177.5,185,185,417.5,84+,Masters 1,SBD,F,Raw,
4,Linda Vedestig,1978,Sweden,90.3,150,157.5,-162.5,157.5,80,-85,-85,80,160,170,-180,170,407.5,84+,Masters 1,SBD,F,Raw,
5,Heather Unsworth,1976,Canada,85.57,142.5,150,-157.5,150,72.5,77.5,80,80,157.5,170,-180,170,400,84+,Masters 1,SBD,F,Raw,
6,Lorraine McKenna,1973,Ireland,86.29,157.5,-165,-165,157.5,57.5,60,62.5,62.5,165,-170,-180,165,385,84+,Masters 1,SBD,F,Raw,
7,Emma Kiely,1974,Ireland,104.77,120,130,-132.5,130,67.5,-75,77.5,77.5,165,172.5,177.5,177.5,385,84+,Masters 1,SBD,F,Raw,
1,Elena Borgatti,1969,Italy,45.76,-100,100,105,105,50,-52.5,52.5,52.5,127.5,140.5,-145.5,140.5,298,47,Masters 2,SBD,F,Raw,
1,Angelina Lane,1969,UK,51.72,82.5,87.5,90,90,50,55,-57.5,55,112.5,117.5,122.5,122.5,267.5,52,Masters 2,SBD,F,Raw,
2,Donna Radik,1963,Canada,50.07,77.5,82.5,85,85,-50,50,-52.5,50,95,-100,-100,95,230,52,Masters 2,SBD,F,Raw,
1,Jo Ann Aita,1970,US Virgin Islands,56.86,122.5,128,,128,77.5,80,-82.5,80,155,165,-170,165,373,57,Masters 2,SBD,F,Raw,
2,Karen Burns,1968,UK,56.44,115,120,-122.5,120,60,-65,65,65,150,157.5,-165.5,157.5,342.5,57,Masters 2,SBD,F,Raw,
3,Kvelland Berntsen Jane,1969,Norway,56.54,112.5,117.5,120,120,65,-67.5,67.5,67.5,120,130,135,135,322.5,57,Masters 2,SBD,F,Raw,
4,Ann Fornander,1967,Sweden,56.14,107.5,112.5,117.5,117.5,50,52.5,55,55,135,145,-150,145,317.5,57,Masters 2,SBD,F,Raw,
5,Viktoria Cederholm,1969,Sweden,56.08,85,95,100,100,72.5,77.5,-82.5,77.5,115,-125,-125,115,292.5,57,Masters 2,SBD,F,Raw,
1,Elena Lutsenko,1963,Russia,62.94,-120,120,125,125,92.5,98,-100.5,98,142.5,150,155,155,378,63,Masters 2,SBD,F,Raw,
2,Francesca Brembilla,1966,Italy,62.02,120,125,127.5,127.5,65,67.5,70,70,130,137.5,-142.5,137.5,335,63,Masters 2,SBD,F,Raw,
3,Sara Soto Guzman,1966,Thailand,61.76,90,95,100,100,55,-60,60,60,150,160,-176,160,320,63,Masters 2,SBD,F,Raw,
4,Jessica Jading,1971,Sweden,61.16,95,-105,105,105,52.5,-60,-60,52.5,157.5,-167.5,-167.5,157.5,315,63,Masters 2,SBD,F,Raw,
5,Marie Hickey,1969,Ireland,61.6,-105,105,112.5,112.5,52.5,57.5,60,60,120,130,-137.5,130,302.5,63,Masters 2,SBD,F,Raw,
6,Sofia Rudin,1968,Sweden,59.76,100,110,115,115,47.5,52.5,-55,52.5,120,130,-135,130,297.5,63,Masters 2,SBD,F,Raw,
7,Karan Sanford-Taylor,1966,US Virgin Islands,60,92.5,97.5,-102.5,97.5,57.5,60,62.5,62.5,115,125,137.5,137.5,297.5,63,Masters 2,SBD,F,Raw,
8,Kelly Wharton,1962,Canada,59.58,-95,-97.5,97.5,97.5,50,55,-57.5,55,107.5,115,-122.5,115,267.5,63,Masters 2,SBD,F,Raw,
1,Heather Tagg,1966,UK,68.62,125,-130,130,130,70,72.5,75,75,160,170,175,175,380,69,Masters 2,SBD,F,Raw,
2,Karen Barry,1966,Ireland,68.04,132.5,142.5,150,150,67.5,72.5,-77.5,72.5,142.5,150,155,155,377.5,69,Masters 2,SBD,F,Raw,
3,Åsa Blomgren,1966,Sweden,63.88,115,-120,120,120,67.5,70,-72.5,70,150,160,-165,160,350,69,Masters 2,SBD,F,Raw,
4,Carin Gustafsson,1963,Sweden,66.76,110,115,117.5,117.5,80,85,-87.5,85,135,140,-145,140,342.5,69,Masters 2,SBD,F,Raw,
5,Louise de Jong,1969,Netherlands,67.08,105,110,-115,110,65,-70,70,70,140,147.5,-152.5,147.5,327.5,69,Masters 2,SBD,F,Raw,
6,Seija Skogman,1965,Finland,67.98,90,95,100,100,55,60,62.5,62.5,110,117.5,125,125,287.5,69,Masters 2,SBD,F,Raw,
7,Florence Leccese,1969,France,64.84,105,-115,-117.5,105,62.5,65,-67.5,65,107.5,115,-120,115,285,69,Masters 2,SBD,F,Raw,
1,Marie Ahlsten,1965,Sweden,74.5,127.5,132.5,135,135,67.5,72.5,-75,72.5,137.5,145,152.5,152.5,360,76,Masters 2,SBD,F,Raw,
2,Janet Loesel Sitar,1970,Canada,75.8,102.5,105,,105,72.5,-75,-75,72.5,130,137.5,145,145,322.5,76,Masters 2,SBD,F,Raw,
3,Suzi Avni,1971,Turkey,71.18,40,45,-55,45,32.5,37.5,-40,37.5,-70,70,80,80,162.5,76,Masters 2,SBD,F,Raw,
1,Georgina Hazell,1969,UK,82.46,135,145,-151.5,145,80,85,87.5,87.5,170,186.5,-190,186.5,419,84,Masters 2,SBD,F,Raw,
2,Svetlana Burian,1970,Russia,83.58,130,135,-140,135,65,-70,-70,65,155,165,-170,165,365,84,Masters 2,SBD,F,Raw,
3,Sinikka Korsikko,1969,Finland,81.1,122.5,132.5,-142.5,132.5,42.5,47.5,-52.5,47.5,125,135,-147.5,135,315,84,Masters 2,SBD,F,Raw,
4,Sylvia Wunderlich,1965,Germany,78.36,90,95,100,100,70,72.5,-75,72.5,120,-127.5,,120,292.5,84,Masters 2,SBD,F,Raw,
1,Barbara Claassen,1971,Netherlands,116.46,177.5,185,190,190,85,90,92.5,92.5,175,185,192.5,192.5,475,84+,Masters 2,SBD,F,Raw,
2,Jo Whiteley,1970,UK,121.36,170,-180,180,180,95,97.5,-100,97.5,180,192.5,-200,192.5,470,84+,Masters 2,SBD,F,Raw,
3,Judith Reitmann,1967,Uruguay,102.78,170,-180,180,180,-100,100,105,105,-175,175,-182.5,175,460,84+,Masters 2,SBD,F,Raw,
4,Marie Ebbeke,1967,Sweden,96.38,145,152.5,-155,152.5,-65,-65,65,65,135,145,150,150,367.5,84+,Masters 2,SBD,F,Raw,
1,Daryl Peter,1958,UK,50.38,70,75,80,80,45,-50,50,50,90,100,107.5,107.5,237.5,52,Masters 3,SBD,F,Raw,
1,Leena Jokitalo,1961,Finland,56.6,95,105,-115.5,105,52.5,55,57.5,57.5,130,140,-145,140,302.5,57,Masters 3,SBD,F,Raw,
2,Ingeborg Gjone,1961,Norway,56.46,82.5,87.5,90,90,52.5,55,-57.5,55,110,115,120,120,265,57,Masters 3,SBD,F,Raw,
3,Caroline Cunniffe,1957,Ireland,56.86,80,87.5,90,90,45,50,-52.5,50,105,115,125,125,265,57,Masters 3,SBD,F,Raw,
4,Tara Conlon,1959,Ireland,56.08,57.5,62.5,67.5,67.5,40,45,-47.5,45,95,105,-115,105,217.5,57,Masters 3,SBD,F,Raw,
1,Arlene van Diepen,1957,Canada,61.22,85,87.5,90,90,47.5,-50,50,50,130,137.5,142.5,142.5,282.5,63,Masters 3,SBD,F,Raw,
2,Caroline Calver,1958,UK,61.76,80,85,-90,85,37.5,-40,40,40,100,110,-112.5,110,235,63,Masters 3,SBD,F,Raw,
DQ,Susan Sabuda,1954,UK,61.56,-70,-70,-70,,-45,,,,,,,,,63,Masters 3,SBD,F,Raw,
1,Kirsti Løken,1954,Norway,67.88,105,-112.5,112.5,112.5,60,-65,65,65,120,130,140,140,317.5,69,Masters 3,SBD,F,Raw,
2,Annelie Gylemo,1958,Sweden,67.32,90,-97.5,-97.5,90,35,37.5,-40,37.5,125,132.5,-140,132.5,260,69,Masters 3,SBD,F,Raw,
1,Elsa Pálsdóttir,1960,Iceland,73.66,120,-132.5,132.5,132.5,55,60,-62.5,60,145,-160,160,160,352.5,76,Masters 3,SBD,F,Raw,
2,Pamela King,1959,Canada,74.14,105,110,-115,110,65,-67.5,67.5,67.5,117.5,125,-127.5,125,302.5,76,Masters 3,SBD,F,Raw,
1,Inger Blikra,1961,Norway,82.42,102.5,117.5,127.5,127.5,93,100,102.5,102.5,130,147.5,156,156,386,84,Masters 3,SBD,F,Raw,
2,Tove Michalsen,1959,Norway,82.42,107.5,112.5,-120,112.5,52.5,57.5,-62.5,57.5,125,132.5,-140,132.5,302.5,84,Masters 3,SBD,F,Raw,
1,Ann Jordebo,1960,Sweden,98.46,115,-120,120,120,65,67.5,-70,67.5,130,137.5,145,145,332.5,84+,Masters 3,SBD,F,Raw,
2,Anne Hellem,1961,Norway,92.4,-100,100,105,105,60,-62.5,62.5,62.5,120,130,-137.5,130,297.5,84+,Masters 3,SBD,F,Raw,
3,Schelderup Ediassen Brith,1957,Norway,96.36,92.5,-97.5,-97.5,92.5,47.5,50,52.5,52.5,105,122.5,125,125,270,84+,Masters 3,SBD,F,Raw,
DQ,Sandra Nase,1957,Canada,101.92,-90,-90,-90,,55,-60,-60,55,132.5,140,147.5,147.5,,84+,Masters 3,SBD,F,Raw,
1,Britten Fernström,1949,Sweden,55.76,72.5,-77.5,77.5,77.5,53.5,55,-56,55,100,105,-110,105,237.5,57,Masters 4,SBD,F,Raw,
2,Abbey Moon,1944,US Virgin Islands,55.78,47.5,-52.5,52.5,52.5,47.5,-52.5,-57.5,47.5,85,-92.5,-102.5,85,185,57,Masters 4,SBD,F,Raw,
1,Tiffany Chapon,2001,France,46.5,142.5,150,-153,150,-82.5,-82.5,82.5,82.5,150,160,165,165,397.5,47,Open,SBD,F,Raw,
2,Simone Lai,1991,Canada,46.24,130,135,140,140,72.5,77.5,-80,77.5,147.5,155,-162.5,155,372.5,47,Open,SBD,F,Raw,
3,Veronika Broner,1989,Kazakhstan,46.8,130,135,140,140,75,80,82.5,82.5,140,150,-157.5,150,372.5,47,Open,SBD,F,Raw,
4,Rachele Randone,1985,Italy,46.1,102.5,107.5,110,110,52.5,-55,55,55,150,155,157.5,157.5,322.5,47,Open,SBD,F,Raw,
5,Evgeniia Maksimova,1995,Russia,46.7,120,125,-127.5,125,62.5,-65,-65,62.5,127.5,135,-142.5,135,322.5,47,Open,SBD,F,Raw,
6,Kotchaphan Mai-On,1995,Ireland,47,87.5,95,-97.5,95,72.5,-77.5,-77.5,72.5,130,137.5,145,145,312.5,47,Open,SBD,F,Raw,
1,Noémie Allabert,1990,France,49.9,150,155,157.5,157.5,72.5,77.5,80,80,182.5,187.5,192.5,192.5,430,52,Open,SBD,F,Raw,
2,Shizuka Rico,1994,France,51.42,147.5,152.5,-155,152.5,75,77.5,80,80,-185,185,-198,185,417.5,52,Open,SBD,F,Raw,
3,Andrea Riley,1988,US Virgin Islands,52,150,-155,155,155,82.5,85,-87.5,85,172.5,-182.5,-182.5,172.5,412.5,52,Open,SBD,F,Raw,
4,Pleun Dekkers,1994,Netherlands,51.86,152.5,157.5,-161,157.5,75,-80,80,80,155,160,-175,160,397.5,52,Open,SBD,F,Raw,
5,Elizaveta Nikitina,2001,Russia,51.66,130,137.5,-142.5,137.5,80,85,-90,85,145,-152.5,157.5,157.5,380,52,Open,SBD,F,Raw,
6,Barbara Gapp,1981,Austria,51.86,110,117.5,122.5,122.5,60,65,67.5,67.5,175,190,-198,190,380,52,Open,SBD,F,Raw,
7,Leoni Tatman,1990,UK,51.02,135,-140,140,140,-85,-85,85,85,135,142.5,147.5,147.5,372.5,52,Open,SBD,F,Raw,
8,Kanan Kasai,1996,Japan,51.86,110,117.5,-125,117.5,77.5,82.5,-85,82.5,132.5,140,147.5,147.5,347.5,52,Open,SBD,F,Raw,
9,Dawn Steacy,1988,Ireland,51.26,100,105,110,110,72.5,77.5,80,80,140,147.5,-150,147.5,337.5,52,Open,SBD,F,Raw,
1,Joy Nnamani,1992,UK,56.66,162.5,-170,-170,162.5,92.5,97.5,-100,97.5,205.5,220.5,-232.5,220.5,480.5,57,Open,SBD,F,Raw,
2,Maria Htee,1988,Canada,55.76,170,-175,177.5,177.5,95,100,-102.5,100,185,192.5,195,195,472.5,57,Open,SBD,F,Raw,
3,Bobbie Butters,1994,UK,56.9,170,180.5,-183,180.5,97.5,102.5,105,105,170,180,185,185,470.5,57,Open,SBD,F,Raw,
4,Caroline Suné,1985,France,56.78,160,-165,165,165,80,-85,-85,80,165,172.5,177.5,177.5,422.5,57,Open,SBD,F,Raw,
5,Alessandra Cernigliaro,1995,Italy,56.54,-145,150,155,155,85,90,-92.5,90,-155,165,175,175,420,57,Open,SBD,F,Raw,
6,Donna Berglund,1997,Sweden,56.64,135,142.5,147.5,147.5,107.5,115,-121.5,115,145,152.5,157.5,157.5,420,57,Open,SBD,F,Raw,
7,Inna Filimonova #1,1976,Russia,56.6,155,165,-170,165,-75,-75,75,75,160,-172.5,172.5,172.5,412.5,57,Open,SBD,F,Raw,
8,Gina Bakke Bolstad,1991,Norway,56.96,147.5,155,160,160,77.5,85,90,90,147.5,155,160,160,410,57,Open,SBD,F,Raw,
9,Océane Regis,1996,France,55.58,145,150,-152.5,150,85,87.5,-90,87.5,165,170,-175,170,407.5,57,Open,SBD,F,Raw,
10,Laura Savolainen,1989,Sweden,56.18,125,130,-135,130,95,-97.5,97.5,97.5,165,172.5,-180,172.5,400,57,Open,SBD,F,Raw,
11,Yordanos Tessema,1992,Canada,56.44,117.5,125,130,130,70,75,77.5,77.5,177.5,185,190,190,397.5,57,Open,SBD,F,Raw,
12,Joanna Czekurłan,1993,Poland,56.4,135,140,145,145,87.5,90,92.5,92.5,140,150,-155,150,387.5,57,Open,SBD,F,Raw,
13,Anastasiia Kozhushko,1996,Ukraine,56.48,125,130,-132.5,130,75,77.5,80,80,150,-160,-160,150,360,57,Open,SBD,F,Raw,
1,Prescillia Bavoil,1993,France,62.86,195,205,-210,205,107.5,112.5,-115,112.5,215,225,230.5,230.5,548,63,Open,SBD,F,Raw,
2,Iris Scholten,1992,Netherlands,62.62,177.5,185,190,190,105,110,112.5,112.5,180,187.5,192.5,192.5,495,63,Open,SBD,F,Raw,
3,Ivana Horná,1990,Slovakia,62.9,165,172.5,-177.5,172.5,100,-105,-105,100,210,220,-225,220,492.5,63,Open,SBD,F,Raw,
4,Signe Elisabeth Belden,1983,Norway,62.52,160,165,-170,165,-110,110,112.5,112.5,180,190,-200,190,467.5,63,Open,SBD,F,Raw,
5,Sabrina Downes,1989,UK,62.72,155,162.5,-167.5,162.5,85,-90,-90,85,190,200,-205,200,447.5,63,Open,SBD,F,Raw,
6,Sophia Granstad,1994,Sweden,62.54,150,157.5,162.5,162.5,77.5,80,82.5,82.5,180,192.5,-202.5,192.5,437.5,63,Open,SBD,F,Raw,
7,Emma Arusyak Badalyan,1993,Denmark,62.42,165,172.5,175,175,82.5,87.5,-90,87.5,155,165,-170,165,427.5,63,Open,SBD,F,Raw,
8,Michaela Leonard,1995,Ireland,62.34,130,135,137.5,137.5,77.5,82.5,85,85,172.5,182.5,192.5,192.5,415,63,Open,SBD,F,Raw,
9,Sunniva Nordskog,1986,Norway,62.12,140,-145,145,145,95,100,102.5,102.5,160,-172.5,-172.5,160,407.5,63,Open,SBD,F,Raw,
10,Arna Ösp Gunnarsdóttir,1995,Iceland,62.72,-137.5,-142.5,142.5,142.5,80,85,87.5,87.5,170,-177.5,177.5,177.5,407.5,63,Open,SBD,F,Raw,
11,Sahyuri Lalime,1984,Belgium,62.82,-147.5,147.5,152.5,152.5,77.5,-80,-80,77.5,165,172.5,175,175,405,63,Open,SBD,F,Raw,
12,Sorah Garber,1981,South Africa,58.66,122.5,130,-135,130,85,-90,-90,85,155,-162.5,-162.5,155,370,63,Open,SBD,F,Raw,
13,Deshawn Larrimore,1990,US Virgin Islands,61.32,112.5,120,132.5,132.5,65,-72.5,-72.5,65,145,165,-172.5,165,362.5,63,Open,SBD,F,Raw,
1,Chandler Babb,1992,US Virgin Islands,68.58,177.5,187.5,-193,187.5,107.5,112.5,-115,112.5,230,-235,-235,230,530,69,Open,SBD,F,Raw,
2,Marte Kjenner,1989,Norway,68.62,180,187.5,192,192,115,-120,-120,115,205,-217.5,217.5,217.5,524.5,69,Open,SBD,F,Raw,
3,Sara Mazzantini,1990,Italy,68.48,177.5,185,-187.5,185,-102.5,102.5,107.5,107.5,200,210,222.5,222.5,515,69,Open,SBD,F,Raw,
4,Ana Rosa Castellain,1985,Brazil,68.68,185,-190,-190,185,122.5,127.5,130,130,200,-210,-210,200,515,69,Open,SBD,F,Raw,
5,Kimberly Walford,1978,US Virgin Islands,67.6,175,-180,-180,175,105,-110,-110,105,230,-240.5,-240.5,230,510,69,Open,SBD,F,Raw,
6,Christine Castro,1992,Canada,68.78,175,-182.5,-182.5,175,87.5,92.5,-95,92.5,195,200,-205,200,467.5,69,Open,SBD,F,Raw,
7,Emma McDermott,1992,Ireland,68.84,145,152.5,-160,152.5,80,-85,85,85,180,190,202.5,202.5,440,69,Open,SBD,F,Raw,
8,Khatia Khurtsilava,1994,Georgia,68.74,115,-122.5,-125,115,55,60,62.5,62.5,135,145,155,155,332.5,69,Open,SBD,F,Raw,
DQ,Nino Tchrikishvili,1991,Georgia,68.88,-145,-150,-150,,-77.5,-80,-80,,200,212.5,-217.5,212.5,,69,Open,SBD,F,Raw,
1,Jessica Buettner,1995,Canada,75.52,200,210.5,-218,210.5,97.5,102.5,105,105,240,247.5,-257,247.5,563,76,Open,SBD,F,Raw,
2,Francesca Parrello,1994,Italy,75.48,175,185,190,190,102.5,-107.5,-107.5,102.5,220,227.5,230,230,522.5,76,Open,SBD,F,Raw,
3,Joyce Gail Reboton,1992,Philippines,75.1,187.5,-195,-195,187.5,97.5,102.5,105,105,192.5,200,205,205,497.5,76,Open,SBD,F,Raw,
4,Sophia Ellis,1996,UK,71.1,152.5,160,-165,160,-102.5,102.5,-107.5,102.5,205,217.5,227.5,227.5,490,76,Open,SBD,F,Raw,
5,Verdiana Mineo,1991,Italy,73.52,180,190,195,195,100,-107.5,-107.5,100,180,190,195,195,490,76,Open,SBD,F,Raw,
6,Kristina Horvat,1992,Croatia,69.7,160,167.5,170,170,110,115,-117.5,115,185,195,-200,195,480,76,Open,SBD,F,Raw,
7,Maja Bonde,1993,Denmark,74.02,-162.5,162.5,170,170,87.5,92.5,-95,92.5,185,195,-200,195,457.5,76,Open,SBD,F,Raw,
8,Mira Lahtinen,1987,Finland,75.2,157.5,165,-170,165,102.5,-107.5,-107.5,102.5,177.5,-187.5,190,190,457.5,76,Open,SBD,F,Raw,
9,Anna Dymina,1989,Russia,75.26,160,167.5,172.5,172.5,85,-90,-90,85,182.5,192.5,-200,192.5,450,76,Open,SBD,F,Raw,
10,Birgit Rós Becker,1989,Iceland,75.28,170,-182.5,-182.5,170,92.5,-100,-100,92.5,175,185,-190,185,447.5,76,Open,SBD,F,Raw,
11,Tuulia Lohivuo,1997,Finland,75.48,160,167.5,-172.5,167.5,102.5,-107.5,-107.5,102.5,167.5,175,-182.5,175,445,76,Open,SBD,F,Raw,
12,Danielle Todman,1984,US Virgin Islands,72.32,132.5,140,145,145,85,92.5,95,95,177.5,187.5,192.5,192.5,432.5,76,Open,SBD,F,Raw,
13,Bianca Sullivan,1986,Austria,74.84,150,-155,-155,150,97.5,102.5,-107.5,102.5,162.5,170,180,180,432.5,76,Open,SBD,F,Raw,
14,Roemer Andersen Rebekka,1996,Denmark,74.88,142.5,150,152.5,152.5,95,102.5,-107.5,102.5,165,177.5,-185,177.5,432.5,76,Open,SBD,F,Raw,
15,Marinela Fras,1997,Croatia,75.78,145,-152.5,155,155,95,100,-102.5,100,160,167.5,-172.5,167.5,422.5,76,Open,SBD,F,Raw,
DQ,Cassie Bordes,1987,US Virgin Islands,74.34,-145,-145,-145,,60,65,70,70,155,162.5,175,175,,76,Open,SBD,F,Raw,
1,Amanda Lawrence #1,1997,US Virgin Islands,83.26,232.5,243.5,-250,243.5,122.5,130,132.5,132.5,240,258,260.5,260.5,636.5,84,Open,SBD,F,Raw,
2,Angelina Elovikova,1993,Russia,81.38,197.5,210,217.5,217.5,105,110,115,115,225,-232.5,-232.5,225,557.5,84,Open,SBD,F,Raw,
3,Kristín Þórhallsdóttir,1984,Iceland,82.26,200,212.5,217.5,217.5,105,112.5,-117.5,112.5,210,222.5,-230,222.5,552.5,84,Open,SBD,F,Raw,
4,Danielle Philibert,1992,Canada,81.9,200,-212.5,-212.5,200,115,120,-125,120,200,-210,-210,200,520,84,Open,SBD,F,Raw,
5,Sonita Muluh,1996,Belgium,83.8,190,-195,195,195,90,-95,95,95,230,-240,-240,230,520,84,Open,SBD,F,Raw,
6,Katja Jørgensen,1988,Denmark,78.8,155,165,170,170,95,100,102.5,102.5,200,215,225,225,497.5,84,Open,SBD,F,Raw,
7,Rashenna Grzybowski,1995,Canada,82.6,185,190,-192.5,190,97.5,102.5,105,105,200,-205,-205,200,495,84,Open,SBD,F,Raw,
8,Ellinor Svensson,1986,Sweden,82.12,170,182.5,190,190,87.5,92.5,95,95,195,-212.5,-212.5,195,480,84,Open,SBD,F,Raw,
9,Alison O'Reilly,1992,Ireland,82.82,175,180,-182.5,180,100,105,-107.5,105,180,-190,-190,180,465,84,Open,SBD,F,Raw,
10,Dayana Zapata Quiceno Karen,1994,Colombia,79.26,165,175,180,180,75,80,85,85,160,170,180,180,445,84,Open,SBD,F,Raw,
1,Brittany Schlater,1991,Canada,107.14,217.5,225,230,230,120,127.5,-130,127.5,232.5,245,250,250,607.5,84+,Open,SBD,F,Raw,
2,Emelie Leach,1993,Sweden,146.74,220,-227.5,227.5,227.5,127.5,132.5,135,135,230,240,245,245,607.5,84+,Open,SBD,F,Raw,
3,Amélie Mierger,1992,France,137.9,222.5,227.5,232.5,232.5,137.5,145,-150,145,222.5,-227.5,-232.5,222.5,600,84+,Open,SBD,F,Raw,
4,Anna-Lena Bellqvist,1987,Sweden,144.5,230,237.5,245,245,105,112.5,117.5,117.5,200,217.5,-240,217.5,580,84+,Open,SBD,F,Raw,
5,Olga Kuzmina,2001,Russia,153.86,215,225,235,235,125,-135,135,135,182.5,-190,190,190,560,84+,Open,SBD,F,Raw,
6,Annina Luotonen,1986,Finland,130.28,190,-200,-200,190,105,110,115,115,220,-230,-230,220,525,84+,Open,SBD,F,Raw,
7,Sarah Gardiner,1997,Ireland,109.42,-175,175,182.5,182.5,95,100,105,105,175,185,190,190,477.5,84+,Open,SBD,F,Raw,
8,Ilrish Kensenhuis,1986,Netherlands,90.56,165,170,175,175,85,90,92.5,92.5,-202.5,202.5,-205,202.5,470,84+,Open,SBD,F,Raw,
